
skeleton.png
size: 1684,919
format: RGBA8888
filter: Linear,Linear
repeat: none
Body
  rotate: true
  xy: 2, 530
  size: 387, 1447
  orig: 387, 1447
  offset: 0, 0
  index: -1
Head
  rotate: false
  xy: 2, 2
  size: 496, 526
  orig: 496, 526
  offset: 0, 0
  index: -1
hand
  rotate: false
  xy: 1496, 422
  size: 186, 495
  orig: 186, 495
  offset: 0, 0
  index: -1
lose
  rotate: false
  xy: 998, 2
  size: 496, 526
  orig: 496, 526
  offset: 0, 0
  index: -1
win
  rotate: false
  xy: 500, 2
  size: 496, 526
  orig: 496, 526
  offset: 0, 0
  index: -1
