%YAML 1.1
%TAG !u! tag:unity3d.com,2011:
--- !u!74 &7400000
AnimationClip:
  m_ObjectHideFlags: 0
  m_CorrespondingSourceObject: {fileID: 0}
  m_PrefabInstance: {fileID: 0}
  m_PrefabAsset: {fileID: 0}
  m_Name: Idle
  serializedVersion: 6
  m_Legacy: 0
  m_Compressed: 0
  m_UseHighQualityCurve: 1
  m_RotationCurves: []
  m_CompressedRotationCurves: []
  m_EulerCurves: []
  m_PositionCurves: []
  m_ScaleCurves: []
  m_FloatCurves:
  - curve:
      serializedVersion: 2
      m_Curve:
      - serializedVersion: 3
        time: 0
        value: 0
        inSlope: 0
        outSlope: 0
        tangentMode: 136
        weightedMode: 0
        inWeight: 0
        outWeight: 0
      m_PreInfinity: 2
      m_PostInfinity: 2
      m_RotationOrder: 4
    attribute: m_AnchoredPosition.x
    path: Dwarf
    classID: 224
    script: {fileID: 0}
  - curve:
      serializedVersion: 2
      m_Curve:
      - serializedVersion: 3
        time: 0
        value: 0
        inSlope: 0
        outSlope: 0
        tangentMode: 136
        weightedMode: 0
        inWeight: 0
        outWeight: 0
      m_PreInfinity: 2
      m_PostInfinity: 2
      m_RotationOrder: 4
    attribute: m_AnchoredPosition.y
    path: Dwarf
    classID: 224
    script: {fileID: 0}
  - curve:
      serializedVersion: 2
      m_Curve:
      - serializedVersion: 3
        time: 0
        value: 0
        inSlope: 0
        outSlope: 0
        tangentMode: 136
        weightedMode: 0
        inWeight: 0
        outWeight: 0
      m_PreInfinity: 2
      m_PostInfinity: 2
      m_RotationOrder: 4
    attribute: m_SizeDelta.x
    path: Dwarf
    classID: 224
    script: {fileID: 0}
  - curve:
      serializedVersion: 2
      m_Curve:
      - serializedVersion: 3
        time: 0
        value: 0
        inSlope: 0
        outSlope: 0
        tangentMode: 136
        weightedMode: 0
        inWeight: 0
        outWeight: 0
      m_PreInfinity: 2
      m_PostInfinity: 2
      m_RotationOrder: 4
    attribute: m_SizeDelta.y
    path: Dwarf
    classID: 224
    script: {fileID: 0}
  m_PPtrCurves:
  - curve:
    - time: 0
      value: {fileID: 6875114847416239073, guid: e89e9629165b93846883c68fcdf38e93, type: 3}
    - time: 0.022222223
      value: {fileID: 6840975396935506754, guid: e89e9629165b93846883c68fcdf38e93, type: 3}
    - time: 0.044444446
      value: {fileID: -4347603003522229717, guid: e89e9629165b93846883c68fcdf38e93, type: 3}
    - time: 0.06666667
      value: {fileID: -6813921517905588363, guid: e89e9629165b93846883c68fcdf38e93, type: 3}
    - time: 0.08888889
      value: {fileID: -8128404509865977236, guid: e89e9629165b93846883c68fcdf38e93, type: 3}
    - time: 0.11111111
      value: {fileID: 2543709555948890398, guid: e89e9629165b93846883c68fcdf38e93, type: 3}
    - time: 0.13333334
      value: {fileID: 7167568033656674939, guid: e89e9629165b93846883c68fcdf38e93, type: 3}
    - time: 0.15555556
      value: {fileID: -971173846079352141, guid: e89e9629165b93846883c68fcdf38e93, type: 3}
    - time: 0.17777778
      value: {fileID: -3746112879899001748, guid: e89e9629165b93846883c68fcdf38e93, type: 3}
    - time: 0.2
      value: {fileID: -6455839637148441340, guid: e89e9629165b93846883c68fcdf38e93, type: 3}
    - time: 0.22222222
      value: {fileID: -5423127613160085802, guid: e89e9629165b93846883c68fcdf38e93, type: 3}
    - time: 0.24444444
      value: {fileID: 3286835934646751124, guid: e89e9629165b93846883c68fcdf38e93, type: 3}
    - time: 0.26666668
      value: {fileID: 3119118630011220862, guid: e89e9629165b93846883c68fcdf38e93, type: 3}
    - time: 0.2888889
      value: {fileID: 5312514115939504649, guid: e89e9629165b93846883c68fcdf38e93, type: 3}
    attribute: m_Sprite
    path: Dwarf
    classID: 114
    script: {fileID: 11500000, guid: fe87c0e1cc204ed48ad3b37840f39efc, type: 3}
  m_SampleRate: 45
  m_WrapMode: 0
  m_Bounds:
    m_Center: {x: 0, y: 0, z: 0}
    m_Extent: {x: 0, y: 0, z: 0}
  m_ClipBindingConstant:
    genericBindings:
    - serializedVersion: 2
      path: 1836380095
      attribute: 2015549526
      script: {fileID: 11500000, guid: fe87c0e1cc204ed48ad3b37840f39efc, type: 3}
      typeID: 114
      customType: 0
      isPPtrCurve: 1
    - serializedVersion: 2
      path: 1836380095
      attribute: 1460864421
      script: {fileID: 0}
      typeID: 224
      customType: 28
      isPPtrCurve: 0
    - serializedVersion: 2
      path: 1836380095
      attribute: 538195251
      script: {fileID: 0}
      typeID: 224
      customType: 28
      isPPtrCurve: 0
    - serializedVersion: 2
      path: 1836380095
      attribute: 1967290853
      script: {fileID: 0}
      typeID: 224
      customType: 28
      isPPtrCurve: 0
    - serializedVersion: 2
      path: 1836380095
      attribute: 38095219
      script: {fileID: 0}
      typeID: 224
      customType: 28
      isPPtrCurve: 0
    pptrCurveMapping:
    - {fileID: 6875114847416239073, guid: e89e9629165b93846883c68fcdf38e93, type: 3}
    - {fileID: 6840975396935506754, guid: e89e9629165b93846883c68fcdf38e93, type: 3}
    - {fileID: -4347603003522229717, guid: e89e9629165b93846883c68fcdf38e93, type: 3}
    - {fileID: -6813921517905588363, guid: e89e9629165b93846883c68fcdf38e93, type: 3}
    - {fileID: -8128404509865977236, guid: e89e9629165b93846883c68fcdf38e93, type: 3}
    - {fileID: 2543709555948890398, guid: e89e9629165b93846883c68fcdf38e93, type: 3}
    - {fileID: 7167568033656674939, guid: e89e9629165b93846883c68fcdf38e93, type: 3}
    - {fileID: -971173846079352141, guid: e89e9629165b93846883c68fcdf38e93, type: 3}
    - {fileID: -3746112879899001748, guid: e89e9629165b93846883c68fcdf38e93, type: 3}
    - {fileID: -6455839637148441340, guid: e89e9629165b93846883c68fcdf38e93, type: 3}
    - {fileID: -5423127613160085802, guid: e89e9629165b93846883c68fcdf38e93, type: 3}
    - {fileID: 3286835934646751124, guid: e89e9629165b93846883c68fcdf38e93, type: 3}
    - {fileID: 3119118630011220862, guid: e89e9629165b93846883c68fcdf38e93, type: 3}
    - {fileID: 5312514115939504649, guid: e89e9629165b93846883c68fcdf38e93, type: 3}
  m_AnimationClipSettings:
    serializedVersion: 2
    m_AdditiveReferencePoseClip: {fileID: 0}
    m_AdditiveReferencePoseTime: 0
    m_StartTime: 0
    m_StopTime: 0.31111112
    m_OrientationOffsetY: 0
    m_Level: 0
    m_CycleOffset: 0
    m_HasAdditiveReferencePose: 0
    m_LoopTime: 1
    m_LoopBlend: 0
    m_LoopBlendOrientation: 0
    m_LoopBlendPositionY: 0
    m_LoopBlendPositionXZ: 0
    m_KeepOriginalOrientation: 0
    m_KeepOriginalPositionY: 1
    m_KeepOriginalPositionXZ: 0
    m_HeightFromFeet: 0
    m_Mirror: 0
  m_EditorCurves:
  - curve:
      serializedVersion: 2
      m_Curve:
      - serializedVersion: 3
        time: 0
        value: 0
        inSlope: 0
        outSlope: 0
        tangentMode: 136
        weightedMode: 0
        inWeight: 0
        outWeight: 0
      m_PreInfinity: 2
      m_PostInfinity: 2
      m_RotationOrder: 4
    attribute: m_AnchoredPosition.x
    path: Dwarf
    classID: 224
    script: {fileID: 0}
  - curve:
      serializedVersion: 2
      m_Curve:
      - serializedVersion: 3
        time: 0
        value: 0
        inSlope: 0
        outSlope: 0
        tangentMode: 136
        weightedMode: 0
        inWeight: 0
        outWeight: 0
      m_PreInfinity: 2
      m_PostInfinity: 2
      m_RotationOrder: 4
    attribute: m_AnchoredPosition.y
    path: Dwarf
    classID: 224
    script: {fileID: 0}
  - curve:
      serializedVersion: 2
      m_Curve:
      - serializedVersion: 3
        time: 0
        value: 0
        inSlope: 0
        outSlope: 0
        tangentMode: 136
        weightedMode: 0
        inWeight: 0
        outWeight: 0
      m_PreInfinity: 2
      m_PostInfinity: 2
      m_RotationOrder: 4
    attribute: m_SizeDelta.x
    path: Dwarf
    classID: 224
    script: {fileID: 0}
  - curve:
      serializedVersion: 2
      m_Curve:
      - serializedVersion: 3
        time: 0
        value: 0
        inSlope: 0
        outSlope: 0
        tangentMode: 136
        weightedMode: 0
        inWeight: 0
        outWeight: 0
      m_PreInfinity: 2
      m_PostInfinity: 2
      m_RotationOrder: 4
    attribute: m_SizeDelta.y
    path: Dwarf
    classID: 224
    script: {fileID: 0}
  m_EulerEditorCurves: []
  m_HasGenericRootTransform: 0
  m_HasMotionFloatCurves: 0
  m_Events:
  - time: 0
    functionName: f_Idle
    data: 
    objectReferenceParameter: {fileID: 0}
    floatParameter: 0
    intParameter: 0
    messageOptions: 0
