%YAML 1.1
%TAG !u! tag:unity3d.com,2011:
--- !u!74 &7400000
AnimationClip:
  m_ObjectHideFlags: 0
  m_CorrespondingSourceObject: {fileID: 0}
  m_PrefabInstance: {fileID: 0}
  m_PrefabAsset: {fileID: 0}
  m_Name: Lose
  serializedVersion: 6
  m_Legacy: 0
  m_Compressed: 0
  m_UseHighQualityCurve: 1
  m_RotationCurves: []
  m_CompressedRotationCurves: []
  m_EulerCurves: []
  m_PositionCurves: []
  m_ScaleCurves: []
  m_FloatCurves:
  - curve:
      serializedVersion: 2
      m_Curve:
      - serializedVersion: 3
        time: 0
        value: -26.71
        inSlope: 0
        outSlope: 0
        tangentMode: 136
        weightedMode: 0
        inWeight: 0
        outWeight: 0
      m_PreInfinity: 2
      m_PostInfinity: 2
      m_RotationOrder: 4
    attribute: m_AnchoredPosition.x
    path: Dwarf
    classID: 224
    script: {fileID: 0}
  - curve:
      serializedVersion: 2
      m_Curve:
      - serializedVersion: 3
        time: 0
        value: -3.31
        inSlope: 0
        outSlope: 0
        tangentMode: 136
        weightedMode: 0
        inWeight: 0
        outWeight: 0
      m_PreInfinity: 2
      m_PostInfinity: 2
      m_RotationOrder: 4
    attribute: m_AnchoredPosition.y
    path: Dwarf
    classID: 224
    script: {fileID: 0}
  - curve:
      serializedVersion: 2
      m_Curve:
      - serializedVersion: 3
        time: 0
        value: 10.56
        inSlope: 0
        outSlope: 0
        tangentMode: 136
        weightedMode: 0
        inWeight: 0
        outWeight: 0
      m_PreInfinity: 2
      m_PostInfinity: 2
      m_RotationOrder: 4
    attribute: m_SizeDelta.x
    path: Dwarf
    classID: 224
    script: {fileID: 0}
  - curve:
      serializedVersion: 2
      m_Curve:
      - serializedVersion: 3
        time: 0
        value: 10.56
        inSlope: 0
        outSlope: 0
        tangentMode: 136
        weightedMode: 0
        inWeight: 0
        outWeight: 0
      m_PreInfinity: 2
      m_PostInfinity: 2
      m_RotationOrder: 4
    attribute: m_SizeDelta.y
    path: Dwarf
    classID: 224
    script: {fileID: 0}
  m_PPtrCurves:
  - curve:
    - time: 0
      value: {fileID: -2677507964876084911, guid: 1f7d8293ef29e3144b220673c35b1741, type: 3}
    - time: 0.022222223
      value: {fileID: -1206952798306071711, guid: 1f7d8293ef29e3144b220673c35b1741, type: 3}
    - time: 0.044444446
      value: {fileID: 4195129374433912502, guid: 1f7d8293ef29e3144b220673c35b1741, type: 3}
    - time: 0.06666667
      value: {fileID: -773910331364496786, guid: 1f7d8293ef29e3144b220673c35b1741, type: 3}
    - time: 0.08888889
      value: {fileID: 1589617623766526994, guid: 1f7d8293ef29e3144b220673c35b1741, type: 3}
    - time: 0.11111111
      value: {fileID: -8974659949976432486, guid: 1f7d8293ef29e3144b220673c35b1741, type: 3}
    - time: 0.13333334
      value: {fileID: 8970720988192280653, guid: 1f7d8293ef29e3144b220673c35b1741, type: 3}
    - time: 0.15555556
      value: {fileID: -4145287497938525191, guid: 1f7d8293ef29e3144b220673c35b1741, type: 3}
    - time: 0.17777778
      value: {fileID: 7121183286173448168, guid: 1f7d8293ef29e3144b220673c35b1741, type: 3}
    - time: 0.2
      value: {fileID: -1926500311534024720, guid: 1f7d8293ef29e3144b220673c35b1741, type: 3}
    - time: 0.22222222
      value: {fileID: -6790473336872180868, guid: 1f7d8293ef29e3144b220673c35b1741, type: 3}
    - time: 0.24444444
      value: {fileID: -1165722170778663340, guid: 1f7d8293ef29e3144b220673c35b1741, type: 3}
    - time: 0.26666668
      value: {fileID: 8900855708414437243, guid: 1f7d8293ef29e3144b220673c35b1741, type: 3}
    - time: 0.2888889
      value: {fileID: 4307449765970287994, guid: 1f7d8293ef29e3144b220673c35b1741, type: 3}
    - time: 0.31111112
      value: {fileID: 2038966727220394363, guid: 1f7d8293ef29e3144b220673c35b1741, type: 3}
    - time: 0.33333334
      value: {fileID: -5641119678410147054, guid: 1f7d8293ef29e3144b220673c35b1741, type: 3}
    - time: 0.35555556
      value: {fileID: 4367713100113246753, guid: 1f7d8293ef29e3144b220673c35b1741, type: 3}
    - time: 0.37777779
      value: {fileID: 1565489891376003550, guid: 1f7d8293ef29e3144b220673c35b1741, type: 3}
    - time: 0.4
      value: {fileID: 3471994587316689859, guid: 1f7d8293ef29e3144b220673c35b1741, type: 3}
    - time: 0.42222223
      value: {fileID: -5373738977136235106, guid: 1f7d8293ef29e3144b220673c35b1741, type: 3}
    - time: 0.44444445
      value: {fileID: -29277130924290737, guid: 1f7d8293ef29e3144b220673c35b1741, type: 3}
    - time: 0.46666667
      value: {fileID: 5652970503815494892, guid: 1f7d8293ef29e3144b220673c35b1741, type: 3}
    - time: 0.4888889
      value: {fileID: -3935230000325140004, guid: 1f7d8293ef29e3144b220673c35b1741, type: 3}
    - time: 0.51111114
      value: {fileID: -2302996766846951477, guid: 1f7d8293ef29e3144b220673c35b1741, type: 3}
    - time: 0.53333336
      value: {fileID: -2181689927951078079, guid: 1f7d8293ef29e3144b220673c35b1741, type: 3}
    - time: 0.5555556
      value: {fileID: -8799725165628038553, guid: 1f7d8293ef29e3144b220673c35b1741, type: 3}
    - time: 0.5777778
      value: {fileID: 6193412890261884447, guid: 1f7d8293ef29e3144b220673c35b1741, type: 3}
    - time: 0.6
      value: {fileID: 3134821661393976568, guid: 1f7d8293ef29e3144b220673c35b1741, type: 3}
    - time: 0.62222224
      value: {fileID: 1250708888394797413, guid: 1f7d8293ef29e3144b220673c35b1741, type: 3}
    - time: 0.64444447
      value: {fileID: 6174751373657824571, guid: 1f7d8293ef29e3144b220673c35b1741, type: 3}
    - time: 0.6666667
      value: {fileID: 5860398514085852197, guid: 1f7d8293ef29e3144b220673c35b1741, type: 3}
    - time: 0.6888889
      value: {fileID: -7053138423952909143, guid: 1f7d8293ef29e3144b220673c35b1741, type: 3}
    - time: 0.7111111
      value: {fileID: 1287001727388682698, guid: 1f7d8293ef29e3144b220673c35b1741, type: 3}
    - time: 0.73333335
      value: {fileID: -3848999607198537500, guid: 1f7d8293ef29e3144b220673c35b1741, type: 3}
    - time: 0.75555557
      value: {fileID: 7743176278752870628, guid: 1f7d8293ef29e3144b220673c35b1741, type: 3}
    - time: 0.7777778
      value: {fileID: -5062725060017485011, guid: 1f7d8293ef29e3144b220673c35b1741, type: 3}
    - time: 0.8
      value: {fileID: -8251396163144194178, guid: 1f7d8293ef29e3144b220673c35b1741, type: 3}
    attribute: m_Sprite
    path: Dwarf
    classID: 114
    script: {fileID: 11500000, guid: fe87c0e1cc204ed48ad3b37840f39efc, type: 3}
  m_SampleRate: 45
  m_WrapMode: 0
  m_Bounds:
    m_Center: {x: 0, y: 0, z: 0}
    m_Extent: {x: 0, y: 0, z: 0}
  m_ClipBindingConstant:
    genericBindings:
    - serializedVersion: 2
      path: 1836380095
      attribute: 2015549526
      script: {fileID: 11500000, guid: fe87c0e1cc204ed48ad3b37840f39efc, type: 3}
      typeID: 114
      customType: 0
      isPPtrCurve: 1
    - serializedVersion: 2
      path: 1836380095
      attribute: 1460864421
      script: {fileID: 0}
      typeID: 224
      customType: 28
      isPPtrCurve: 0
    - serializedVersion: 2
      path: 1836380095
      attribute: 538195251
      script: {fileID: 0}
      typeID: 224
      customType: 28
      isPPtrCurve: 0
    - serializedVersion: 2
      path: 1836380095
      attribute: 1967290853
      script: {fileID: 0}
      typeID: 224
      customType: 28
      isPPtrCurve: 0
    - serializedVersion: 2
      path: 1836380095
      attribute: 38095219
      script: {fileID: 0}
      typeID: 224
      customType: 28
      isPPtrCurve: 0
    pptrCurveMapping:
    - {fileID: -2677507964876084911, guid: 1f7d8293ef29e3144b220673c35b1741, type: 3}
    - {fileID: -1206952798306071711, guid: 1f7d8293ef29e3144b220673c35b1741, type: 3}
    - {fileID: 4195129374433912502, guid: 1f7d8293ef29e3144b220673c35b1741, type: 3}
    - {fileID: -773910331364496786, guid: 1f7d8293ef29e3144b220673c35b1741, type: 3}
    - {fileID: 1589617623766526994, guid: 1f7d8293ef29e3144b220673c35b1741, type: 3}
    - {fileID: -8974659949976432486, guid: 1f7d8293ef29e3144b220673c35b1741, type: 3}
    - {fileID: 8970720988192280653, guid: 1f7d8293ef29e3144b220673c35b1741, type: 3}
    - {fileID: -4145287497938525191, guid: 1f7d8293ef29e3144b220673c35b1741, type: 3}
    - {fileID: 7121183286173448168, guid: 1f7d8293ef29e3144b220673c35b1741, type: 3}
    - {fileID: -1926500311534024720, guid: 1f7d8293ef29e3144b220673c35b1741, type: 3}
    - {fileID: -6790473336872180868, guid: 1f7d8293ef29e3144b220673c35b1741, type: 3}
    - {fileID: -1165722170778663340, guid: 1f7d8293ef29e3144b220673c35b1741, type: 3}
    - {fileID: 8900855708414437243, guid: 1f7d8293ef29e3144b220673c35b1741, type: 3}
    - {fileID: 4307449765970287994, guid: 1f7d8293ef29e3144b220673c35b1741, type: 3}
    - {fileID: 2038966727220394363, guid: 1f7d8293ef29e3144b220673c35b1741, type: 3}
    - {fileID: -5641119678410147054, guid: 1f7d8293ef29e3144b220673c35b1741, type: 3}
    - {fileID: 4367713100113246753, guid: 1f7d8293ef29e3144b220673c35b1741, type: 3}
    - {fileID: 1565489891376003550, guid: 1f7d8293ef29e3144b220673c35b1741, type: 3}
    - {fileID: 3471994587316689859, guid: 1f7d8293ef29e3144b220673c35b1741, type: 3}
    - {fileID: -5373738977136235106, guid: 1f7d8293ef29e3144b220673c35b1741, type: 3}
    - {fileID: -29277130924290737, guid: 1f7d8293ef29e3144b220673c35b1741, type: 3}
    - {fileID: 5652970503815494892, guid: 1f7d8293ef29e3144b220673c35b1741, type: 3}
    - {fileID: -3935230000325140004, guid: 1f7d8293ef29e3144b220673c35b1741, type: 3}
    - {fileID: -2302996766846951477, guid: 1f7d8293ef29e3144b220673c35b1741, type: 3}
    - {fileID: -2181689927951078079, guid: 1f7d8293ef29e3144b220673c35b1741, type: 3}
    - {fileID: -8799725165628038553, guid: 1f7d8293ef29e3144b220673c35b1741, type: 3}
    - {fileID: 6193412890261884447, guid: 1f7d8293ef29e3144b220673c35b1741, type: 3}
    - {fileID: 3134821661393976568, guid: 1f7d8293ef29e3144b220673c35b1741, type: 3}
    - {fileID: 1250708888394797413, guid: 1f7d8293ef29e3144b220673c35b1741, type: 3}
    - {fileID: 6174751373657824571, guid: 1f7d8293ef29e3144b220673c35b1741, type: 3}
    - {fileID: 5860398514085852197, guid: 1f7d8293ef29e3144b220673c35b1741, type: 3}
    - {fileID: -7053138423952909143, guid: 1f7d8293ef29e3144b220673c35b1741, type: 3}
    - {fileID: 1287001727388682698, guid: 1f7d8293ef29e3144b220673c35b1741, type: 3}
    - {fileID: -3848999607198537500, guid: 1f7d8293ef29e3144b220673c35b1741, type: 3}
    - {fileID: 7743176278752870628, guid: 1f7d8293ef29e3144b220673c35b1741, type: 3}
    - {fileID: -5062725060017485011, guid: 1f7d8293ef29e3144b220673c35b1741, type: 3}
    - {fileID: -8251396163144194178, guid: 1f7d8293ef29e3144b220673c35b1741, type: 3}
  m_AnimationClipSettings:
    serializedVersion: 2
    m_AdditiveReferencePoseClip: {fileID: 0}
    m_AdditiveReferencePoseTime: 0
    m_StartTime: 0
    m_StopTime: 0.82222223
    m_OrientationOffsetY: 0
    m_Level: 0
    m_CycleOffset: 0
    m_HasAdditiveReferencePose: 0
    m_LoopTime: 0
    m_LoopBlend: 0
    m_LoopBlendOrientation: 0
    m_LoopBlendPositionY: 0
    m_LoopBlendPositionXZ: 0
    m_KeepOriginalOrientation: 0
    m_KeepOriginalPositionY: 1
    m_KeepOriginalPositionXZ: 0
    m_HeightFromFeet: 0
    m_Mirror: 0
  m_EditorCurves:
  - curve:
      serializedVersion: 2
      m_Curve:
      - serializedVersion: 3
        time: 0
        value: -26.71
        inSlope: 0
        outSlope: 0
        tangentMode: 136
        weightedMode: 0
        inWeight: 0
        outWeight: 0
      m_PreInfinity: 2
      m_PostInfinity: 2
      m_RotationOrder: 4
    attribute: m_AnchoredPosition.x
    path: Dwarf
    classID: 224
    script: {fileID: 0}
  - curve:
      serializedVersion: 2
      m_Curve:
      - serializedVersion: 3
        time: 0
        value: -3.31
        inSlope: 0
        outSlope: 0
        tangentMode: 136
        weightedMode: 0
        inWeight: 0
        outWeight: 0
      m_PreInfinity: 2
      m_PostInfinity: 2
      m_RotationOrder: 4
    attribute: m_AnchoredPosition.y
    path: Dwarf
    classID: 224
    script: {fileID: 0}
  - curve:
      serializedVersion: 2
      m_Curve:
      - serializedVersion: 3
        time: 0
        value: 10.56
        inSlope: 0
        outSlope: 0
        tangentMode: 136
        weightedMode: 0
        inWeight: 0
        outWeight: 0
      m_PreInfinity: 2
      m_PostInfinity: 2
      m_RotationOrder: 4
    attribute: m_SizeDelta.x
    path: Dwarf
    classID: 224
    script: {fileID: 0}
  - curve:
      serializedVersion: 2
      m_Curve:
      - serializedVersion: 3
        time: 0
        value: 10.56
        inSlope: 0
        outSlope: 0
        tangentMode: 136
        weightedMode: 0
        inWeight: 0
        outWeight: 0
      m_PreInfinity: 2
      m_PostInfinity: 2
      m_RotationOrder: 4
    attribute: m_SizeDelta.y
    path: Dwarf
    classID: 224
    script: {fileID: 0}
  m_EulerEditorCurves: []
  m_HasGenericRootTransform: 0
  m_HasMotionFloatCurves: 0
  m_Events: []
