%YAML 1.1
%TAG !u! tag:unity3d.com,2011:
--- !u!687078895 &4343727234628468602
SpriteAtlas:
  m_ObjectHideFlags: 0
  m_CorrespondingSourceObject: {fileID: 0}
  m_PrefabInstance: {fileID: 0}
  m_PrefabAsset: {fileID: 0}
  m_Name: Loading
  m_EditorData:
    serializedVersion: 2
    textureSettings:
      serializedVersion: 2
      anisoLevel: 1
      compressionQuality: 50
      maxTextureSize: 2048
      textureCompression: 0
      filterMode: 1
      generateMipMaps: 0
      readable: 0
      crunchedCompression: 0
      sRGB: 1
    platformSettings:
    - serializedVersion: 3
      m_BuildTarget: Android
      m_MaxTextureSize: 1024
      m_ResizeAlgorithm: 0
      m_TextureFormat: 29
      m_TextureCompression: 1
      m_CompressionQuality: 100
      m_CrunchedCompression: 0
      m_AllowsAlphaSplitting: 0
      m_Overridden: 1
      m_AndroidETC2FallbackOverride: 0
      m_ForceMaximumCompressionQuality_BC6H_BC7: 0
    packingSettings:
      serializedVersion: 2
      padding: 4
      blockOffset: 1
      allowAlphaSplitting: 0
      enableRotation: 1
      enableTightPacking: 0
    secondaryTextureSettings: {}
    variantMultiplier: 1
    packables:
    - {fileID: 2800000, guid: adb2a5d281501ff40b17627f28c4f908, type: 3}
    - {fileID: 102900000, guid: 41ca76724822202499e4dd1be8ac1181, type: 3}
    - {fileID: 102900000, guid: 7c6b28600f001c24683b734730b3be56, type: 3}
    bindAsDefault: 1
    isAtlasV2: 0
    cachedData: {fileID: 0}
  m_MasterAtlas: {fileID: 0}
  m_PackedSprites:
  - {fileID: 21300000, guid: adb2a5d281501ff40b17627f28c4f908, type: 3}
  - {fileID: 6831735924551921752, guid: f5db6608abd6f1e4e9d1c21a0dd1f2a7, type: 3}
  - {fileID: -881720991619405200, guid: f5db6608abd6f1e4e9d1c21a0dd1f2a7, type: 3}
  - {fileID: 3467344597976185553, guid: f5db6608abd6f1e4e9d1c21a0dd1f2a7, type: 3}
  - {fileID: -1476658903507358930, guid: f5db6608abd6f1e4e9d1c21a0dd1f2a7, type: 3}
  - {fileID: 6899575451411240205, guid: f5db6608abd6f1e4e9d1c21a0dd1f2a7, type: 3}
  - {fileID: -4917718281617135496, guid: f5db6608abd6f1e4e9d1c21a0dd1f2a7, type: 3}
  - {fileID: 1213486121641569914, guid: f5db6608abd6f1e4e9d1c21a0dd1f2a7, type: 3}
  - {fileID: 7964290612822508170, guid: f5db6608abd6f1e4e9d1c21a0dd1f2a7, type: 3}
  - {fileID: 7754500906034273405, guid: a0cfa7e863fa66f44943f7b3959ada55, type: 3}
  - {fileID: 2388496607832766195, guid: a0cfa7e863fa66f44943f7b3959ada55, type: 3}
  - {fileID: -5198055731244750935, guid: a0cfa7e863fa66f44943f7b3959ada55, type: 3}
  - {fileID: -147757128567734898, guid: a0cfa7e863fa66f44943f7b3959ada55, type: 3}
  m_PackedSpriteNamesToIndex:
  - BG_loading_2
  - Load_2
  - Load_3
  - Load_0
  - Load_1
  - Load_6
  - Load_7
  - Load_4
  - Load_5
  - Load_coin_0
  - Load_coin_1
  - Load_coin_2
  - Load_coin_3
  m_RenderDataMap: {}
  m_Tag: Loading
  m_IsVariant: 0
