%YAML 1.1
%TAG !u! tag:unity3d.com,2011:
--- !u!114 &11400000
MonoBehaviour:
  m_ObjectHideFlags: 0
  m_CorrespondingSourceObject: {fileID: 0}
  m_PrefabInstance: {fileID: 0}
  m_PrefabAsset: {fileID: 0}
  m_GameObject: {fileID: 0}
  m_Enabled: 1
  m_EditorHideFlags: 0
  m_Script: {fileID: 11500000, guid: 7cfd79619508d4f4f80ad1335a87e0fe, type: 3}
  m_Name: Pin_1
  m_EditorClassIdentifier: 
  m_ID: 0
  m_AcccesoriesDetail:
    m_Name: 
    m_Effects: []
    m_IsUnlock: 0
    m_IsEquipped: 0
    m_DiamondPrice: 0
    m_CoinPrice: 0
  m_Icon: {fileID: 21300000, guid: 264a31aa6da3e1443a402b7738c7d14e, type: 3}
