%YAML 1.1
%TAG !u! tag:unity3d.com,2011:
--- !u!74 &7400000
AnimationClip:
  m_ObjectHideFlags: 0
  m_CorrespondingSourceObject: {fileID: 0}
  m_PrefabInstance: {fileID: 0}
  m_PrefabAsset: {fileID: 0}
  m_Name: Idle
  serializedVersion: 6
  m_Legacy: 0
  m_Compressed: 0
  m_UseHighQualityCurve: 1
  m_RotationCurves: []
  m_CompressedRotationCurves: []
  m_EulerCurves: []
  m_PositionCurves: []
  m_ScaleCurves: []
  m_FloatCurves: []
  m_PPtrCurves:
  - curve:
    - time: 0
      value: {fileID: -460375783602132462, guid: 16a3b6f9068cf60468aedcdaa31da5f3, type: 3}
    - time: 0.033333335
      value: {fileID: 2765882535870268478, guid: 16a3b6f9068cf60468aedcdaa31da5f3, type: 3}
    - time: 0.06666667
      value: {fileID: -8434554422745986646, guid: 16a3b6f9068cf60468aedcdaa31da5f3, type: 3}
    - time: 0.1
      value: {fileID: 4463150850372001341, guid: 16a3b6f9068cf60468aedcdaa31da5f3, type: 3}
    - time: 0.13333334
      value: {fileID: -7285241511674030363, guid: 16a3b6f9068cf60468aedcdaa31da5f3, type: 3}
    - time: 0.16666667
      value: {fileID: -4215077679129350346, guid: 16a3b6f9068cf60468aedcdaa31da5f3, type: 3}
    - time: 0.2
      value: {fileID: -8069951846234869669, guid: 16a3b6f9068cf60468aedcdaa31da5f3, type: 3}
    - time: 0.23333333
      value: {fileID: -7846658700195773254, guid: 16a3b6f9068cf60468aedcdaa31da5f3, type: 3}
    - time: 0.26666668
      value: {fileID: 3004037689935830646, guid: 16a3b6f9068cf60468aedcdaa31da5f3, type: 3}
    - time: 0.3
      value: {fileID: 1694299709692215154, guid: 16a3b6f9068cf60468aedcdaa31da5f3, type: 3}
    - time: 0.33333334
      value: {fileID: -1251394964468833774, guid: 16a3b6f9068cf60468aedcdaa31da5f3, type: 3}
    - time: 0.36666667
      value: {fileID: -2116382639547437790, guid: 16a3b6f9068cf60468aedcdaa31da5f3, type: 3}
    - time: 0.4
      value: {fileID: 8285529941935668316, guid: 16a3b6f9068cf60468aedcdaa31da5f3, type: 3}
    - time: 0.43333334
      value: {fileID: -4024862165909475183, guid: 16a3b6f9068cf60468aedcdaa31da5f3, type: 3}
    - time: 0.46666667
      value: {fileID: 2799160759204838789, guid: 16a3b6f9068cf60468aedcdaa31da5f3, type: 3}
    - time: 0.5
      value: {fileID: -2068746655866824801, guid: 16a3b6f9068cf60468aedcdaa31da5f3, type: 3}
    - time: 0.53333336
      value: {fileID: -1076745656793425170, guid: 16a3b6f9068cf60468aedcdaa31da5f3, type: 3}
    - time: 0.56666666
      value: {fileID: 1598778157037178649, guid: 16a3b6f9068cf60468aedcdaa31da5f3, type: 3}
    - time: 0.6
      value: {fileID: -6203264645451791128, guid: 16a3b6f9068cf60468aedcdaa31da5f3, type: 3}
    - time: 0.6333333
      value: {fileID: -3656643052739669927, guid: 16a3b6f9068cf60468aedcdaa31da5f3, type: 3}
    - time: 0.6666667
      value: {fileID: 7003576011513621463, guid: 16a3b6f9068cf60468aedcdaa31da5f3, type: 3}
    - time: 0.7
      value: {fileID: 7950761949481754772, guid: 16a3b6f9068cf60468aedcdaa31da5f3, type: 3}
    - time: 0.73333335
      value: {fileID: -6583077526960253963, guid: 16a3b6f9068cf60468aedcdaa31da5f3, type: 3}
    - time: 0.76666665
      value: {fileID: -3131518100945156214, guid: 16a3b6f9068cf60468aedcdaa31da5f3, type: 3}
    attribute: m_Sprite
    path: 
    classID: 212
    script: {fileID: 0}
  m_SampleRate: 30
  m_WrapMode: 0
  m_Bounds:
    m_Center: {x: 0, y: 0, z: 0}
    m_Extent: {x: 0, y: 0, z: 0}
  m_ClipBindingConstant:
    genericBindings:
    - serializedVersion: 2
      path: 0
      attribute: 0
      script: {fileID: 0}
      typeID: 212
      customType: 23
      isPPtrCurve: 1
    pptrCurveMapping:
    - {fileID: -460375783602132462, guid: 16a3b6f9068cf60468aedcdaa31da5f3, type: 3}
    - {fileID: 2765882535870268478, guid: 16a3b6f9068cf60468aedcdaa31da5f3, type: 3}
    - {fileID: -8434554422745986646, guid: 16a3b6f9068cf60468aedcdaa31da5f3, type: 3}
    - {fileID: 4463150850372001341, guid: 16a3b6f9068cf60468aedcdaa31da5f3, type: 3}
    - {fileID: -7285241511674030363, guid: 16a3b6f9068cf60468aedcdaa31da5f3, type: 3}
    - {fileID: -4215077679129350346, guid: 16a3b6f9068cf60468aedcdaa31da5f3, type: 3}
    - {fileID: -8069951846234869669, guid: 16a3b6f9068cf60468aedcdaa31da5f3, type: 3}
    - {fileID: -7846658700195773254, guid: 16a3b6f9068cf60468aedcdaa31da5f3, type: 3}
    - {fileID: 3004037689935830646, guid: 16a3b6f9068cf60468aedcdaa31da5f3, type: 3}
    - {fileID: 1694299709692215154, guid: 16a3b6f9068cf60468aedcdaa31da5f3, type: 3}
    - {fileID: -1251394964468833774, guid: 16a3b6f9068cf60468aedcdaa31da5f3, type: 3}
    - {fileID: -2116382639547437790, guid: 16a3b6f9068cf60468aedcdaa31da5f3, type: 3}
    - {fileID: 8285529941935668316, guid: 16a3b6f9068cf60468aedcdaa31da5f3, type: 3}
    - {fileID: -4024862165909475183, guid: 16a3b6f9068cf60468aedcdaa31da5f3, type: 3}
    - {fileID: 2799160759204838789, guid: 16a3b6f9068cf60468aedcdaa31da5f3, type: 3}
    - {fileID: -2068746655866824801, guid: 16a3b6f9068cf60468aedcdaa31da5f3, type: 3}
    - {fileID: -1076745656793425170, guid: 16a3b6f9068cf60468aedcdaa31da5f3, type: 3}
    - {fileID: 1598778157037178649, guid: 16a3b6f9068cf60468aedcdaa31da5f3, type: 3}
    - {fileID: -6203264645451791128, guid: 16a3b6f9068cf60468aedcdaa31da5f3, type: 3}
    - {fileID: -3656643052739669927, guid: 16a3b6f9068cf60468aedcdaa31da5f3, type: 3}
    - {fileID: 7003576011513621463, guid: 16a3b6f9068cf60468aedcdaa31da5f3, type: 3}
    - {fileID: 7950761949481754772, guid: 16a3b6f9068cf60468aedcdaa31da5f3, type: 3}
    - {fileID: -6583077526960253963, guid: 16a3b6f9068cf60468aedcdaa31da5f3, type: 3}
    - {fileID: -3131518100945156214, guid: 16a3b6f9068cf60468aedcdaa31da5f3, type: 3}
  m_AnimationClipSettings:
    serializedVersion: 2
    m_AdditiveReferencePoseClip: {fileID: 0}
    m_AdditiveReferencePoseTime: 0
    m_StartTime: 0
    m_StopTime: 0.8
    m_OrientationOffsetY: 0
    m_Level: 0
    m_CycleOffset: 0
    m_HasAdditiveReferencePose: 0
    m_LoopTime: 1
    m_LoopBlend: 0
    m_LoopBlendOrientation: 0
    m_LoopBlendPositionY: 0
    m_LoopBlendPositionXZ: 0
    m_KeepOriginalOrientation: 0
    m_KeepOriginalPositionY: 1
    m_KeepOriginalPositionXZ: 0
    m_HeightFromFeet: 0
    m_Mirror: 0
  m_EditorCurves: []
  m_EulerEditorCurves: []
  m_HasGenericRootTransform: 0
  m_HasMotionFloatCurves: 0
  m_Events: []
