%YAML 1.1
%TAG !u! tag:unity3d.com,2011:
--- !u!114 &11400000
MonoBehaviour:
  m_ObjectHideFlags: 0
  m_CorrespondingSourceObject: {fileID: 0}
  m_PrefabInstance: {fileID: 0}
  m_PrefabAsset: {fileID: 0}
  m_GameObject: {fileID: 0}
  m_Enabled: 1
  m_EditorHideFlags: 0
  m_Script: {fileID: 11500000, guid: a6b194f808b1af6499c93410e504af42, type: 3}
  m_Name: skeleton_Atlas
  m_EditorClassIdentifier: 
  atlasFile: {fileID: 4900000, guid: bf9539c393d940d4fb3a0588b8e2ef7f, type: 3}
  materials:
  - {fileID: 2100000, guid: 9b309f255b8b43547a7dc4c2875154f2, type: 2}
  - {fileID: 2100000, guid: eaab082a00d397b4ea6d9e4f9eded29e, type: 2}
  - {fileID: 2100000, guid: c6c9c18a8aed7bd4a8754e624780429a, type: 2}
  - {fileID: 2100000, guid: d06ca06128f6e284b87e0603b8e8e8f1, type: 2}
  - {fileID: 2100000, guid: ff106bba5af61524ba39e36d85faa09b, type: 2}
  - {fileID: 2100000, guid: 11b1eecf9ce9866488066eb2b077c2d9, type: 2}
  - {fileID: 2100000, guid: 7da6fcc93765bc74ab279e82a92d52ac, type: 2}
