{
"skeleton": {
	"hash": "GAxWpCgUWTN7TWAIJ5HjPZexddI",
	"spine": "3.8.0",
	"x": -136.96,
	"y": -265.94,
	"width": 289.7,
	"height": 626.44,
	"images": "../Image/",
	"audio": "C:/Users/Legion/Desktop/redrain_atlas/Casino/Character"
},
"bones": [
	{ "name": "root" },
	{ "name": "bone", "parent": "root", "length": 114.79, "rotation": 91.19, "x": -1.33, "y": 35.46 },
	{ "name": "bone2", "parent": "bone", "length": 68.19, "rotation": 134.28, "x": 128.31, "y": 36.39 },
	{ "name": "bone3", "parent": "bone2", "length": 90.32, "rotation": 60.4, "x": 65.94, "y": 0.02 },
	{ "name": "bone4", "parent": "bone", "length": 64.12, "rotation": -148.89, "x": 125.07, "y": -42.46 },
	{ "name": "bone5", "parent": "bone4", "length": 90.65, "rotation": 118.2, "x": 63.2, "y": 1.53 },
	{ "name": "bone6", "parent": "bone5", "length": 34.05, "rotation": 13.18, "x": 111.04, "y": 6.04 },
	{ "name": "bone7", "parent": "bone", "length": 118.75, "rotation": -1.19, "x": 141.05, "y": -2.14 },
	{ "name": "bone8", "parent": "bone7", "length": 32.13, "rotation": 29.74, "x": 138.68, "y": 35.86 },
	{ "name": "bone9", "parent": "bone7", "length": 28.18, "rotation": -28.74, "x": 142.66, "y": -37.46 },
	{ "name": "bone10", "parent": "bone7", "length": 78.12, "rotation": -1.17, "x": 25.5, "y": 90.86 },
	{ "name": "bone11", "parent": "bone7", "length": 69.34, "x": 37.46, "y": -98.03 }
],
"slots": [
	{ "name": "NPC_BoL_Female/shadow", "bone": "root", "attachment": "NPC_BoL_Female/shadow" },
	{ "name": "tangan_kanan_1", "bone": "root", "attachment": "NPC_BoL_Female/tangan_kanan_1" },
	{ "name": "tangan_kiri_1", "bone": "root", "attachment": "NPC_BoL_Female/tangan_kiri_1" },
	{ "name": "hair_2", "bone": "root", "attachment": "NPC_BoL_Female/hair_2" },
	{ "name": "hair_1", "bone": "root", "attachment": "NPC_BoL_Female/hair_1" },
	{ "name": "body", "bone": "root", "attachment": "NPC_BoL_Female/body" },
	{ "name": "head", "bone": "root", "attachment": "NPC_BoL_Female/head" },
	{ "name": "hat_2", "bone": "root", "attachment": "NPC_BoL_Female/hat_2" },
	{ "name": "hat_1", "bone": "root", "attachment": "NPC_BoL_Female/hat_1" },
	{ "name": "tangan_kanan_2", "bone": "root", "attachment": "NPC_BoL_Female/tangan_kanan_2" },
	{ "name": "kartu", "bone": "root", "attachment": "NPC_BoL_Female/kartu" },
	{ "name": "tangan_kiri_2", "bone": "root", "attachment": "NPC_BoL_Female/tangan_kiri_2" }
],
"skins": [
	{
		"name": "default",
		"attachments": {
			"tangan_kanan_1": {
				"NPC_BoL_Female/tangan_kanan_1": {
					"type": "mesh",
					"uvs": [ 1, 1, 0, 1, 0, 0, 1, 0 ],
					"triangles": [ 1, 2, 3, 1, 3, 0 ],
					"vertices": [ 1, 2, 26.89, 57.49, 1, 1, 2, 87.2, -3.82, 1, 1, 2, 33.73, -56.41, 1, 1, 2, -26.58, 4.9, 1 ],
					"hull": 4,
					"edges": [ 0, 2, 2, 4, 4, 6, 0, 6 ],
					"width": 86,
					"height": 75
				}
			},
			"tangan_kanan_2": {
				"NPC_BoL_Female/tangan_kanan_2": {
					"type": "mesh",
					"uvs": [ 1, 1, 0, 1, 0, 0, 1, 0 ],
					"triangles": [ 1, 2, 3, 1, 3, 0 ],
					"vertices": [ 1, 3, 137.08, -2.23, 1, 1, 3, 121.49, -57.06, 1, 1, 3, -16.06, -17.94, 1, 1, 3, -0.46, 36.89, 1 ],
					"hull": 4,
					"edges": [ 0, 2, 2, 4, 4, 6, 0, 6 ],
					"width": 57,
					"height": 143
				}
			},
			"hat_1": {
				"NPC_BoL_Female/hat_1": {
					"type": "mesh",
					"uvs": [ 1, 1, 0, 1, 0, 0, 1, 0 ],
					"triangles": [ 1, 2, 3, 1, 3, 0 ],
					"vertices": [ 1, 9, 6.37, -38.03, 1, 1, 9, -20.55, 11.07, 1, 1, 9, 26.79, 37.03, 1, 1, 9, 53.72, -12.07, 1 ],
					"hull": 4,
					"edges": [ 0, 2, 2, 4, 4, 6, 0, 6 ],
					"width": 56,
					"height": 54
				}
			},
			"hat_2": {
				"NPC_BoL_Female/hat_2": {
					"type": "mesh",
					"uvs": [ 1, 1, 0, 1, 0, 0, 1, 0 ],
					"triangles": [ 1, 2, 3, 1, 3, 0 ],
					"vertices": [ 1, 8, -17.85, -13.68, 1, 1, 8, 9.93, 34.94, 1, 1, 8, 56.81, 8.15, 1, 1, 8, 29.03, -40.47, 1 ],
					"hull": 4,
					"edges": [ 0, 2, 2, 4, 4, 6, 0, 6 ],
					"width": 56,
					"height": 54
				}
			},
			"hair_1": {
				"NPC_BoL_Female/hair_1": {
					"type": "mesh",
					"uvs": [ 1, 1, 0, 1, 0, 0, 1, 0 ],
					"triangles": [ 1, 2, 3, 1, 3, 0 ],
					"vertices": [ 1, 11, -70.5, -29.84, 1, 1, 11, -70.5, 36.16, 1, 1, 11, 116.5, 36.16, 1, 1, 11, 116.5, -29.84, 1 ],
					"hull": 4,
					"edges": [ 0, 2, 2, 4, 4, 6, 0, 6 ],
					"width": 66,
					"height": 187
				}
			},
			"hair_2": {
				"NPC_BoL_Female/hair_2": {
					"type": "mesh",
					"uvs": [ 1, 1, 0, 1, 0, 0, 1, 0 ],
					"triangles": [ 1, 2, 3, 1, 3, 0 ],
					"vertices": [ 1, 10, -55.84, -34.88, 1, 1, 10, -57.19, 31.11, 1, 1, 10, 127.77, 34.89, 1, 1, 10, 129.12, -31.1, 1 ],
					"hull": 4,
					"edges": [ 0, 2, 2, 4, 4, 6, 0, 6 ],
					"width": 66,
					"height": 185
				}
			},
			"kartu": {
				"NPC_BoL_Female/kartu": {
					"type": "mesh",
					"uvs": [ 1, 1, 0, 1, 0, 0, 1, 0 ],
					"triangles": [ 1, 2, 3, 1, 3, 0 ],
					"vertices": [ 1, 6, -6.92, -33.02, 1, 1, 6, -21.25, 15.93, 1, 1, 6, 43.06, 34.75, 1, 1, 6, 57.38, -14.2, 1 ],
					"hull": 4,
					"edges": [ 0, 2, 2, 4, 4, 6, 0, 6 ],
					"width": 51,
					"height": 67
				}
			},
			"head": {
				"NPC_BoL_Female/head": {
					"type": "mesh",
					"uvs": [ 1, 1, 0, 1, 0, 0, 1, 0 ],
					"triangles": [ 1, 2, 3, 1, 3, 0 ],
					"vertices": [ 1, 7, -21.04, -81.87, 1, 1, 7, -21.04, 79.13, 1, 1, 7, 169.96, 79.13, 1, 1, 7, 169.96, -81.87, 1 ],
					"hull": 4,
					"edges": [ 0, 2, 2, 4, 4, 6, 0, 6 ],
					"width": 161,
					"height": 191
				}
			},
			"body": {
				"NPC_BoL_Female/body": {
					"type": "mesh",
					"uvs": [ 1, 1, 0, 1, 0, 0, 1, 0 ],
					"triangles": [ 1, 2, 3, 1, 3, 0 ],
					"vertices": [ 1, 1, -287.16, -54.1, 1, 1, 1, -284.7, 63.87, 1, 1, 1, 152.21, 54.77, 1, 1, 1, 149.75, -63.21, 1 ],
					"hull": 4,
					"edges": [ 0, 2, 2, 4, 4, 6, 0, 6 ],
					"width": 118,
					"height": 437
				}
			},
			"NPC_BoL_Female/shadow": {
				"NPC_BoL_Female/shadow": {
					"type": "mesh",
					"uvs": [ 1, 1, 0, 1, 0, 0, 1, 0 ],
					"triangles": [ 1, 2, 3, 1, 3, 0 ],
					"vertices": [ 136.04, -265.94, -136.96, -265.94, -136.96, -198.94, 136.04, -198.94 ],
					"hull": 4,
					"edges": [ 0, 2, 2, 4, 4, 6, 0, 6 ],
					"width": 273,
					"height": 67
				}
			},
			"tangan_kiri_1": {
				"NPC_BoL_Female/tangan_kiri_1": {
					"type": "mesh",
					"uvs": [ 1, 1, 0, 1, 0, 0, 1, 0 ],
					"triangles": [ 1, 2, 3, 1, 3, 0 ],
					"vertices": [ 1, 4, 87.3, 5.4, 1, 1, 4, 49.88, -53.76, 1, 1, 4, -21.96, -8.33, 1, 1, 4, 15.45, 50.83, 1 ],
					"hull": 4,
					"edges": [ 0, 2, 2, 4, 4, 6, 0, 6 ],
					"width": 70,
					"height": 85
				}
			},
			"tangan_kiri_2": {
				"NPC_BoL_Female/tangan_kiri_2": {
					"type": "mesh",
					"uvs": [ 1, 1, 0, 1, 0, 0, 1, 0 ],
					"triangles": [ 1, 2, 3, 1, 3, 0 ],
					"vertices": [ 1, 5, 12.79, -69.92, 1, 1, 5, -30.54, 6.67, 1, 1, 5, 84.36, 71.66, 1, 1, 5, 127.68, -4.93, 1 ],
					"hull": 4,
					"edges": [ 0, 2, 2, 4, 4, 6, 0, 6 ],
					"width": 88,
					"height": 132
				}
			}
		}
	}
],
"animations": {
	"animation": {
		"bones": {
			"bone": {
				"scale": [
					{},
					{ "time": 0.3333, "x": 0.99, "y": 0.99 },
					{ "time": 0.6667 },
					{ "time": 1, "x": 0.99, "y": 0.99 },
					{ "time": 1.3333 }
				]
			},
			"bone11": {
				"translate": [
					{},
					{ "time": 0.3333, "x": -6.26 },
					{ "time": 0.6667, "x": 4.69 },
					{ "time": 1, "x": -6.26 },
					{ "time": 1.3667 }
				],
				"scale": [
					{},
					{ "time": 0.3333, "x": 0.99, "y": 0.99 },
					{ "time": 0.6667 },
					{ "time": 1, "x": 0.99, "y": 0.99 },
					{ "time": 1.3667 }
				]
			},
			"bone10": {
				"translate": [
					{},
					{ "time": 0.3667, "x": -6.8 },
					{ "time": 0.7, "x": 4.91 },
					{ "time": 1.0333, "x": -6.8 },
					{ "time": 1.3667 }
				],
				"scale": [
					{},
					{ "time": 0.3333, "x": 0.99, "y": 0.99 },
					{ "time": 0.6667 },
					{ "time": 1, "x": 0.99, "y": 0.99 },
					{ "time": 1.3667 }
				]
			},
			"bone9": {
				"scale": [
					{},
					{ "time": 0.3333, "x": 0.6, "y": 0.6 },
					{ "time": 0.6667 },
					{ "time": 1, "x": 0.6, "y": 0.6 },
					{ "time": 1.3333 }
				]
			},
			"bone8": {
				"scale": [
					{},
					{ "time": 0.3333, "x": 1.4, "y": 1.4 },
					{ "time": 0.6667 },
					{ "time": 1, "x": 1.4, "y": 1.4 },
					{ "time": 1.3333 }
				]
			},
			"bone7": {
				"translate": [
					{},
					{ "time": 0.3333, "x": -1.95, "y": 0.04 },
					{ "time": 0.6667, "x": 4.49, "y": -0.09 },
					{ "time": 1, "x": -1.95, "y": 0.04 },
					{ "time": 1.3333 }
				],
				"scale": [
					{},
					{ "time": 0.3333, "x": 0.99, "y": 0.99 },
					{ "time": 0.6667 },
					{ "time": 1, "x": 0.99, "y": 0.99 },
					{ "time": 1.3333 }
				]
			},
			"bone6": {
				"scale": [
					{},
					{ "time": 0.3333, "x": 1.4, "y": 1.4 },
					{ "time": 0.6667 },
					{ "time": 1, "x": 1.4, "y": 1.4 },
					{ "time": 1.3333 }
				]
			},
			"bone5": {
				"rotate": [
					{},
					{ "time": 0.3333, "angle": 27.82 },
					{ "time": 0.6667, "angle": -1.66 },
					{ "time": 1, "angle": 27.82 },
					{ "time": 1.3333 }
				],
				"translate": [
					{},
					{ "time": 0.3333, "x": 1.1, "y": 5.23, "curve": "stepped" },
					{ "time": 1, "x": 1.1, "y": 5.23 },
					{ "time": 1.3333 }
				],
				"scale": [
					{},
					{ "time": 0.3333, "x": 0.99, "y": 0.99 },
					{ "time": 0.6667 },
					{ "time": 1, "x": 0.99, "y": 0.99 },
					{ "time": 1.3333 }
				]
			},
			"bone4": {
				"rotate": [
					{},
					{ "time": 0.3333, "angle": -10.09 },
					{ "time": 0.6667, "angle": 3.9 },
					{ "time": 1, "angle": -10.09 },
					{ "time": 1.3333 }
				],
				"scale": [
					{},
					{ "time": 0.3333, "x": 0.99, "y": 0.99 },
					{ "time": 0.6667 },
					{ "time": 1, "x": 0.99, "y": 0.99 },
					{ "time": 1.3333 }
				]
			},
			"bone3": {
				"rotate": [
					{},
					{ "time": 0.3333, "angle": 5.53 },
					{ "time": 0.6667, "angle": -1.51 },
					{ "time": 1, "angle": 5.53 },
					{ "time": 1.3333 }
				],
				"scale": [
					{},
					{ "time": 0.3333, "x": 0.99, "y": 0.99 },
					{ "time": 0.6667 },
					{ "time": 1, "x": 0.99, "y": 0.99 },
					{ "time": 1.3333 }
				]
			},
			"bone2": {
				"rotate": [
					{},
					{ "time": 0.3333, "angle": -3.13 },
					{ "time": 0.6667, "angle": 0.89 },
					{ "time": 1, "angle": -3.13 },
					{ "time": 1.3333 }
				],
				"scale": [
					{},
					{ "time": 0.3333, "x": 0.99, "y": 0.99 },
					{ "time": 0.6667 },
					{ "time": 1, "x": 0.99, "y": 0.99 },
					{ "time": 1.3333 }
				]
			}
		}
	}
}
}