%YAML 1.1
%TAG !u! tag:unity3d.com,2011:
--- !u!114 &11400000
MonoBehaviour:
  m_ObjectHideFlags: 0
  m_CorrespondingSourceObject: {fileID: 0}
  m_PrefabInstance: {fileID: 0}
  m_PrefabAsset: {fileID: 0}
  m_GameObject: {fileID: 0}
  m_Enabled: 1
  m_EditorHideFlags: 0
  m_Script: {fileID: 11500000, guid: 15dde2f04e5b6b846b0ed974f46e0a75, type: 3}
  m_Name: Cowo_Clothes_8
  m_EditorClassIdentifier: 
  m_ID: 7
  m_ClothesDetail:
    m_Names:
    - name: Cowo_S5/Body_5
      type: 4
    - name: Cowo_S5/HandL1_5
      type: 5
    - name: null
      type: 6
    - name: Cowo_S5/HandR1_5
      type: 7
    - name: null
      type: 8
    - name: Cowo_S5/Hipp_5
      type: 9
    - name: Cowo_S5/LegL1_5
      type: 10
    - name: Cowo_S5/LegL2_5
      type: 11
    - name: Cowo_S5/LegL3_5
      type: 12
    - name: Cowo_S5/LegR1_5
      type: 13
    - name: Cowo_S5/LegR2_5
      type: 14
    - name: Cowo_S5/LegR3_5
      type: 15
    m_IsUnlock: 1
    m_PriceType: 0
    m_Price: 300
  m_Icon: {fileID: 21300000, guid: 7504d52e317f2c84db83b0c7a555da6c, type: 3}
