%YAML 1.1
%TAG !u! tag:unity3d.com,2011:
--- !u!114 &11400000
MonoBehaviour:
  m_ObjectHideFlags: 0
  m_CorrespondingSourceObject: {fileID: 0}
  m_PrefabInstance: {fileID: 0}
  m_PrefabAsset: {fileID: 0}
  m_GameObject: {fileID: 0}
  m_Enabled: 1
  m_EditorHideFlags: 0
  m_Script: {fileID: 11500000, guid: 15dde2f04e5b6b846b0ed974f46e0a75, type: 3}
  m_Name: Cowo_Clothes_12
  m_EditorClassIdentifier: 
  m_ID: 11
  m_ClothesDetail:
    m_Names:
    - name: Cowo_S12/Body_12
      type: 4
    - name: Cowo_S12/HandL1_12
      type: 5
    - name: Cowo_S12/HandL2_12
      type: 6
    - name: Cowo_S12/HandR1_12
      type: 7
    - name: Cowo_S12/HandR2_12
      type: 8
    - name: Cowo_S12/Hipp_12
      type: 9
    - name: Cowo_S12/LegL1_12
      type: 10
    - name: Cowo_S12/LegL2_12
      type: 11
    - name: Cowo_S1/LegL3_1
      type: 12
    - name: Cowo_S12/LegR1_12
      type: 13
    - name: Cowo_S12/LegR2_12
      type: 14
    - name: Cowo_S1/LegR3_1
      type: 15
    m_IsUnlock: 1
    m_PriceType: 0
    m_Price: 300
  m_Icon: {fileID: 21300000, guid: 4e1d6c828e11fa9439c0873289dd30a6, type: 3}
