%YAML 1.1
%TAG !u! tag:unity3d.com,2011:
--- !u!114 &11400000
MonoBehaviour:
  m_ObjectHideFlags: 0
  m_CorrespondingSourceObject: {fileID: 0}
  m_PrefabInstance: {fileID: 0}
  m_PrefabAsset: {fileID: 0}
  m_GameObject: {fileID: 0}
  m_Enabled: 1
  m_EditorHideFlags: 0
  m_Script: {fileID: 11500000, guid: a6b194f808b1af6499c93410e504af42, type: 3}
  m_Name: skeleton_Atlas
  m_EditorClassIdentifier: 
  atlasFile: {fileID: 4900000, guid: 6beeb40d012f5fa45ba82abfb4323c50, type: 3}
  materials:
  - {fileID: 2100000, guid: d7ac621141ca5a047a33276d547858f3, type: 2}
  - {fileID: 2100000, guid: 4e2a667cf9f473d43a39b2602a613731, type: 2}
  - {fileID: 2100000, guid: 61512f27141bff94493dd0756b9a25a7, type: 2}
  - {fileID: 2100000, guid: 2ca439f7b485e7b4382ad654f0f8e057, type: 2}
  - {fileID: 2100000, guid: a7a05ef6c88393d40b6c214a559e8c46, type: 2}
