%YAML 1.1
%TAG !u! tag:unity3d.com,2011:
--- !u!114 &11400000
MonoBehaviour:
  m_ObjectHideFlags: 0
  m_CorrespondingSourceObject: {fileID: 0}
  m_PrefabInstance: {fileID: 0}
  m_PrefabAsset: {fileID: 0}
  m_GameObject: {fileID: 0}
  m_Enabled: 1
  m_EditorHideFlags: 0
  m_Script: {fileID: 11500000, guid: f1b3b4b945939a54ea0b23d3396115fb, type: 3}
  m_Name: NPC_HoundRace_f_SkeletonData
  m_EditorClassIdentifier: 
  atlasAssets:
  - {fileID: 11400000, guid: 7b28215c16eb6bf45b87adf0b994847a, type: 2}
  scale: 0.01
  skeletonJSON: {fileID: 4900000, guid: d86eb262a957ec947a83fd6793954381, type: 3}
  isUpgradingBlendModeMaterials: 0
  blendModeMaterials:
    requiresBlendModeMaterials: 0
    applyAdditiveMaterial: 1
    additiveMaterials: []
    multiplyMaterials: []
    screenMaterials: []
  skeletonDataModifiers: []
  fromAnimation: []
  toAnimation: []
  duration: []
  defaultMix: 0.2
  controller: {fileID: 0}
