%YAML 1.1
%TAG !u! tag:unity3d.com,2011:
--- !u!114 &11400000
MonoBehaviour:
  m_ObjectHideFlags: 0
  m_CorrespondingSourceObject: {fileID: 0}
  m_PrefabInstance: {fileID: 0}
  m_PrefabAsset: {fileID: 0}
  m_GameObject: {fileID: 0}
  m_Enabled: 1
  m_EditorHideFlags: 0
  m_Script: {fileID: 11500000, guid: a6b194f808b1af6499c93410e504af42, type: 3}
  m_Name: NPC_HoundRace_f_Atlas
  m_EditorClassIdentifier: 
  atlasFile: {fileID: 4900000, guid: a42e2f4e6bf735a4fa0e4e4821a70932, type: 3}
  materials:
  - {fileID: 2100000, guid: 76f413986561abf47b75f11fccc81e3b, type: 2}
