{
"skeleton": {
	"hash": "RoqPFw13sKgRqPMjGcG18B3AlME",
	"spine": "3.8.0",
	"x": -287.39,
	"y": -560.9,
	"width": 572,
	"height": 1319.72,
	"images": "",
	"audio": ""
},
"bones": [
	{ "name": "root" },
	{ "name": "bone", "parent": "root", "length": 223.1, "rotation": 90.18, "x": 1.14, "y": 26.25 },
	{ "name": "bone2", "parent": "bone", "length": 168.92, "rotation": 153.79, "x": 218.52, "y": 114.39 },
	{ "name": "bone3", "parent": "bone2", "length": 138.32, "rotation": -128.58, "x": 168.92 },
	{ "name": "bone4", "parent": "bone", "length": 168.21, "rotation": -145.96, "x": 217.83, "y": -102.35 },
	{ "name": "bone5", "parent": "bone4", "length": 192.78, "rotation": -39.27, "x": 168.21 },
	{ "name": "bone6", "parent": "root", "length": 238.72, "rotation": 91.68, "x": 0.94, "y": 324.67 }
],
"slots": [
	{ "name": "left arm", "bone": "root", "attachment": "left arm" },
	{ "name": "right arm", "bone": "root", "attachment": "right arm" },
	{ "name": "body", "bone": "root", "attachment": "body" },
	{ "name": "Layer 1", "bone": "root", "attachment": "Layer 1" },
	{ "name": "head", "bone": "root" },
	{ "name": "Righ up", "bone": "root", "attachment": "Righ up" },
	{ "name": "lose", "bone": "root" }
],
"skins": [
	{
		"name": "default",
		"attachments": {
			"Layer 1": {
				"Layer 1": {
					"type": "mesh",
					"uvs": [ 0.61459, 0.00412, 0.74398, 0.087, 0.83255, 0.16474, 0.98168, 0.49738, 1, 0.62904, 1, 0.64304, 0.94322, 0.79704, 0.88691, 0.84122, 0.89685, 0.96681, 0.78429, 0.96858, 0.75817, 0.92789, 0.76059, 0.92468, 0.62953, 0.98459, 0.48584, 1, 0.42033, 1, 0.26994, 0.93894, 0.25607, 0.93982, 0.20779, 0.97662, 0.09966, 0.93794, 0.10996, 0.84171, 0.09563, 0.82104, 0.05635, 0.79731, 0, 0.63608, 0, 0.60272, 0.16148, 0.17635, 0.25911, 0.07883, 0.39693, 0.0015 ],
					"triangles": [ 20, 21, 22, 4, 7, 3, 2, 3, 11, 4, 5, 7, 22, 23, 20, 24, 20, 23, 7, 5, 6, 15, 19, 20, 11, 1, 2, 7, 11, 3, 1, 11, 25, 1, 25, 26, 1, 26, 0, 11, 24, 25, 14, 15, 13, 24, 11, 12, 15, 20, 24, 19, 17, 18, 15, 16, 19, 9, 11, 7, 8, 9, 7, 10, 11, 9, 16, 17, 19, 15, 24, 13, 12, 13, 24 ],
					"vertices": [ 1, 6, 430.82, -75.91, 1, 1, 6, 387.8, -148.68, 1, 1, 6, 348, -198.2, 1, 1, 6, 181.57, -278.64, 1, 1, 6, 116.38, -287.21, 1, 1, 6, 109.48, -287.01, 1, 1, 6, 34.55, -252.31, 1, 1, 6, 13.72, -219.47, 1, 1, 6, -48.33, -223.34, 1, 1, 6, -47.31, -158.95, 1, 1, 6, -26.82, -144.61, 1, 1, 6, -25.28, -146.04, 1, 1, 6, -52.6, -70.24, 1, 1, 6, -57.77, 12.14, 1, 1, 6, -56.67, 49.59, 1, 1, 6, -24.05, 134.7, 1, 1, 6, -24.26, 142.64, 1, 1, 6, -41.57, 170.78, 1, 1, 6, -20.7, 232.04, 1, 1, 6, 26.55, 224.76, 1, 1, 6, 36.98, 232.65, 1, 1, 6, 49.33, 254.77, 1, 1, 6, 129.73, 284.65, 1, 1, 6, 146.17, 284.16, 1, 1, 6, 353.56, 185.66, 1, 1, 6, 399.98, 128.42, 1, 1, 6, 435.77, 48.5, 1 ],
					"hull": 27,
					"edges": [ 0, 52, 0, 2, 2, 4, 4, 6, 6, 8, 8, 10, 10, 12, 12, 14, 14, 16, 16, 18, 18, 20, 20, 22, 22, 24, 24, 26, 26, 28, 28, 30, 30, 32, 32, 34, 34, 36, 36, 38, 38, 40, 40, 42, 42, 44, 44, 46, 46, 48, 48, 50, 50, 52 ],
					"width": 572,
					"height": 493
				}
			},
			"left arm": {
				"left arm": {
					"type": "mesh",
					"uvs": [ 0.34379, 0.02308, 0.49853, 0.07548, 0.56473, 0.14627, 0.58476, 0.16396, 0.71194, 0.24738, 0.85115, 0.37958, 0.86779, 0.37833, 0.99402, 0.40085, 1, 0.41439, 1, 0.4596, 0.97224, 0.55094, 0.88174, 0.61401, 0.87746, 0.62392, 0.84911, 0.70582, 0.76371, 0.83574, 0.63132, 0.98413, 0.57443, 0.99937, 0.44424, 0.99518, 0.37891, 0.98685, 0.27817, 0.92895, 0.25405, 0.86361, 0.24421, 0.83397, 0.39028, 0.72827, 0.49684, 0.73725, 0.50385, 0.62661, 0.38576, 0.55824, 0.41549, 0.47546, 0.44762, 0.46106, 0.21153, 0.36349, 0.01723, 0.22797, 4.5E-4, 0.15447, 0.06474, 0.06223, 0.18788, 0.00442, 0.26576, 0.00471 ],
					"triangles": [ 16, 17, 15, 15, 17, 14, 14, 17, 18, 22, 23, 21, 14, 19, 20, 20, 23, 14, 19, 14, 18, 23, 20, 21, 14, 23, 13, 23, 24, 13, 13, 24, 12, 24, 25, 27, 25, 26, 27, 12, 24, 11, 11, 24, 27, 11, 27, 10, 10, 27, 5, 9, 10, 5, 8, 9, 6, 6, 9, 5, 6, 7, 8, 27, 4, 5, 27, 28, 4, 3, 28, 29, 30, 31, 2, 28, 3, 4, 3, 29, 2, 1, 31, 0, 31, 1, 2, 33, 31, 32, 31, 33, 0, 2, 29, 30 ],
					"vertices": [ 1, 4, -12.2, 46.25, 1, 1, 4, 23.88, 59.7, 1, 1, 4, 56.31, 53.89, 1, 1, 4, 64.82, 53.03, 1, 1, 4, 108.65, 54.43, 1, 2, 4, 171, 46.2, 0.5799, 5, -27.07, 37.54, 0.4201, 2, 4, 172.46, 49.29, 0.50984, 5, -27.9, 40.86, 0.49016, 2, 4, 194.79, 65.1, 0.26471, 5, -20.62, 67.22, 0.73529, 2, 4, 200.23, 62.86, 0.2496, 5, -14.99, 68.94, 0.7504, 2, 4, 216.12, 52.06, 0.14789, 5, 4.15, 70.63, 0.85211, 2, 4, 245.05, 25.56, 0.00844, 5, 43.31, 68.43, 0.99156, 1, 5, 71.63, 52.48, 1, 1, 5, 75.9, 51.99, 1, 1, 5, 111.08, 49.31, 1, 1, 5, 167.6, 36.9, 1, 1, 5, 232.79, 15.67, 1, 1, 5, 240.25, 4.73, 1, 1, 5, 240.8, -21.75, 1, 1, 5, 238.44, -35.27, 1, 1, 5, 215.73, -57.8, 1, 1, 5, 188.5, -65.12, 1, 1, 5, 176.12, -68.22, 1, 1, 5, 128.77, -42.63, 1, 1, 5, 130.67, -20.75, 1, 1, 5, 83.7, -23.46, 1, 2, 4, 180.65, -74.62, 0.0317, 5, 56.87, -49.9, 0.9683, 2, 4, 154.96, -49.84, 0.28705, 5, 21.29, -46.98, 0.71295, 2, 4, 153.57, -41.01, 0.47415, 5, 14.62, -41.02, 0.52585, 2, 4, 92.33, -57.32, 0.99929, 5, -22.47, -92.4, 7.1E-4, 1, 4, 22.52, -57.54, 1, 1, 4, -5.23, -42.78, 1, 1, 4, -30.3, -9.94, 1, 1, 4, -36.56, 24.54, 1, 1, 4, -27.56, 37.55, 1 ],
					"hull": 34,
					"edges": [ 0, 66, 0, 2, 2, 4, 4, 6, 6, 8, 8, 10, 10, 12, 12, 14, 14, 16, 16, 18, 18, 20, 20, 22, 22, 24, 24, 26, 26, 28, 28, 30, 30, 32, 32, 34, 34, 36, 36, 38, 38, 40, 40, 42, 42, 44, 44, 46, 46, 48, 48, 50, 50, 52, 52, 54, 54, 56, 56, 58, 58, 60, 60, 62, 62, 64, 64, 66 ],
					"width": 203,
					"height": 425
				}
			},
			"lose": {
				"lose": {
					"type": "mesh",
					"uvs": [ 0.61811, 0.00447, 0.79453, 0.12358, 0.84787, 0.199, 0.97463, 0.48267, 1, 0.62635, 1, 0.64325, 0.94123, 0.80282, 0.90696, 0.82011, 0.88657, 0.83497, 0.89602, 0.95921, 0.79364, 0.97639, 0.75668, 0.93189, 0.74308, 0.93367, 0.62129, 0.98712, 0.47363, 1, 0.42759, 1, 0.31595, 0.95968, 0.24193, 0.91402, 0.22085, 0.97966, 0.0996, 0.9395, 0.10876, 0.85318, 0.10311, 0.82454, 0.05675, 0.79849, 0, 0.63713, 0, 0.60481, 0.17688, 0.13448, 0.2187, 0.10921, 0.39247, 0.00135 ],
					"triangles": [ 21, 22, 23, 4, 7, 3, 23, 24, 21, 3, 12, 2, 4, 5, 7, 7, 5, 6, 24, 17, 21, 7, 8, 3, 17, 20, 21, 16, 17, 26, 25, 26, 17, 25, 17, 24, 27, 1, 26, 0, 1, 27, 2, 26, 1, 16, 26, 2, 3, 8, 12, 12, 8, 11, 19, 20, 17, 10, 11, 8, 15, 16, 14, 9, 10, 8, 18, 19, 17, 12, 13, 2, 16, 2, 14, 13, 14, 2 ],
					"vertices": [ 1, 6, 430.62, -76.76, 1, 1, 6, 368.96, -175.91, 1, 1, 6, 330.89, -205.31, 1, 1, 6, 188.97, -273.68, 1, 1, 6, 117.74, -286.1, 1, 1, 6, 109.42, -285.86, 1, 1, 6, 31.77, -249.94, 1, 1, 6, 23.83, -230.1, 1, 1, 6, 16.85, -218.22, 1, 1, 6, -44.54, -221.83, 1, 1, 6, -51.28, -163.04, 1, 1, 6, -28.73, -142.55, 1, 1, 6, -29.38, -134.75, 1, 1, 6, -53.67, -64.34, 1, 1, 6, -57.53, 20.27, 1, 1, 6, -56.76, 46.59, 1, 1, 6, -35.01, 109.84, 1, 1, 6, -11.27, 151.5, 1, 1, 6, -43.26, 164.5, 1, 1, 6, -21.43, 233.24, 1, 1, 6, 20.95, 226.76, 1, 1, 6, 35.16, 229.57, 1, 1, 6, 48.77, 255.7, 1, 1, 6, 129.24, 285.81, 1, 1, 6, 145.17, 285.34, 1, 1, 6, 373.97, 177.39, 1, 1, 6, 385.72, 153.11, 1, 1, 6, 435.95, 52.2, 1 ],
					"hull": 28,
					"edges": [ 0, 54, 0, 2, 2, 4, 4, 6, 6, 8, 8, 10, 10, 12, 12, 14, 14, 16, 16, 18, 18, 20, 20, 22, 22, 24, 24, 26, 26, 28, 28, 30, 30, 32, 32, 34, 34, 36, 36, 38, 38, 40, 40, 42, 42, 44, 44, 46, 46, 48, 48, 50, 50, 52, 52, 54 ],
					"width": 572,
					"height": 493
				}
			},
			"right arm": {
				"right arm": {
					"type": "mesh",
					"uvs": [ 0.78786, 0, 0.96034, 0.08436, 0.99314, 0.16848, 0.99457, 0.34183, 0.75501, 0.71168, 0.57218, 0.89667, 0.4274, 1, 0.40643, 1, 0.2171, 0.93425, 0.09397, 0.67487, 0.16014, 0.4797, 0.38564, 0.14846, 0.71314, 0 ],
					"triangles": [ 8, 9, 5, 9, 10, 4, 6, 7, 5, 7, 8, 5, 5, 9, 4, 4, 10, 3, 3, 10, 11, 2, 11, 12, 2, 12, 1, 1, 12, 0, 2, 3, 11 ],
					"vertices": [ 1, 2, -41.64, -22.33, 1, 1, 2, -36.16, 8.95, 1, 1, 2, -21.6, 21.5, 1, 1, 2, 12.73, 38.5, 1, 1, 2, 101.84, 42.3, 1, 1, 2, 150.53, 35.76, 1, 2, 2, 180.52, 26.39, 0.99882, 3, -27.86, -7.4, 0.00118, 2, 2, 181.89, 23.59, 0.99513, 3, -26.52, -4.58, 0.00487, 2, 2, 181.21, -8.14, 0.22129, 3, -1.3, 14.68, 0.77871, 1, 3, 58.35, 6.68, 1, 2, 2, 94.67, -59.85, 0.46655, 3, 93.09, -20.72, 0.53345, 2, 2, 14.15, -61.78, 0.97323, 3, 144.82, -82.46, 0.02677, 2, 2, -36.75, -32.33, 0.99999, 3, 153.54, -140.61, 1.0E-5 ],
					"hull": 13,
					"edges": [ 0, 24, 0, 2, 2, 4, 4, 6, 6, 8, 8, 10, 10, 12, 12, 14, 14, 16, 16, 18, 18, 20, 20, 22, 22, 24 ],
					"width": 149,
					"height": 221
				}
			},
			"Righ up": {
				"Righ up": {
					"type": "mesh",
					"uvs": [ 0.74516, 0.03513, 0.82529, 0.23879, 0.4887, 0.44841, 0.6278, 0.5409, 0.91633, 0.73905, 0.86333, 0.97034, 0.73428, 1, 0.66737, 1, 0.21286, 0.90588, 0.12048, 0.60583, 0.08114, 0.30397, 0.41756, 0.01265, 0.65994, 0.0017 ],
					"triangles": [ 10, 11, 1, 0, 11, 12, 1, 11, 0, 2, 10, 1, 9, 10, 2, 9, 2, 3, 8, 9, 3, 8, 3, 4, 4, 7, 8, 5, 7, 4, 6, 7, 5 ],
					"vertices": [ 1, 3, 226.65, -112, 1, 1, 3, 166.97, -96.19, 1, 1, 3, 130.89, -26.53, 1, 1, 3, 97.58, -32.44, 1, 1, 3, 26.79, -43.87, 1, 1, 3, -32.27, -7.57, 1, 1, 3, -32.46, 12.66, 1, 1, 3, -28.41, 21.18, 1, 1, 3, 24.4, 67.05, 1, 1, 3, 110.77, 40.49, 1, 1, 3, 194.41, 6.93, 1, 1, 3, 252.51, -73.15, 1, 1, 3, 240.8, -105.42, 1 ],
					"hull": 13,
					"edges": [ 0, 24, 0, 2, 2, 4, 4, 6, 6, 8, 8, 10, 10, 12, 12, 14, 14, 16, 16, 18, 18, 20, 20, 22, 22, 24 ],
					"width": 141,
					"height": 298
				}
			},
			"head": {
				"head": {
					"type": "mesh",
					"uvs": [ 0.43469, 0.0019, 0.4841, 0.01669, 0.49274, 0.02307, 0.5381, 0.00384, 0.59942, 0.00408, 0.67098, 0.03758, 0.78905, 0.12193, 0.8411, 0.18538, 0.97769, 0.48877, 1, 0.62628, 1, 0.65683, 0.94954, 0.72778, 0.9495, 0.79606, 0.90297, 0.82308, 0.88546, 0.82422, 0.89441, 0.93244, 0.86998, 0.96061, 0.83441, 0.97123, 0.77443, 0.96365, 0.76396, 0.90409, 0.72461, 0.93585, 0.68927, 0.95993, 0.60062, 0.98949, 0.46981, 1, 0.42583, 1, 0.38404, 0.98599, 0.23443, 0.92265, 0.22576, 0.96751, 0.18387, 0.96789, 0.11656, 0.94433, 0.10087, 0.9268, 0.1121, 0.82332, 0.08377, 0.81571, 0.05413, 0.79556, 0.05399, 0.72735, 0.00358, 0.65789, 0.00174, 0.60821, 0.0371, 0.50421, 0.15562, 0.19298, 0.22777, 0.1079, 0.2854, 0.06545, 0.39519, 0.00203 ],
					"triangles": [ 2, 41, 0, 2, 40, 41, 1, 2, 0, 11, 8, 9, 34, 35, 36, 31, 32, 34, 34, 36, 37, 19, 7, 8, 10, 11, 9, 32, 33, 34, 14, 8, 11, 31, 34, 37, 12, 13, 11, 37, 26, 31, 11, 13, 14, 2, 6, 7, 6, 2, 5, 14, 19, 8, 39, 2, 38, 2, 26, 38, 26, 37, 38, 2, 3, 4, 2, 4, 5, 39, 40, 2, 7, 19, 2, 25, 26, 2, 29, 30, 31, 19, 14, 15, 2, 19, 25, 26, 29, 31, 25, 19, 20, 15, 17, 19, 17, 18, 19, 26, 28, 29, 27, 28, 26, 15, 16, 17, 23, 25, 20, 21, 22, 20, 23, 24, 25, 20, 22, 23 ],
					"vertices": [ 1, 6, 434.36, 26.32, 1, 1, 6, 426.24, -1.72, 1, 1, 6, 422.95, -6.56, 1, 1, 6, 431.66, -32.78, 1, 1, 6, 430.51, -67.83, 1, 1, 6, 412.8, -108.26, 1, 1, 6, 369.25, -174.55, 1, 1, 6, 337.11, -203.39, 1, 1, 6, 185.3, -277.09, 1, 1, 6, 117.17, -287.85, 1, 1, 6, 102.11, -287.41, 1, 1, 6, 67.99, -257.53, 1, 1, 6, 34.35, -256.51, 1, 1, 6, 21.81, -229.52, 1, 1, 6, 21.55, -219.49, 1, 1, 6, -31.93, -223.04, 1, 1, 6, -45.41, -208.66, 1, 1, 6, -50.04, -188.17, 1, 1, 6, -45.29, -153.99, 1, 1, 6, -15.77, -148.86, 1, 1, 6, -30.76, -125.91, 1, 1, 6, -42.03, -105.36, 1, 1, 6, -55.11, -54.24, 1, 1, 6, -58.08, 20.7, 1, 1, 6, -57.34, 45.85, 1, 1, 6, -49.74, 69.54, 1, 1, 6, -16.01, 154.16, 1, 1, 6, -37.97, 159.77, 1, 1, 6, -37.45, 183.72, 1, 1, 6, -24.71, 221.87, 1, 1, 6, -15.81, 230.59, 1, 1, 6, 34.99, 222.67, 1, 1, 6, 39.22, 238.75, 1, 1, 6, 49.65, 255.41, 1, 1, 6, 83.27, 254.5, 1, 1, 6, 118.34, 282.31, 1, 1, 6, 142.85, 282.65, 1, 1, 6, 193.51, 260.92, 1, 1, 6, 344.89, 188.65, 1, 1, 6, 385.6, 146.16, 1, 1, 6, 405.55, 112.6, 1, 1, 6, 434.96, 48.9, 1 ],
					"hull": 42,
					"edges": [ 0, 82, 0, 2, 2, 4, 4, 6, 6, 8, 8, 10, 10, 12, 12, 14, 14, 16, 16, 18, 18, 20, 20, 22, 22, 24, 24, 26, 26, 28, 28, 30, 30, 32, 32, 34, 34, 36, 36, 38, 38, 40, 40, 42, 42, 44, 44, 46, 46, 48, 48, 50, 50, 52, 52, 54, 54, 56, 56, 58, 58, 60, 60, 62, 62, 64, 64, 66, 66, 68, 68, 70, 70, 72, 72, 74, 74, 76, 76, 78, 78, 80, 80, 82 ],
					"width": 572,
					"height": 493
				}
			},
			"body": {
				"body": {
					"type": "mesh",
					"uvs": [ 0.17027, 0.00226, 0.59838, 0.00214, 0.67347, 0.01748, 0.70683, 0.09039, 0.70499, 0.14019, 0.67588, 0.19173, 0.6415, 0.21383, 0.62844, 0.27341, 0.66835, 0.35659, 0.67917, 0.43461, 0.68773, 0.46546, 0.68171, 0.48188, 0.67388, 0.50968, 0.6677, 0.55397, 0.64398, 0.65517, 0.64185, 0.69675, 0.62659, 0.72869, 0.61786, 0.79581, 0.61335, 0.83837, 0.63154, 0.84409, 0.63395, 0.8625, 0.685, 0.89315, 0.70756, 0.91306, 0.77358, 0.9386, 0.77958, 0.95047, 0.77863, 0.96514, 0.69103, 0.98453, 0.65946, 0.98648, 0.60179, 0.97966, 0.56159, 0.96524, 0.55466, 0.95669, 0.46505, 0.91961, 0.45063, 0.8953, 0.4691, 0.85349, 0.42789, 0.79119, 0.42283, 0.75976, 0.42998, 0.74448, 0.43722, 0.74392, 0.43963, 0.71306, 0.4493, 0.69547, 0.44984, 0.68475, 0.44588, 0.66566, 0.43564, 0.64991, 0.41917, 0.64853, 0.43187, 0.64381, 0.40988, 0.5751, 0.37287, 0.57017, 0.34877, 0.63877, 0.35849, 0.64887, 0.33143, 0.66684, 0.32909, 0.6937, 0.33956, 0.71183, 0.3398, 0.73857, 0.35956, 0.75788, 0.35071, 0.78829, 0.32198, 0.83887, 0.31227, 0.84805, 0.30848, 0.86059, 0.32745, 0.8877, 0.31804, 0.91611, 0.28532, 0.93205, 0.24082, 0.95004, 0.22087, 0.96132, 0.20402, 0.97176, 0.16622, 0.98115, 0.11725, 0.98623, 0.08898, 0.9846, 4.4E-4, 0.9646, 0.00281, 0.93881, 0.06894, 0.91411, 0.08991, 0.89613, 0.14575, 0.86163, 0.1421, 0.85583, 0.1648, 0.83102, 0.15808, 0.76439, 0.15063, 0.7236, 0.13675, 0.6998, 0.13671, 0.6629, 0.10695, 0.5337, 0.10788, 0.522, 0.09128, 0.45304, 0.09944, 0.4434, 0.10615, 0.40323, 0.1078, 0.3939, 0.10737, 0.38844, 0.10605, 0.3849, 0.1066, 0.38001, 0.1109, 0.37049, 0.11326, 0.36846, 0.1152, 0.36456, 0.13388, 0.30993, 0.15211, 0.28745, 0.1526, 0.27918, 0.14028, 0.22332, 0.14001, 0.21831, 0.13293, 0.20924, 0.11103, 0.19816, 0.09914, 0.18615, 0.07242, 0.12812, 0.06989, 0.09405, 0.10823, 0.01908, 0.11731, 0.01683 ],
					"triangles": [ 101, 98, 99, 1, 2, 3, 101, 97, 98, 3, 4, 6, 99, 100, 101, 0, 96, 97, 101, 0, 97, 95, 96, 0, 3, 6, 1, 4, 5, 6, 6, 94, 95, 6, 92, 93, 1, 95, 0, 93, 94, 6, 6, 95, 1, 7, 92, 6, 88, 84, 86, 85, 86, 84, 88, 83, 84, 11, 9, 10, 9, 7, 8, 12, 9, 11, 83, 46, 82, 46, 81, 82, 79, 81, 46, 80, 81, 79, 90, 91, 7, 9, 12, 7, 7, 91, 92, 12, 45, 46, 90, 7, 12, 12, 89, 90, 89, 83, 88, 89, 12, 83, 87, 88, 86, 83, 12, 46, 78, 79, 46, 13, 45, 12, 47, 78, 46, 14, 44, 45, 14, 42, 44, 43, 44, 42, 45, 13, 14, 77, 78, 47, 41, 42, 14, 49, 77, 47, 49, 47, 48, 40, 41, 14, 50, 77, 49, 15, 40, 14, 39, 40, 15, 76, 77, 50, 75, 76, 50, 75, 50, 51, 16, 39, 15, 38, 39, 16, 75, 51, 52, 37, 38, 16, 74, 75, 52, 54, 52, 53, 74, 52, 54, 37, 34, 35, 17, 37, 16, 73, 74, 54, 37, 17, 34, 55, 73, 54, 56, 73, 55, 18, 33, 17, 37, 35, 36, 17, 33, 34, 57, 73, 56, 71, 72, 73, 71, 73, 57, 57, 58, 71, 20, 31, 32, 58, 60, 71, 59, 60, 58, 61, 70, 71, 60, 61, 71, 62, 69, 70, 20, 32, 33, 18, 20, 33, 19, 20, 18, 30, 20, 21, 30, 21, 22, 30, 31, 20, 61, 62, 70, 23, 24, 22, 28, 29, 30, 62, 64, 69, 22, 28, 30, 24, 28, 22, 24, 26, 28, 63, 64, 62, 66, 67, 68, 68, 69, 66, 25, 26, 24, 69, 65, 66, 64, 65, 69, 27, 28, 26 ],
					"vertices": [ 1, 1, 279.26, 93.33, 1, 1, 1, 278.79, -88.2, 1, 1, 1, 265.19, -119.99, 1, 1, 1, 200.99, -133.93, 1, 1, 1, 157.16, -133.01, 1, 1, 1, 111.85, -120.53, 1, 1, 1, 92.45, -105.89, 1, 1, 1, 40.03, -100.18, 1, 1, 1, -33.22, -116.87, 1, 1, 1, -101.89, -121.25, 1, 1, 1, -129.05, -124.79, 1, 1, 1, -143.49, -122.19, 1, 1, 1, -167.95, -118.79, 1, 1, 1, -206.91, -116.05, 1, 1, 1, -295.94, -105.71, 1, 1, 1, -332.52, -104.69, 1, 1, 1, -360.6, -98.13, 1, 1, 1, -419.67, -94.24, 1, 1, 1, -457.11, -92.21, 1, 1, 1, -462.16, -99.91, 1, 1, 1, -478.37, -100.88, 1, 1, 1, -505.41, -122.44, 1, 1, 1, -522.96, -131.95, 1, 1, 1, -545.52, -159.87, 1, 1, 1, -555.98, -162.38, 1, 1, 1, -568.89, -161.94, 1, 1, 1, -585.84, -124.74, 1, 1, 1, -587.51, -111.35, 1, 1, 1, -581.42, -86.92, 1, 1, 1, -568.68, -69.91, 1, 1, 1, -561.15, -67, 1, 1, 1, -528.4, -29.11, 1, 1, 1, -506.99, -23.06, 1, 1, 1, -470.22, -31.01, 1, 1, 1, -415.34, -13.71, 1, 1, 1, -387.68, -11.65, 1, 1, 1, -374.24, -14.73, 1, 1, 1, -373.75, -17.8, 1, 1, 1, -346.61, -18.9, 1, 1, 1, -331.13, -23.05, 1, 1, 1, -321.7, -23.31, 1, 1, 1, -304.9, -21.69, 1, 1, 1, -291.03, -17.39, 1, 1, 1, -289.79, -10.41, 1, 1, 1, -285.65, -15.81, 1, 1, 1, -225.16, -6.68, 1, 1, 1, -220.77, 9, 1, 1, 1, -281.11, 19.41, 1, 1, 1, -290, 15.32, 1, 1, 1, -305.78, 26.84, 1, 1, 1, -329.42, 27.91, 1, 1, 1, -345.39, 23.52, 1, 1, 1, -368.92, 23.49, 1, 1, 1, -385.93, 15.17, 1, 1, 1, -412.68, 19, 1, 1, 1, -457.16, 31.33, 1, 1, 1, -465.23, 35.47, 1, 1, 1, -476.26, 37.11, 1, 1, 1, -500.13, 29.14, 1, 1, 1, -525.12, 33.21, 1, 1, 1, -539.1, 47.13, 1, 1, 1, -554.88, 66.05, 1, 1, 1, -564.78, 74.54, 1, 1, 1, -573.95, 81.71, 1, 1, 1, -582.16, 97.77, 1, 1, 1, -586.56, 118.54, 1, 1, 1, -585.09, 130.53, 1, 1, 1, -567.37, 168.01, 1, 1, 1, -544.67, 166.93, 1, 1, 1, -523.02, 138.83, 1, 1, 1, -507.24, 129.89, 1, 1, 1, -476.95, 106.11, 1, 1, 1, -471.84, 107.65, 1, 1, 1, -450.04, 97.95, 1, 1, 1, -391.39, 100.62, 1, 1, 1, -355.49, 103.66, 1, 1, 1, -334.53, 109.48, 1, 1, 1, -302.06, 109.39, 1, 1, 1, -188.32, 121.65, 1, 1, 1, -178.03, 121.22, 1, 1, 1, -117.32, 128.07, 1, 1, 1, -108.84, 124.59, 1, 1, 1, -73.51, 121.63, 1, 1, 1, -65.3, 120.9, 1, 1, 1, -60.49, 121.07, 1, 1, 1, -57.38, 121.62, 1, 1, 1, -53.07, 121.37, 1, 1, 1, -44.71, 119.52, 1, 1, 1, -42.92, 118.51, 1, 1, 1, -39.49, 117.68, 1, 1, 1, 8.56, 109.61, 1, 1, 1, 28.32, 101.82, 1, 1, 1, 35.59, 101.59, 1, 1, 1, 84.76, 106.65, 1, 1, 1, 89.18, 106.76, 1, 1, 1, 97.17, 109.73, 1, 1, 1, 106.95, 118.99, 1, 1, 1, 117.53, 124, 1, 1, 1, 168.64, 135.16, 1, 1, 1, 198.62, 136.14, 1, 1, 1, 264.54, 119.67, 1, 1, 1, 266.51, 115.82, 1 ],
					"hull": 102,
					"edges": [ 0, 202, 0, 2, 2, 4, 4, 6, 6, 8, 8, 10, 10, 12, 12, 14, 14, 16, 16, 18, 18, 20, 20, 22, 22, 24, 24, 26, 26, 28, 28, 30, 30, 32, 32, 34, 34, 36, 36, 38, 38, 40, 40, 42, 42, 44, 44, 46, 46, 48, 48, 50, 50, 52, 52, 54, 54, 56, 56, 58, 58, 60, 60, 62, 62, 64, 64, 66, 66, 68, 68, 70, 70, 72, 72, 74, 74, 76, 76, 78, 78, 80, 80, 82, 82, 84, 84, 86, 86, 88, 88, 90, 90, 92, 92, 94, 94, 96, 96, 98, 98, 100, 100, 102, 102, 104, 104, 106, 106, 108, 108, 110, 110, 112, 112, 114, 114, 116, 116, 118, 118, 120, 120, 122, 122, 124, 124, 126, 126, 128, 128, 130, 130, 132, 132, 134, 134, 136, 136, 138, 138, 140, 140, 142, 142, 144, 144, 146, 146, 148, 148, 150, 150, 152, 152, 154, 154, 156, 156, 158, 158, 160, 160, 162, 162, 164, 164, 166, 166, 168, 168, 170, 170, 172, 172, 174, 174, 176, 176, 178, 178, 180, 180, 182, 182, 184, 184, 186, 186, 188, 188, 190, 190, 192, 192, 194, 194, 196, 196, 198, 198, 200, 200, 202 ],
					"width": 424,
					"height": 880
				}
			}
		}
	}
],
"animations": {
	"Idle": {
		"slots": {
			"Layer 1": {
				"attachment": [
					{ "name": null }
				]
			},
			"head": {
				"attachment": [
					{ "name": "head" }
				]
			}
		},
		"bones": {
			"root": {
				"translate": [
					{ "time": 0.3333, "y": 1.5 }
				]
			},
			"bone6": {
				"translate": [
					{},
					{ "time": 0.3333, "y": 17.69 },
					{ "time": 0.6667 }
				]
			},
			"bone": {
				"translate": [
					{},
					{ "time": 0.3333, "y": 7.33 },
					{ "time": 0.6333, "y": 0.95 },
					{ "time": 0.6667 }
				],
				"scale": [
					{},
					{ "time": 0.3333, "x": 1.001, "y": 1.008 },
					{ "time": 0.6333, "x": 0.997, "y": 1.001 },
					{ "time": 0.6667 }
				]
			},
			"bone2": {
				"rotate": [
					{},
					{ "time": 0.3333, "angle": -0.96 },
					{ "time": 0.6667 }
				]
			},
			"bone3": {
				"rotate": [
					{},
					{ "time": 0.3333, "angle": 8.02 },
					{ "time": 0.6667 }
				]
			},
			"bone4": {
				"rotate": [
					{},
					{ "time": 0.3333, "angle": -1.1 },
					{ "time": 0.6667 }
				]
			},
			"bone5": {
				"rotate": [
					{},
					{ "time": 0.3333, "angle": 6.66 },
					{ "time": 0.6667 }
				]
			}
		}
	},
	"Lose": {
		"slots": {
			"lose": {
				"attachment": [
					{ "name": "lose" }
				]
			}
		},
		"bones": {
			"bone6": {
				"rotate": [
					{},
					{ "time": 0.8333, "angle": -9.67 }
				],
				"translate": [
					{},
					{ "time": 0.3333, "y": 10.48 },
					{ "time": 0.8333 }
				]
			},
			"bone": {
				"translate": [
					{},
					{ "time": 0.3333, "y": 9.02 },
					{ "time": 0.8333 }
				],
				"scale": [
					{},
					{ "time": 0.3333, "x": 1.013, "y": 1.013 },
					{ "time": 0.8333 }
				]
			},
			"bone4": {
				"rotate": [
					{},
					{ "time": 0.3333, "angle": 16.22 },
					{ "time": 0.8333, "angle": -7.88 }
				]
			},
			"bone3": {
				"rotate": [
					{},
					{ "time": 0.3333, "angle": 19.2 },
					{ "time": 0.8333, "angle": 31.27 },
					{ "time": 1.6667, "angle": 32.45 }
				]
			},
			"bone2": {
				"rotate": [
					{},
					{ "time": 0.3333, "angle": -15.06 },
					{ "time": 0.8333, "angle": 19.39 }
				]
			}
		}
	},
	"Win": {
		"bones": {
			"bone6": {
				"translate": [
					{},
					{ "time": 0.2667, "y": 7.24 },
					{ "time": 0.4333, "y": -17.58 },
					{ "time": 0.5667, "y": -4.14 }
				]
			},
			"bone4": {
				"rotate": [
					{},
					{ "time": 0.2667, "angle": 10.77 },
					{ "time": 0.4333, "angle": -1.22 },
					{ "time": 0.8333, "angle": 3.54 }
				]
			},
			"bone3": {
				"rotate": [
					{},
					{ "time": 0.2667, "angle": 8.06 },
					{ "time": 0.4333, "angle": 22.2 },
					{ "time": 0.5667 }
				]
			},
			"bone2": {
				"rotate": [
					{},
					{ "time": 0.2667, "angle": -19.15 },
					{ "time": 0.4333, "angle": 24.16 },
					{ "time": 0.5667, "angle": 19.8 },
					{ "time": 1.1667, "angle": 19.41 }
				]
			},
			"bone": {
				"translate": [
					{},
					{ "time": 0.4333, "y": -2.33 }
				],
				"scale": [
					{},
					{ "time": 0.2667, "x": 1.012, "y": 1.037 },
					{ "time": 0.4333, "x": 1.001, "y": 1.025 }
				]
			}
		}
	}
}
}