{
"skeleton": {
	"hash": "YicwVXbKTRK1T5D3hUBgRgUW3Lk",
	"spine": "3.8.0",
	"x": -522,
	"y": -571,
	"width": 1358.01,
	"height": 1405.92,
	"images": "./Bouncer3/",
	"audio": "C:/Users/ASUS/Downloads/Work/BOUNCER/Bouncer2"
},
"bones": [
	{ "name": "root" }
],
"slots": [
	{ "name": "Head", "bone": "root", "attachment": "Head" },
	{ "name": "body", "bone": "root", "attachment": "Body" },
	{ "name": "leg", "bone": "root", "attachment": "Leg" },
	{ "name": "Head2", "bone": "root", "attachment": "Head2" },
	{ "name": "Head3", "bone": "root", "attachment": "Head3" }
],
"skins": [
	{
		"name": "default",
		"attachments": {
			"Head": {
				"Head": {
					"type": "mesh",
					"uvs": [ 1, 1, 0, 1, 0, 0, 1, 0 ],
					"triangles": [ 1, 2, 3, 1, 3, 0 ],
					"vertices": [ 526, -490, -522, -490, -522, 558, 526, 558 ],
					"hull": 4,
					"edges": [ 0, 2, 2, 4, 4, 6, 0, 6 ],
					"width": 1048,
					"height": 1048
				}
			},
			"leg": {
				"Leg": {
					"type": "mesh",
					"uvs": [ 1, 1, 0, 1, 0, 0, 1, 0 ],
					"triangles": [ 1, 2, 3, 1, 3, 0 ],
					"vertices": [ 542, -571, -506, -571, -506, 477, 542, 477 ],
					"hull": 4,
					"edges": [ 0, 2, 2, 4, 4, 6, 0, 6 ],
					"width": 1048,
					"height": 1048
				}
			},
			"body": {
				"Body": {
					"type": "mesh",
					"uvs": [ 1, 1, 0, 1, 0, 0, 1, 0 ],
					"triangles": [ 1, 2, 3, 1, 3, 0 ],
					"vertices": [ 533, -533, -515, -533, -515, 515, 533, 515 ],
					"hull": 4,
					"edges": [ 0, 2, 2, 4, 4, 6, 0, 6 ],
					"width": 1048,
					"height": 1048
				}
			},
			"Head2": {
				"Head2": {
					"type": "mesh",
					"uvs": [ 1, 1, 0, 1, 0, 0, 1, 0 ],
					"triangles": [ 1, 2, 3, 1, 3, 0 ],
					"vertices": [ 836.01, -213.08, -211.99, -213.08, -211.99, 834.92, 836.01, 834.92 ],
					"hull": 4,
					"edges": [ 0, 2, 2, 4, 4, 6, 0, 6 ],
					"width": 1048,
					"height": 1048
				}
			},
			"Head3": {
				"Head3": {
					"type": "mesh",
					"uvs": [ 1, 1, 0, 1, 0, 0, 1, 0 ],
					"triangles": [ 1, 2, 3, 1, 3, 0 ],
					"vertices": [ 822.16, -470.13, -225.84, -470.13, -225.84, 577.87, 822.16, 577.87 ],
					"hull": 4,
					"edges": [ 0, 2, 2, 4, 4, 6, 0, 6 ],
					"width": 1048,
					"height": 1048
				}
			}
		}
	}
],
"animations": {
	"animation": {
		"slots": {
			"Head3": {
				"attachment": [
					{ "name": null },
					{ "time": 0.7, "name": "Head3" },
					{ "time": 0.7333, "name": null }
				]
			},
			"Head2": {
				"attachment": [
					{ "name": null },
					{ "time": 0.6667, "name": "Head2" },
					{ "time": 0.7, "name": null },
					{ "time": 0.7333, "name": "Head2" },
					{ "time": 0.7667, "name": null }
				]
			}
		},
		"deform": {
			"default": {
				"Head": {
					"Head": [
						{
							"vertices": [ 3.37201, -28.251, 3.37201, -28.251, 3.37201, -28.251, 3.37201, -28.251 ]
						},
						{
							"time": 0.6667,
							"vertices": [ 4.496, -14.67003, 4.496, -14.67003, 4.496, -14.67003, 4.496, -14.67003 ]
						},
						{
							"time": 0.7333,
							"vertices": [ 5.05798, -17.42035, 5.05798, -17.42035, 5.05798, -17.42035, 5.05798, -17.42035 ]
						},
						{
							"time": 1.3333,
							"vertices": [ 3.30298, -27.66299, 3.30298, -27.66299, 3.30298, -27.66299, 3.30298, -27.66299 ]
						}
					]
				},
				"leg": {
					"Leg": [
						{
							"vertices": [ 4.14999, 5.81003, 4.14999, 5.81003, 4.14999, 5.81003, 4.14999, 5.81003 ]
						}
					]
				},
				"body": {
					"Body": [
						{
							"offset": 1,
							"vertices": [ -0.92899, 0, -0.92899, 0, -0.92899, 0, -0.92899 ]
						},
						{
							"time": 0.6667,
							"vertices": [ 6.62354, -9.3213, -6.62354, -9.3213, -6.62354, 23.79552, 6.62354, 23.79552 ]
						},
						{
							"time": 1.3333,
							"vertices": [ 2.23767, -2.06372, -2.23767, -2.06372, -2.23767, 2.34995, 2.23767, 2.34995 ]
						}
					]
				},
				"Head3": {
					"Head3": [
						{
							"offset": 1,
							"vertices": [ 8.63998, 0, 8.63998, 0, 8.63998, 0, 8.63998 ]
						},
						{
							"time": 0.7,
							"vertices": [ -291.18195, 209.06802, -291.18195, 209.06802, -291.18195, 209.06802, -291.18195, 209.06802 ]
						}
					]
				},
				"Head2": {
					"Head2": [
						{
							"vertices": [ -3.13998, 0, -3.13998, 0, -3.13998, 0, -3.13998 ]
						},
						{
							"time": 0.6667,
							"vertices": [ -305.5648, -46.60498, -305.5648, -46.60498, -305.5648, -46.60498, -305.5648, -46.60498 ]
						},
						{
							"time": 0.7333,
							"vertices": [ -304.6348, -49.85995, -304.6348, -49.85995, -304.6348, -49.85995, -304.6348, -49.85995 ]
						}
					]
				}
			}
		},
		"drawOrder": [
			{
				"offsets": [
					{ "slot": "Head", "offset": 2 },
					{ "slot": "body", "offset": 0 }
				]
			}
		]
	}
}
}