%YAML 1.1
%TAG !u! tag:unity3d.com,2011:
--- !u!114 &11400000
MonoBehaviour:
  m_ObjectHideFlags: 0
  m_CorrespondingSourceObject: {fileID: 0}
  m_PrefabInstance: {fileID: 0}
  m_PrefabAsset: {fileID: 0}
  m_GameObject: {fileID: 0}
  m_Enabled: 1
  m_EditorHideFlags: 0
  m_Script: {fileID: 11500000, guid: 7cfd79619508d4f4f80ad1335a87e0fe, type: 3}
  m_Name: Wrist_5
  m_EditorClassIdentifier: 
  m_ID: 0
  m_AccesoriesDetail:
    m_Name: Accessories/Wrist_5
    m_Effects:
    - m_Effect: 0
      m_Value: 5
    m_IsUnlock: 0
    m_IsEquipped: 0
    m_PriceType: 1
    m_Price: 1000
  m_Icon: {fileID: 21300000, guid: 04db4428dab20e040805e6571aa23ab2, type: 3}
  m_Gender: 2
