%YAML 1.1
%TAG !u! tag:unity3d.com,2011:
--- !u!74 &7400000
AnimationClip:
  m_ObjectHideFlags: 0
  m_CorrespondingSourceObject: {fileID: 0}
  m_PrefabInstance: {fileID: 0}
  m_PrefabAsset: {fileID: 0}
  m_Name: Scissor
  serializedVersion: 6
  m_Legacy: 0
  m_Compressed: 0
  m_UseHighQualityCurve: 1
  m_RotationCurves: []
  m_CompressedRotationCurves: []
  m_EulerCurves: []
  m_PositionCurves: []
  m_ScaleCurves: []
  m_FloatCurves: []
  m_PPtrCurves:
  - curve:
    - time: 0
      value: {fileID: -2070707802211113608, guid: f016bd7db10421c479d9af40ca1d5443, type: 3}
    - time: 0.06666667
      value: {fileID: -9009042344981214925, guid: f016bd7db10421c479d9af40ca1d5443, type: 3}
    - time: 0.13333334
      value: {fileID: 242615844818235821, guid: f016bd7db10421c479d9af40ca1d5443, type: 3}
    - time: 0.2
      value: {fileID: -6715222861263728751, guid: f016bd7db10421c479d9af40ca1d5443, type: 3}
    - time: 0.26666668
      value: {fileID: 3847076809833782287, guid: f016bd7db10421c479d9af40ca1d5443, type: 3}
    - time: 0.33333334
      value: {fileID: 6999109405962793604, guid: f016bd7db10421c479d9af40ca1d5443, type: 3}
    - time: 0.4
      value: {fileID: 204649522371644354, guid: f016bd7db10421c479d9af40ca1d5443, type: 3}
    - time: 0.46666667
      value: {fileID: 5215475461113297835, guid: f016bd7db10421c479d9af40ca1d5443, type: 3}
    - time: 0.53333336
      value: {fileID: 8085553902713031797, guid: f016bd7db10421c479d9af40ca1d5443, type: 3}
    - time: 0.6
      value: {fileID: 3205413532706983919, guid: f016bd7db10421c479d9af40ca1d5443, type: 3}
    - time: 0.6666667
      value: {fileID: 6618910565745313156, guid: f016bd7db10421c479d9af40ca1d5443, type: 3}
    - time: 0.73333335
      value: {fileID: -6266315037494067813, guid: f016bd7db10421c479d9af40ca1d5443, type: 3}
    - time: 0.8
      value: {fileID: 8890693839106738727, guid: f016bd7db10421c479d9af40ca1d5443, type: 3}
    attribute: m_Sprite
    path: 
    classID: 114
    script: {fileID: 11500000, guid: fe87c0e1cc204ed48ad3b37840f39efc, type: 3}
  m_SampleRate: 15
  m_WrapMode: 0
  m_Bounds:
    m_Center: {x: 0, y: 0, z: 0}
    m_Extent: {x: 0, y: 0, z: 0}
  m_ClipBindingConstant:
    genericBindings:
    - serializedVersion: 2
      path: 0
      attribute: 2015549526
      script: {fileID: 11500000, guid: fe87c0e1cc204ed48ad3b37840f39efc, type: 3}
      typeID: 114
      customType: 0
      isPPtrCurve: 1
    pptrCurveMapping:
    - {fileID: -2070707802211113608, guid: f016bd7db10421c479d9af40ca1d5443, type: 3}
    - {fileID: -9009042344981214925, guid: f016bd7db10421c479d9af40ca1d5443, type: 3}
    - {fileID: 242615844818235821, guid: f016bd7db10421c479d9af40ca1d5443, type: 3}
    - {fileID: -6715222861263728751, guid: f016bd7db10421c479d9af40ca1d5443, type: 3}
    - {fileID: 3847076809833782287, guid: f016bd7db10421c479d9af40ca1d5443, type: 3}
    - {fileID: 6999109405962793604, guid: f016bd7db10421c479d9af40ca1d5443, type: 3}
    - {fileID: 204649522371644354, guid: f016bd7db10421c479d9af40ca1d5443, type: 3}
    - {fileID: 5215475461113297835, guid: f016bd7db10421c479d9af40ca1d5443, type: 3}
    - {fileID: 8085553902713031797, guid: f016bd7db10421c479d9af40ca1d5443, type: 3}
    - {fileID: 3205413532706983919, guid: f016bd7db10421c479d9af40ca1d5443, type: 3}
    - {fileID: 6618910565745313156, guid: f016bd7db10421c479d9af40ca1d5443, type: 3}
    - {fileID: -6266315037494067813, guid: f016bd7db10421c479d9af40ca1d5443, type: 3}
    - {fileID: 8890693839106738727, guid: f016bd7db10421c479d9af40ca1d5443, type: 3}
  m_AnimationClipSettings:
    serializedVersion: 2
    m_AdditiveReferencePoseClip: {fileID: 0}
    m_AdditiveReferencePoseTime: 0
    m_StartTime: 0
    m_StopTime: 0.8666667
    m_OrientationOffsetY: 0
    m_Level: 0
    m_CycleOffset: 0
    m_HasAdditiveReferencePose: 0
    m_LoopTime: 0
    m_LoopBlend: 0
    m_LoopBlendOrientation: 0
    m_LoopBlendPositionY: 0
    m_LoopBlendPositionXZ: 0
    m_KeepOriginalOrientation: 0
    m_KeepOriginalPositionY: 1
    m_KeepOriginalPositionXZ: 0
    m_HeightFromFeet: 0
    m_Mirror: 0
  m_EditorCurves: []
  m_EulerEditorCurves: []
  m_HasGenericRootTransform: 0
  m_HasMotionFloatCurves: 0
  m_Events:
  - time: 0.8666667
    functionName: f_OnAnimationDone
    data: 
    objectReferenceParameter: {fileID: 0}
    floatParameter: 0
    intParameter: 0
    messageOptions: 0
