{
"skeleton": {
	"hash": "5NgrPHRdPsG0MLChOAb7W7q+Jlg",
	"spine": "3.8.75",
	"x": -527.9,
	"y": -888.93,
	"width": 1544.42,
	"height": 1517.61,
	"images": "../George/",
	"audio": "C:/Users/ASUS/Downloads/Work/Day 31/anim"
},
"bones": [
	{ "name": "root" },
	{ "name": "bone", "parent": "root", "length": 133.42, "rotation": -125.58, "x": 0.34, "y": -1.05 },
	{ "name": "bone2", "parent": "bone", "length": 271.8, "rotation": 35.63, "x": 133.42 },
	{ "name": "bone3", "parent": "root", "length": 143.71, "rotation": -45.82, "x": -1.78, "y": 0.23 },
	{ "name": "bone4", "parent": "bone3", "length": 277.25, "rotation": -39.49, "x": 143.71 }
],
"slots": [
	{ "name": "shadow", "bone": "root", "attachment": "shadow" },
	{ "name": "l1", "bone": "root", "attachment": "l1" },
	{ "name": "l2", "bone": "root", "attachment": "l2" },
	{ "name": "body", "bone": "root", "attachment": "body" },
	{ "name": "head", "bone": "root", "attachment": "head" },
	{ "name": "leg", "bone": "root", "attachment": "leg" },
	{ "name": "r1", "bone": "root", "attachment": "r1" },
	{ "name": "r2", "bone": "root", "attachment": "r2" },
	{ "name": "head2", "bone": "root", "attachment": "head2" },
	{ "name": "efek", "bone": "root", "attachment": "efek" },
	{ "name": "efek 2", "bone": "root", "attachment": "efek 2" },
	{ "name": "efek 3", "bone": "root", "attachment": "efek 3" }
],
"skins": [
	{
		"name": "default",
		"attachments": {
			"r2": {
				"r2": {
					"type": "mesh",
					"uvs": [ 1, 1, 0, 1, 0, 0, 1, 0 ],
					"triangles": [ 1, 2, 3, 1, 3, 0 ],
					"vertices": [ 537, -475, -511, -475, -511, 573, 537, 573 ],
					"hull": 4,
					"edges": [ 0, 2, 2, 4, 4, 6, 0, 6 ],
					"width": 1048,
					"height": 1048
				}
			},
			"head": {
				"head": {
					"type": "mesh",
					"uvs": [ 1, 1, 0, 1, 0, 0, 1, 0 ],
					"triangles": [ 1, 2, 3, 1, 3, 0 ],
					"vertices": [ 543, -476, -505, -476, -505, 572, 543, 572 ],
					"hull": 4,
					"edges": [ 0, 2, 2, 4, 4, 6, 0, 6 ],
					"width": 1048,
					"height": 1048
				}
			},
			"l1": {
				"l1": {
					"type": "mesh",
					"uvs": [ 1, 1, 0, 1, 0, 0, 1, 0 ],
					"triangles": [ 1, 2, 3, 1, 3, 0 ],
					"vertices": [ 529, -459, -519, -459, -519, 589, 529, 589 ],
					"hull": 4,
					"edges": [ 0, 2, 2, 4, 4, 6, 0, 6 ],
					"width": 1048,
					"height": 1048
				}
			},
			"l2": {
				"l2": {
					"type": "mesh",
					"uvs": [ 1, 1, 0, 1, 0, 0, 1, 0 ],
					"triangles": [ 1, 2, 3, 1, 3, 0 ],
					"vertices": [ 523.9, -449.09, -524.09, -452.9, -527.9, 595.09, 520.09, 598.9 ],
					"hull": 4,
					"edges": [ 0, 2, 2, 4, 4, 6, 0, 6 ],
					"width": 1048,
					"height": 1048
				}
			},
			"efek": {
				"efek": {
					"type": "mesh",
					"uvs": [ 1, 1, 0, 1, 0, 0, 1, 0 ],
					"triangles": [ 1, 2, 3, 1, 3, 0 ],
					"vertices": [ 1011.18, -878.26, -36.82, -878.26, -36.82, 169.74, 1011.18, 169.74 ],
					"hull": 4,
					"edges": [ 0, 2, 2, 4, 4, 6, 0, 6 ],
					"width": 1048,
					"height": 1048
				}
			},
			"leg": {
				"leg": {
					"type": "mesh",
					"uvs": [ 0.34917, 0.57547, 0.3451, 0.60046, 0.33755, 0.63765, 0.33232, 0.66787, 0.32883, 0.69402, 0.32825, 0.73295, 0.34394, 0.74051, 0.36079, 0.74632, 0.3637, 0.77189, 0.36776, 0.79746, 0.37299, 0.81256, 0.3666, 0.81954, 0.36253, 0.84104, 0.37183, 0.86777, 0.36544, 0.89392, 0.35963, 0.91135, 0.35963, 0.93402, 0.37299, 0.95087, 0.39914, 0.96133, 0.43052, 0.95958, 0.45377, 0.95203, 0.46481, 0.93576, 0.46481, 0.89624, 0.45028, 0.87009, 0.45725, 0.84511, 0.4619, 0.82535, 0.45086, 0.81024, 0.46132, 0.7777, 0.4619, 0.76608, 0.47701, 0.76201, 0.49038, 0.71145, 0.49968, 0.71087, 0.5235, 0.76724, 0.5421, 0.77014, 0.55256, 0.8114, 0.54268, 0.81954, 0.53803, 0.83174, 0.54268, 0.85731, 0.55139, 0.86893, 0.54151, 0.89566, 0.54035, 0.93692, 0.54733, 0.94854, 0.57464, 0.95958, 0.60602, 0.95958, 0.62984, 0.95261, 0.64321, 0.93866, 0.64379, 0.89508, 0.62287, 0.87126, 0.63391, 0.84104, 0.63333, 0.81779, 0.62403, 0.81198, 0.64088, 0.76549, 0.64263, 0.74399, 0.67343, 0.7283, 0.66006, 0.65973, 0.64379, 0.60046, 0.63042, 0.55746, 0.57289, 0.54758, 0.51013, 0.54351, 0.44331, 0.54758, 0.39624, 0.55281, 0.35789, 0.55746, 0.40902, 0.9253, 0.4096, 0.86486, 0.41193, 0.8114, 0.41425, 0.75271, 0.41948, 0.68472, 0.43808, 0.60685, 0.49212, 0.57257, 0.58161, 0.61034, 0.59788, 0.68298, 0.5973, 0.75968, 0.59091, 0.85382, 0.59265, 0.93983 ],
					"triangles": [ 31, 30, 67, 60, 67, 1, 60, 1, 0, 0, 61, 60, 67, 60, 59, 67, 68, 31, 67, 59, 68, 67, 2, 1, 64, 26, 24, 24, 26, 25, 27, 26, 64, 27, 64, 65, 19, 18, 62, 18, 17, 62, 19, 62, 20, 20, 62, 21, 17, 16, 62, 62, 22, 21, 16, 15, 62, 15, 14, 62, 62, 14, 63, 62, 23, 22, 62, 63, 23, 63, 14, 13, 23, 63, 24, 13, 12, 63, 63, 64, 24, 64, 63, 12, 12, 11, 10, 64, 12, 10, 10, 9, 64, 64, 9, 65, 9, 8, 65, 27, 65, 28, 8, 7, 65, 29, 28, 30, 30, 28, 65, 65, 66, 30, 65, 7, 66, 66, 7, 4, 7, 6, 4, 30, 66, 67, 4, 3, 66, 3, 2, 66, 66, 2, 67, 5, 4, 6, 54, 70, 69, 34, 71, 50, 50, 71, 51, 71, 33, 70, 31, 70, 33, 51, 71, 52, 71, 70, 52, 52, 70, 53, 70, 54, 53, 42, 73, 43, 43, 73, 44, 42, 41, 73, 44, 73, 45, 41, 40, 73, 40, 39, 73, 73, 39, 72, 39, 38, 72, 45, 73, 46, 73, 72, 47, 46, 73, 47, 49, 48, 50, 50, 48, 72, 72, 48, 47, 38, 37, 72, 72, 37, 36, 72, 34, 50, 34, 33, 71, 72, 36, 34, 34, 36, 35, 31, 33, 32, 31, 69, 70, 69, 68, 57, 57, 68, 58, 68, 69, 31, 68, 59, 58, 54, 69, 55, 69, 56, 55, 69, 57, 56 ],
					"vertices": [ 3, 3, -65.37, -127.96, 1.7E-4, 2, -67.54, -61.76, 0.05986, 1, 114.5, -89.54, 0.93997, 3, 3, -49.56, -149.27, 8.0E-5, 2, -41.36, -66.04, 0.21558, 1, 138.28, -77.77, 0.78434, 3, 3, -27.12, -182.1, 1.0E-5, 2, -2.39, -73.99, 0.65399, 1, 174.58, -61.53, 0.346, 3, 3, -8.23, -208.1, 0, 2, 29.28, -79.5, 0.91138, 1, 203.52, -47.56, 0.08862, 2, 2, 56.68, -83.17, 0.98836, 1, 227.94, -34.59, 0.01164, 1, 2, 97.48, -83.82, 1, 1, 2, 105.41, -67.38, 1, 1, 2, 111.51, -49.72, 1, 1, 2, 138.31, -46.7, 1, 1, 2, 165.11, -42.46, 1, 1, 2, 180.95, -36.99, 1, 1, 2, 188.25, -43.69, 1, 1, 2, 210.78, -47.98, 1, 1, 2, 238.8, -38.25, 1, 1, 2, 266.2, -44.97, 1, 1, 2, 284.47, -51.08, 1, 1, 2, 308.22, -51.1, 1, 1, 2, 325.89, -37.11, 1, 1, 2, 336.88, -9.71, 1, 1, 2, 335.08, 23.18, 1, 1, 2, 327.18, 47.54, 1, 1, 2, 310.13, 59.13, 1, 1, 2, 268.72, 59.16, 1, 1, 2, 241.31, 43.96, 1, 1, 2, 215.12, 51.29, 1, 2, 4, 190.66, -135.36, 4.0E-5, 2, 194.42, 56.18, 0.99996, 2, 4, 173.93, -145.6, 9.4E-4, 2, 178.58, 44.62, 0.99906, 3, 3, 168.54, -191.35, 0.0016, 4, 140.84, -131.89, 0.01662, 2, 144.48, 55.61, 0.98179, 4, 3, 160.23, -182.42, 0.00463, 4, 128.75, -130.28, 0.03328, 2, 132.3, 56.23, 0.96192, 1, 208.2, 122.77, 1.7E-4, 4, 3, 168.21, -168.1, 0.00943, 4, 125.8, -114.16, 0.057, 2, 128.05, 72.06, 0.9321, 1, 195.52, 133.17, 0.00147, 4, 3, 139.97, -121.13, 0.07201, 4, 74.14, -95.86, 0.33139, 2, 75.08, 86.11, 0.54672, 1, 144.28, 113.73, 0.04988, 4, 3, 146.32, -113.72, 0.07888, 4, 74.33, -86.1, 0.52031, 2, 74.48, 95.86, 0.35399, 1, 138.12, 121.3, 0.04683, 4, 3, 206.09, -136.97, 0.00306, 4, 135.24, -66.05, 0.95216, 2, 133.57, 120.78, 0.04296, 1, 171.63, 175.98, 0.00182, 4, 3, 221.85, -125.12, 5.2E-4, 4, 139.87, -46.87, 0.97839, 2, 136.63, 140.26, 0.02069, 1, 162.77, 193.6, 4.0E-4, 2, 4, 183.86, -39.48, 0.99981, 2, 179.88, 151.19, 1.9E-4, 2, 4, 191.51, -50.5, 1, 2, 188.4, 140.83, 0, 1, 4, 203.86, -56.4, 1, 1, 4, 230.96, -53.73, 1, 1, 4, 243.85, -45.62, 1, 1, 4, 270.92, -58.23, 1, 1, 4, 313.92, -62.98, 1, 1, 4, 326.65, -56.69, 1, 1, 4, 340.53, -29.11, 1, 1, 4, 343.21, 3.67, 1, 1, 4, 337.97, 29.15, 1, 1, 4, 324.55, 44.3, 1, 1, 4, 279.08, 48.64, 1, 1, 4, 252.4, 28.83, 1, 1, 4, 221.78, 42.95, 1, 1, 4, 197.46, 44.34, 1, 1, 4, 190.59, 35.13, 1, 1, 4, 143.48, 56.71, 1, 1, 4, 121.17, 60.37, 1, 1, 4, 107.42, 93.89, 1, 2, 3, 225.01, 44.18, 0.05331, 4, 34.65, 85.8, 0.94669, 3, 3, 168.58, 75.24, 0.58123, 4, -28.65, 73.88, 0.41876, 1, -43.87, 176.8, 1.0E-5, 3, 3, 126.5, 96.6, 0.88593, 4, -74.71, 63.6, 0.11401, 1, -72.37, 139.19, 6.0E-5, 3, 3, 77.06, 60.57, 0.99875, 4, -89.96, 4.36, 9.4E-4, 1, -45.71, 84.13, 3.2E-4, 2, 3, 28.17, 16.37, 0.99643, 1, -10.9, 28.16, 0.00357, 2, 3, -17.58, -36.83, 0.00161, 1, 33.32, -26.32, 0.99839, 2, 3, -48.02, -76.03, 4.1E-4, 1, 66.48, -63.25, 0.99959, 3, 3, -72.54, -108.25, 2.1E-4, 2, -86.41, -52.61, 0.01818, 1, 93.83, -93.1, 0.9816, 1, 2, 299.13, 0.67, 1, 1, 2, 235.79, 1.33, 1, 2, 4, 171.81, -186.37, 1.0E-5, 2, 179.76, 3.81, 0.99999, 3, 3, 115.38, -208.48, 2.0E-4, 4, 110.71, -178.91, 0.00187, 2, 118.26, 6.3, 0.99793, 4, 3, 68.1, -154.89, 0.00622, 4, 40.14, -167.62, 0.01073, 2, 47.01, 11.84, 0.97131, 1, 164.73, 37.01, 0.01175, 4, 3, 23.15, -84.05, 0.01039, 4, -39.6, -141.53, 0.0018, 2, -34.58, 31.39, 0.00756, 1, 87.02, 5.37, 0.98025, 4, 3, 36.85, -18.39, 0.69698, 4, -70.78, -82.15, 5.9E-4, 2, -70.47, 88.06, 0.00129, 1, 24.85, 30.52, 0.30114, 3, 3, 130.6, 21.29, 0.92478, 4, -23.66, 8.09, 0.07522, 1, 2.47, 129.83, 1.0E-5, 1, 4, 53.6, 18.86, 1, 1, 4, 133.67, 11.68, 1, 1, 4, 231.45, -3.06, 1, 1, 4, 321.43, -8.6, 1 ],
					"hull": 62,
					"edges": [ 0, 2, 2, 4, 4, 6, 6, 8, 8, 10, 10, 12, 12, 14, 14, 16, 16, 18, 18, 20, 20, 22, 22, 24, 24, 26, 26, 28, 28, 30, 30, 32, 32, 34, 34, 36, 36, 38, 38, 40, 40, 42, 42, 44, 44, 46, 46, 48, 48, 50, 50, 52, 52, 54, 54, 56, 56, 58, 58, 60, 60, 62, 62, 64, 64, 66, 66, 68, 68, 70, 70, 72, 72, 74, 74, 76, 76, 78, 78, 80, 80, 82, 82, 84, 84, 86, 86, 88, 88, 90, 90, 92, 92, 94, 94, 96, 96, 98, 98, 100, 100, 102, 102, 104, 104, 106, 106, 108, 108, 110, 110, 112, 112, 114, 114, 116, 116, 118, 118, 120, 120, 122, 0, 122 ],
					"width": 1048,
					"height": 1048
				}
			},
			"head2": {
				"head2": {
					"type": "mesh",
					"uvs": [ 1, 1, 0, 1, 0, 0, 1, 0 ],
					"triangles": [ 1, 2, 3, 1, 3, 0 ],
					"vertices": [ 960.78, -419.32, -87.22, -419.32, -87.22, 628.68, 960.78, 628.68 ],
					"hull": 4,
					"edges": [ 0, 2, 2, 4, 4, 6, 0, 6 ],
					"width": 1048,
					"height": 1048
				}
			},
			"efek 2": {
				"efek 2": {
					"type": "mesh",
					"uvs": [ 1, 1, 0, 1, 0, 0, 1, 0 ],
					"triangles": [ 1, 2, 3, 1, 3, 0 ],
					"vertices": [ 1016.52, -888.93, -31.48, -888.93, -31.48, 159.07, 1016.52, 159.07 ],
					"hull": 4,
					"edges": [ 0, 2, 2, 4, 4, 6, 0, 6 ],
					"width": 1048,
					"height": 1048
				}
			},
			"efek 3": {
				"efek 3": {
					"type": "mesh",
					"uvs": [ 1, 1, 0, 1, 0, 0, 1, 0 ],
					"triangles": [ 1, 2, 3, 1, 3, 0 ],
					"vertices": [ 1010.12, -882.53, -37.88, -882.53, -37.88, 165.47, 1010.12, 165.47 ],
					"hull": 4,
					"edges": [ 0, 2, 2, 4, 4, 6, 0, 6 ],
					"width": 1048,
					"height": 1048
				}
			},
			"shadow": {
				"shadow": { "x": 18.45, "y": -422.33, "scaleX": 1.2379, "scaleY": 1.1557, "width": 273, "height": 67 }
			},
			"body": {
				"body": {
					"type": "mesh",
					"uvs": [ 1, 1, 0, 1, 0, 0, 1, 0 ],
					"triangles": [ 1, 2, 3, 1, 3, 0 ],
					"vertices": [ 540, -477, -508, -477, -508, 571, 540, 571 ],
					"hull": 4,
					"edges": [ 0, 2, 2, 4, 4, 6, 0, 6 ],
					"width": 1048,
					"height": 1048
				}
			},
			"r1": {
				"r1": {
					"type": "mesh",
					"uvs": [ 1, 1, 0, 1, 0, 0, 1, 0 ],
					"triangles": [ 1, 2, 3, 1, 3, 0 ],
					"vertices": [ 535, -466, -513, -466, -513, 582, 535, 582 ],
					"hull": 4,
					"edges": [ 0, 2, 2, 4, 4, 6, 0, 6 ],
					"width": 1048,
					"height": 1048
				}
			}
		}
	}
],
"animations": {
	"animation": {
		"slots": {
			"head": {
				"attachment": [
					{ "time": 0.2, "name": null }
				]
			},
			"head2": {
				"attachment": [
					{ "name": null },
					{ "time": 0.2, "name": "head2" }
				]
			},
			"efek 2": {
				"attachment": [
					{ "name": null },
					{ "time": 0.2667, "name": "efek 2" },
					{ "time": 0.3, "name": null }
				]
			},
			"efek 3": {
				"attachment": [
					{ "name": null },
					{ "time": 0.3, "name": "efek 3" },
					{ "time": 0.3333, "name": null }
				]
			},
			"efek": {
				"attachment": [
					{ "name": null },
					{ "time": 0.2, "name": "efek" },
					{ "time": 0.2667, "name": null }
				]
			}
		},
		"bones": {
			"root": {
				"translate": [
					{ "time": 0.1667 },
					{ "time": 0.5, "x": -80.28 }
				]
			},
			"bone2": {
				"rotate": [
					{ "angle": 0.12 },
					{ "time": 0.1667, "angle": -0.56 },
					{ "time": 0.2667, "angle": 14.64 },
					{ "time": 0.4667, "angle": 14.09 },
					{ "time": 0.5, "angle": -2.21 }
				]
			},
			"bone4": {
				"rotate": [
					{ "angle": 0.34 },
					{ "time": 0.1667, "angle": 4.11 },
					{ "time": 0.2667, "angle": 16.77 },
					{ "time": 0.4667, "angle": 17.24 },
					{ "time": 0.5, "angle": 5.3 }
				]
			}
		},
		"deform": {
			"default": {
				"body": {
					"body": [
						{
							"vertices": [ -0.10242, -0.10242, -0.10242, 0.10242, 0.10242, 0.10242, 0.10242, -0.10242 ],
							"curve": "stepped"
						},
						{
							"time": 0.1667,
							"vertices": [ -0.10242, -0.10242, -0.10242, 0.10242, 0.10242, 0.10242, 0.10242, -0.10242 ]
						},
						{
							"time": 0.2667,
							"vertices": [ -0.10242, 22.88959, -0.10242, 23.09442, 0.10242, 23.09442, 0.10242, 22.88959 ]
						},
						{
							"time": 0.4,
							"vertices": [ -0.10242, -0.10242, -0.10242, 0.10242, 0.10242, 0.10242, 0.10242, -0.10242 ]
						},
						{
							"time": 0.5,
							"vertices": [ 21.88055, -0.10242, 21.88055, 0.10242, 22.08539, 0.10242, 22.08539, -0.10242 ]
						}
					]
				},
				"leg": {
					"leg": [
						{ "time": 0.4 },
						{
							"time": 0.5,
							"vertices": [ 15.31908, 15.76634, -0.82913, 21.9673, -12.79146, 17.87817, 15.31908, 15.76634, -0.82913, 21.9673, -12.79146, 17.87817, 15.31908, 15.76634, -0.82913, 21.9673, -12.79146, 17.87817, 15.31908, 15.76634, -0.82913, 21.9673, -12.79146, 17.87817, -0.82913, 21.9673, -12.79146, 17.87817, -0.82913, 21.9673, -0.82913, 21.9673, -0.82913, 21.9673, -0.82913, 21.9673, -0.82913, 21.9673, -0.82913, 21.9673, -0.82913, 21.9673, -0.82913, 21.9673, -0.82913, 21.9673, -0.82913, 21.9673, -0.82913, 21.9673, -0.82913, 21.9673, -0.82913, 21.9673, -0.82913, 21.9673, -0.82913, 21.9673, -0.82913, 21.9673, -0.82913, 21.9673, -0.82913, 21.9673, -0.82913, 21.9673, -0.82913, 21.9673, 3.8132, 21.64971, -0.82913, 21.9673, 3.8132, 21.64971, -0.82913, 21.9673, 15.31908, 15.76634, 3.8132, 21.64971, -0.82913, 21.9673, 15.31908, 15.76634, 3.8132, 21.64971, -0.82913, 21.9673, -12.79146, 17.87817, 15.31908, 15.76634, 3.8132, 21.64971, -0.82913, 21.9673, -12.79146, 17.87817, 15.31908, 15.76634, 3.8132, 21.64971, -0.82913, 21.9673, -12.79146, 17.87817, 15.31908, 15.76634, 3.8132, 21.64971, -0.82913, 21.9673, -12.79146, 17.87817, 15.31908, 15.76634, 3.8132, 21.64971, -0.82913, 21.9673, -12.79146, 17.87817, 15.31908, 15.76634, 3.8132, 21.64971, -0.82913, 21.9673, -12.79146, 17.87817, 3.8132, 21.64971, -0.82913, 21.9673, 3.8132, 21.64971, -0.82913, 21.9673, 3.8132, 21.64971, 3.8132, 21.64971, 3.8132, 21.64971, 3.8132, 21.64971, 3.8132, 21.64971, 3.8132, 21.64971, 3.8132, 21.64971, 3.8132, 21.64971, 3.8132, 21.64971, 3.8132, 21.64971, 3.8132, 21.64971, 3.8132, 21.64971, 3.8132, 21.64971, 3.8132, 21.64971, 3.8132, 21.64971, 3.8132, 21.64971, 3.8132, 21.64971, 3.8132, 21.64971, 15.31908, 15.76634, 3.8132, 21.64971, 15.31908, 15.76634, 3.8132, 21.64971, -12.79146, 17.87817, 15.31908, 15.76634, 3.8132, 21.64971, -12.79146, 17.87817, 15.31908, 15.76634, 3.8132, 21.64971, -12.79146, 17.87817, 15.31908, 15.76634, -12.79146, 17.87817, 15.31908, 15.76634, -12.79146, 17.87817, 15.31908, 15.76634, -12.79146, 17.87817, 15.31908, 15.76634, -0.82913, 21.9673, -12.79146, 17.87817, -0.82913, 21.9673, -0.82913, 21.9673, 3.8132, 21.64971, -0.82913, 21.9673, 15.31908, 15.76634, 3.8132, 21.64971, -0.82913, 21.9673, 15.31908, 15.76634, 3.8132, 21.64971, -0.82913, 21.9673, -12.79146, 17.87817, 15.31908, 15.76634, 3.8132, 21.64971, -0.82913, 21.9673, -12.79146, 17.87817, 15.31908, 15.76634, 3.8132, 21.64971, -0.82913, 21.9673, -12.79146, 17.87817, 15.31908, 15.76634, 3.8132, 21.64971, -12.79146, 17.87817, 3.8132, 21.64971, 3.8132, 21.64971, 3.8132, 21.64971, 3.8132, 21.64971 ]
						}
					]
				},
				"r1": {
					"r1": [
						{ "time": 0.4 },
						{
							"time": 0.5,
							"vertices": [ 21.98297, 0, 21.98297, 0, 21.98297, 0, 21.98297 ]
						}
					]
				},
				"l2": {
					"l2": [
						{},
						{
							"time": 0.1667,
							"vertices": [ 65.03998, 45.82523, 74.9444, -94.15891, -65.03998, -104.0636, -74.9444, 35.92102 ]
						},
						{
							"time": 0.3667,
							"vertices": [ -342.10318, -144.84808, -129.82373, 491.3255, 506.3496, 279.04642, 294.0707, -357.1271 ]
						},
						{
							"time": 0.4,
							"vertices": [ -256.24326, -110.91347, -97.02909, 368.98566, 382.86972, 209.77179, 223.65604, -270.12717 ]
						},
						{
							"time": 0.5,
							"vertices": [ 23.31948, -9.10962, 23.33779, 1.96613, 34.41305, 1.94788, 34.39495, -9.12735 ]
						}
					]
				},
				"r2": {
					"r2": [
						{},
						{
							"time": 0.1667,
							"vertices": [ 87.66788, 167.21509, 112.98114, -61.72976, -115.96371, -87.04296, -141.27692, 141.90182 ]
						},
						{
							"time": 0.3667,
							"vertices": [ -471.6217, -358.14462, -228.20358, 313.38492, 443.32596, 69.96674, 199.90778, -601.56287 ]
						},
						{
							"time": 0.4,
							"vertices": [ -361.21497, -275.6939, -178.29987, 241.52066, 338.91473, 58.60552, 155.99959, -458.6092 ]
						},
						{
							"time": 0.5,
							"vertices": [ -8.0118, -28.34171, -6.60574, 25.92792, 47.66407, 24.52188, 46.258, -29.74811 ]
						}
					]
				},
				"head2": {
					"head2": [
						{ "time": 0.1667 },
						{
							"time": 0.2,
							"vertices": [ -377.51465, -1.75372, -371.6137, -80.17136, -450.03128, -86.07227, -455.9323, -7.65456 ]
						},
						{
							"time": 0.2333,
							"vertices": [ -327.78528, 54.56458, -315.9834, -102.27069, -472.81854, -114.07251, -484.62057, 42.76291 ],
							"curve": "stepped"
						},
						{
							"time": 0.4,
							"vertices": [ -327.78528, 54.56458, -315.9834, -102.27069, -472.81854, -114.07251, -484.62057, 42.76291 ]
						},
						{
							"time": 0.5,
							"vertices": [ -407.89664, -48.10789, -407.88293, -42.7744, -402.5493, -42.78813, -402.56308, -48.12141 ]
						}
					]
				},
				"efek 2": {
					"efek 2": [
						{
							"time": 0.0667,
							"vertices": [ -783.20764, -243.27106, -1088.4872, 562.3699, -293.02182, 850.5571, 12.25775, 44.91647 ]
						}
					]
				},
				"efek 3": {
					"efek 3": [
						{
							"time": 0.0667,
							"vertices": [ -780.2128, -236.58966, -1085.4926, 569.05164, -290.02734, 857.239, 15.25226, 51.59836 ]
						}
					]
				},
				"efek": {
					"efek": [
						{
							"time": 0.0667,
							"vertices": [ -776.66266, -236.23584, -1081.9426, 569.405, -286.47693, 857.5923, 18.80267, 51.95197 ]
						}
					]
				},
				"l1": {
					"l1": [
						{ "time": 0.4 },
						{
							"time": 0.5,
							"vertices": [ 21.98297, 0, 21.98297, 0, 21.98297, 0, 21.98297 ]
						}
					]
				}
			}
		}
	}
}
}