{
"skeleton": {
	"hash": "4Ygc67mbeqvQleZ9mvHMSeRfCD8",
	"spine": "3.8.0",
	"x": -243.42,
	"y": -415.75,
	"width": 431.93,
	"height": 982.78,
	"images": "../Image/",
	"audio": "C:/Users/Legion/Desktop/redrain_atlas/Casino/Character"
},
"bones": [
	{ "name": "root" },
	{ "name": "bone", "parent": "root", "length": 116.85, "rotation": 90.5, "x": 3.24, "y": -61.62 },
	{ "name": "bone2", "parent": "bone", "length": 120.95, "rotation": -0.02, "x": 116.85 },
	{ "name": "bone3", "parent": "bone2", "length": 130.66, "rotation": 153.95, "x": 128.68, "y": 65.54 },
	{ "name": "bone4", "parent": "bone3", "length": 112.96, "rotation": -118.3, "x": 130.66 },
	{ "name": "bone5", "parent": "bone2", "length": 109.11, "rotation": -154.88, "x": 128.5, "y": -76.94 },
	{ "name": "bone6", "parent": "bone5", "length": 116.98, "rotation": -144.41, "x": 109.11 },
	{ "name": "bone7", "parent": "bone2", "length": 77.43, "rotation": -1.36, "x": 178.47, "y": -2.78 }
],
"slots": [
	{ "name": "Hand_L_1_NPC_Admin_M", "bone": "root", "attachment": "NPC_Admin_M/Hand_L_1_NPC_Admin_M" },
	{ "name": "Hand_R_1_NPC_Admin_M", "bone": "root", "attachment": "NPC_Admin_M/Hand_R_1_NPC_Admin_M" },
	{ "name": "Body_NPC_Admin_M", "bone": "root", "attachment": "NPC_Admin_M/Body_NPC_Admin_M" },
	{ "name": "Head_NPC_Admin_M", "bone": "root", "attachment": "NPC_Admin_M/Head_NPC_Admin_M" },
	{ "name": "Hand_R_2_NPC_Admin_M", "bone": "root", "attachment": "NPC_Admin_M/Hand_R_2_NPC_Admin_M" },
	{ "name": "Hand_L_2_Admin_M", "bone": "root", "attachment": "NPC_Admin_M/Hand_L_2_Admin_M" }
],
"skins": [
	{
		"name": "default",
		"attachments": {
			"Head_NPC_Admin_M": {
				"NPC_Admin_M/Head_NPC_Admin_M": {
					"type": "mesh",
					"uvs": [ 1, 1, 0, 1, 0, 0, 1, 0 ],
					"triangles": [ 1, 2, 3, 1, 3, 0 ],
					"vertices": [ 1, 7, -50.85, -185.82, 1, 1, 7, -56.5, 184.13, 1, 1, 7, 330.45, 190.04, 1, 1, 7, 336.1, -179.91, 1 ],
					"hull": 4,
					"edges": [ 0, 2, 2, 4, 4, 6, 0, 6 ],
					"width": 370,
					"height": 387
				}
			},
			"Body_NPC_Admin_M": {
				"NPC_Admin_M/Body_NPC_Admin_M": {
					"type": "mesh",
					"uvs": [ 0.45234, 0.01794, 0.51495, 0.02113, 0.57544, 0.0561, 0.59069, 0.09651, 0.59786, 0.12863, 0.61237, 0.12756, 0.59821, 0.13488, 0.59404, 0.17885, 0.57551, 0.21068, 0.57677, 0.21845, 0.56024, 0.30503, 0.55993, 0.31159, 0.58075, 0.35306, 0.58459, 0.39577, 0.59453, 0.4524, 0.59294, 0.57247, 0.58038, 0.64969, 0.58242, 0.75672, 0.58253, 0.80424, 0.58977, 0.8393, 0.58947, 0.86898, 0.58657, 0.86901, 0.634, 0.91592, 0.64753, 0.91912, 0.6714, 0.93276, 0.67746, 0.94522, 0.66375, 0.96134, 0.61086, 0.97767, 0.58183, 0.97829, 0.54907, 0.97291, 0.51935, 0.95868, 0.51671, 0.95219, 0.50274, 0.94307, 0.46584, 0.9232, 0.45536, 0.91476, 0.44925, 0.90561, 0.45565, 0.86747, 0.43797, 0.84286, 0.43728, 0.74165, 0.38594, 0.71479, 0.38028, 0.84593, 0.36625, 0.86529, 0.36948, 0.9126, 0.28052, 0.9715, 0.22559, 0.98027, 0.20152, 0.9756, 0.16764, 0.9646, 0.14664, 0.95986, 0.14669, 0.93763, 0.15243, 0.93119, 0.17369, 0.91938, 0.18732, 0.91628, 0.22448, 0.87969, 0.22981, 0.87107, 0.22708, 0.85209, 0.23433, 0.81395, 0.23986, 0.6818, 0.23445, 0.63283, 0.21851, 0.5718, 0.21898, 0.45183, 0.23365, 0.39326, 0.22545, 0.39114, 0.25965, 0.31093, 0.26021, 0.29962, 0.24721, 0.22973, 0.25197, 0.21575, 0.23048, 0.18727, 0.22547, 0.16103, 0.22552, 0.10617, 0.24476, 0.0604, 0.27469, 0.04127, 0.30774, 0.03012, 0.36924, 0.02138 ],
					"triangles": [ 6, 4, 5, 6, 63, 4, 4, 63, 3, 68, 70, 67, 70, 66, 67, 0, 2, 3, 7, 8, 6, 68, 69, 70, 72, 65, 66, 72, 63, 65, 64, 65, 63, 0, 3, 72, 2, 0, 1, 66, 70, 71, 72, 66, 71, 72, 3, 63, 6, 8, 63, 9, 10, 63, 9, 63, 8, 11, 63, 10, 62, 63, 11, 60, 61, 62, 12, 60, 62, 12, 62, 11, 13, 14, 60, 59, 60, 14, 13, 60, 12, 15, 57, 14, 14, 58, 59, 57, 58, 14, 15, 39, 57, 39, 56, 57, 15, 16, 39, 38, 39, 16, 38, 16, 17, 55, 56, 39, 18, 37, 38, 18, 38, 17, 37, 18, 19, 40, 55, 39, 41, 54, 55, 40, 41, 55, 36, 37, 19, 19, 21, 36, 20, 21, 19, 53, 54, 41, 53, 41, 42, 52, 53, 42, 33, 34, 35, 36, 33, 35, 21, 33, 36, 32, 33, 21, 21, 31, 32, 22, 31, 21, 29, 30, 31, 26, 23, 24, 26, 24, 25, 46, 49, 50, 48, 49, 46, 47, 48, 46, 43, 52, 42, 51, 52, 43, 22, 29, 31, 44, 45, 51, 46, 50, 51, 45, 46, 51, 22, 28, 29, 26, 27, 22, 26, 22, 23, 27, 28, 22, 43, 44, 51 ],
					"vertices": [ 1, 2, 173.62, -20.16, 1, 1, 2, 171.25, -47.87, 1, 1, 2, 147.59, -74.47, 1, 1, 2, 120.46, -81, 1, 1, 2, 98.91, -83.99, 1, 1, 2, 99.57, -90.43, 1, 2, 1, 211.55, -84.14, 4.0E-5, 2, 94.72, -84.11, 0.99996, 2, 1, 182.11, -82.03, 0.01043, 2, 65.28, -82.01, 0.98957, 2, 1, 160.86, -73.64, 0.06499, 2, 44.03, -73.62, 0.93501, 2, 1, 155.64, -74.15, 0.09001, 2, 38.81, -74.14, 0.90999, 2, 1, 97.7, -66.32, 0.70533, 2, -19.13, -66.32, 0.29467, 2, 1, 93.31, -66.14, 0.76318, 2, -23.53, -66.15, 0.23682, 2, 1, 65.44, -75.12, 0.95299, 2, -51.39, -75.14, 0.04701, 2, 1, 36.82, -76.57, 0.99678, 2, -80.02, -76.6, 0.00322, 1, 1, -1.16, -80.64, 1, 1, 1, -81.6, -79.23, 1, 1, 1, -133.28, -73.21, 1, 1, 1, -205, -73.49, 1, 1, 1, -236.84, -73.26, 1, 1, 1, -260.36, -76.26, 1, 1, 1, -280.24, -75.95, 1, 1, 1, -280.25, -74.67, 1, 1, 1, -311.86, -95.4, 1, 1, 1, -314.06, -101.37, 1, 1, 1, -323.29, -111.87, 1, 1, 1, -331.66, -114.48, 1, 1, 1, -342.41, -108.31, 1, 1, 1, -353.15, -84.79, 1, 1, 1, -353.45, -71.92, 1, 1, 1, -349.71, -57.44, 1, 1, 1, -340.07, -44.36, 1, 1, 1, -335.71, -43.23, 1, 1, 1, -329.54, -37.1, 1, 1, 1, -316.09, -20.87, 1, 1, 1, -310.39, -16.27, 1, 1, 1, -304.24, -13.62, 1, 1, 1, -278.71, -16.68, 1, 1, 1, -262.15, -8.99, 1, 1, 1, -194.34, -9.28, 1, 1, 1, -176.14, 13.3, 1, 1, 1, -263.98, 16.58, 1, 1, 1, -276.9, 22.91, 1, 1, 1, -308.61, 21.76, 1, 1, 1, -347.73, 61.51, 1, 1, 1, -353.39, 85.9, 1, 1, 1, -350.16, 96.53, 1, 1, 1, -342.66, 111.47, 1, 1, 1, -339.41, 120.75, 1, 1, 1, -324.52, 120.6, 1, 1, 1, -320.22, 118.01, 1, 1, 1, -312.39, 108.53, 1, 1, 1, -310.37, 102.47, 1, 1, 1, -286, 85.8, 1, 1, 1, -280.24, 83.39, 1, 1, 1, -267.52, 84.48, 1, 1, 1, -241.99, 81.05, 1, 1, 1, -153.47, 77.82, 1, 1, 1, -120.65, 79.93, 1, 1, 1, -79.7, 86.63, 1, 1, 1, 0.68, 85.72, 1, 2, 1, 39.86, 78.87, 0.99757, 2, -77.02, 78.85, 0.00243, 2, 1, 41.32, 82.49, 0.99714, 2, -75.56, 82.47, 0.00286, 2, 1, 94.92, 66.87, 0.77132, 2, -21.95, 66.87, 0.22868, 2, 1, 102.5, 66.56, 0.67502, 2, -14.38, 66.55, 0.32498, 2, 1, 149.37, 71.91, 0.14262, 2, 32.5, 71.92, 0.85738, 2, 1, 158.72, 69.71, 0.08279, 2, 41.84, 69.73, 0.91721, 2, 1, 177.88, 79.07, 0.01779, 2, 61, 79.09, 0.98221, 2, 1, 195.48, 81.14, 0.00267, 2, 78.6, 81.16, 0.99733, 1, 2, 115.36, 80.82, 1, 1, 2, 145.95, 72.04, 1, 1, 2, 158.66, 58.67, 1, 1, 2, 166, 43.97, 1, 1, 2, 171.62, 16.68, 1 ],
					"hull": 73,
					"edges": [ 0, 144, 0, 2, 2, 4, 4, 6, 6, 8, 8, 10, 10, 12, 12, 14, 14, 16, 16, 18, 18, 20, 20, 22, 22, 24, 24, 26, 26, 28, 28, 30, 30, 32, 32, 34, 34, 36, 36, 38, 38, 40, 40, 42, 42, 44, 44, 46, 46, 48, 48, 50, 50, 52, 52, 54, 54, 56, 56, 58, 58, 60, 60, 62, 62, 64, 64, 66, 66, 68, 68, 70, 70, 72, 72, 74, 74, 76, 76, 78, 78, 80, 80, 82, 82, 84, 84, 86, 86, 88, 88, 90, 90, 92, 92, 94, 94, 96, 96, 98, 98, 100, 100, 102, 102, 104, 104, 106, 106, 108, 108, 110, 110, 112, 112, 114, 114, 116, 116, 118, 118, 120, 120, 122, 122, 124, 124, 126, 126, 128, 128, 130, 130, 132, 132, 134, 134, 136, 136, 138, 138, 140, 140, 142, 142, 144 ],
					"width": 443,
					"height": 670
				}
			},
			"Hand_L_2_Admin_M": {
				"NPC_Admin_M/Hand_L_2_Admin_M": {
					"type": "mesh",
					"uvs": [ 0.1067, 0, 0.36817, 0.24986, 0.46443, 0.44083, 0.75092, 0.57165, 0.99762, 0.77677, 0.99343, 0.99361, 0.78727, 0.99505, 0.66544, 0.94992, 0.43021, 0.71468, 0.38396, 0.68415, 0.19588, 0.61087, 0.00829, 0.45507, 0.02409, 0.07627, 0.10206, 0 ],
					"triangles": [ 1, 12, 0, 10, 1, 2, 12, 13, 0, 12, 1, 11, 10, 11, 1, 9, 10, 2, 8, 9, 2, 8, 2, 3, 7, 8, 3, 6, 7, 3, 3, 4, 6, 5, 6, 4 ],
					"vertices": [ 1, 6, 211.42, -49.26, 1, 1, 6, 143.42, -38.47, 1, 1, 6, 110.32, -19.84, 1, 1, 6, 47.45, -29.19, 1, 1, 6, -14.21, -23.54, 1, 1, 6, -31.11, 8.99, 1, 1, 6, 6.34, 29.86, 1, 1, 6, 32.22, 35.4, 1, 1, 6, 94.25, 24.14, 1, 1, 6, 105.17, 24.25, 1, 1, 6, 145.42, 32.26, 1, 1, 6, 192.29, 27.99, 1, 1, 6, 220.27, -29.69, 1, 1, 6, 212.27, -48.8, 1 ],
					"hull": 14,
					"edges": [ 0, 26, 0, 2, 2, 4, 4, 6, 6, 8, 8, 10, 10, 12, 12, 14, 14, 16, 16, 18, 18, 20, 20, 22, 22, 24, 24, 26 ],
					"width": 208,
					"height": 169
				}
			},
			"Hand_L_1_NPC_Admin_M": {
				"NPC_Admin_M/Hand_L_1_NPC_Admin_M": {
					"type": "mesh",
					"uvs": [ 0.37602, 0.00616, 0.61984, 0.13169, 0.82503, 0.56166, 0.87768, 0.63303, 0.98595, 0.75234, 0.96386, 0.92806, 0.85276, 0.99332, 0.56657, 0.99331, 0.40448, 0.77486, 0.03968, 0.38261, 0, 0.25065, 0, 0.12877, 0.16117, 0.00653 ],
					"triangles": [ 3, 7, 8, 4, 6, 7, 5, 6, 4, 10, 11, 12, 1, 9, 10, 0, 10, 12, 2, 9, 1, 8, 2, 3, 10, 0, 1, 2, 8, 9, 3, 4, 7 ],
					"vertices": [ 1, 5, -20.31, 12.57, 1, 1, 5, 8.13, 29.22, 1, 1, 5, 75.06, 22.64, 1, 2, 5, 87.07, 23.42, 0.99914, 6, 4.3, -31.87, 8.6E-4, 2, 5, 108.13, 26.78, 0.86602, 6, -14.78, -22.35, 0.13398, 2, 5, 130.35, 13.38, 0.29407, 6, -25.06, 1.48, 0.70593, 2, 5, 133.63, -1.98, 0.06836, 6, -18.78, 15.88, 0.93164, 1, 6, 9.3, 31.32, 1, 1, 6, 40.69, 11.94, 1, 2, 5, 13.32, -45.31, 0.70942, 6, 104.27, -18.9, 0.29058, 2, 5, -6.1, -40.94, 0.87009, 6, 117.52, -33.75, 0.12991, 2, 5, -22.25, -33.2, 0.94273, 6, 126.15, -49.45, 0.05727, 2, 5, -30.66, -9.15, 0.99098, 6, 118.99, -73.89, 0.00902 ],
					"hull": 13,
					"edges": [ 0, 24, 0, 2, 2, 4, 4, 6, 6, 8, 8, 10, 10, 12, 12, 14, 14, 16, 16, 18, 18, 20, 20, 22, 22, 24 ],
					"width": 112,
					"height": 147
				}
			},
			"Hand_R_1_NPC_Admin_M": {
				"NPC_Admin_M/Hand_R_1_NPC_Admin_M": {
					"type": "mesh",
					"uvs": [ 0.69962, 0, 0.88066, 0.02404, 0.99768, 0.13241, 0.97974, 0.31423, 0.53927, 0.89289, 0.38853, 0.99443, 0.1773, 0.99399, 0.03468, 0.91197, 0.00148, 0.85018, 0.03762, 0.71687, 0.40995, 0.13853, 0.62831, 0 ],
					"triangles": [ 7, 8, 9, 9, 6, 7, 4, 6, 9, 2, 0, 1, 4, 10, 3, 9, 10, 4, 0, 10, 11, 0, 3, 10, 0, 2, 3, 5, 6, 4 ],
					"vertices": [ 1, 3, -20.14, -17.41, 1, 1, 3, -25.43, 2.73, 1, 1, 3, -15.2, 22.28, 1, 1, 3, 12.41, 33.24, 1, 2, 3, 118.98, 29.03, 0.97565, 4, -20.03, -24.05, 0.02435, 2, 3, 141.26, 20.81, 0.68386, 4, -23.35, -0.53, 0.31614, 2, 3, 151.49, -0.75, 0.13316, 4, -9.21, 18.7, 0.86684, 1, 4, 11.09, 23.83, 1, 1, 4, 21.44, 20.92, 1, 1, 4, 36.58, 4.81, 1, 2, 3, 14.36, -37.2, 1, 4, 87.89, -84.77, 0, 1, 3, -16.66, -24.68, 1 ],
					"hull": 12,
					"edges": [ 0, 22, 0, 2, 2, 4, 4, 6, 6, 8, 8, 10, 10, 12, 12, 14, 14, 16, 16, 18, 18, 20, 20, 22 ],
					"width": 113,
					"height": 163
				}
			},
			"Hand_R_2_NPC_Admin_M": {
				"NPC_Admin_M/Hand_R_2_NPC_Admin_M": {
					"type": "mesh",
					"uvs": [ 0.52483, 0.04596, 0.58786, 0.38723, 0.60797, 0.40786, 0.92472, 0.61072, 0.99363, 0.69749, 0.99316, 0.91972, 0.90977, 0.94891, 0.75513, 0.917, 0.66981, 0.8744, 0.29483, 0.51372, 0.09011, 0.115, 0.03448, 0.00853 ],
					"triangles": [ 10, 11, 0, 10, 0, 1, 9, 10, 1, 8, 2, 3, 8, 3, 4, 9, 1, 2, 8, 9, 2, 7, 8, 4, 5, 7, 4, 6, 7, 5 ],
					"vertices": [ 1, 4, 160.78, -54.82, 1, 1, 4, 99.1, -21.25, 1, 1, 4, 93.95, -21.15, 1, 1, 4, 33.07, -34.35, 1, 1, 4, 12.8, -32.09, 1, 1, 4, -23.77, -5.29, 1, 1, 4, -21.34, 8.12, 1, 1, 4, -2.68, 22.64, 1, 1, 4, 11.74, 27.64, 1, 1, 4, 103.67, 28.76, 1, 1, 4, 187.1, 5.09, 1, 1, 4, 209.46, -1.12, 1 ],
					"hull": 12,
					"edges": [ 0, 22, 0, 2, 2, 4, 4, 6, 6, 8, 8, 10, 10, 12, 12, 14, 14, 16, 16, 18, 18, 20, 20, 22 ],
					"width": 147,
					"height": 204
				}
			}
		}
	}
],
"animations": {
	"animation": {
		"bones": {
			"bone2": {
				"scale": [
					{},
					{ "time": 0.3333, "x": 0.98, "y": 0.98 },
					{ "time": 0.6667 },
					{ "time": 1, "x": 0.98, "y": 0.98 },
					{ "time": 1.3333 }
				]
			},
			"bone7": {
				"translate": [
					{},
					{ "time": 0.3333, "x": -2.34, "y": 0.06 },
					{ "time": 0.6667 },
					{ "time": 1, "x": -2.34, "y": 0.06 },
					{ "time": 1.3333 }
				]
			},
			"bone3": {
				"rotate": [
					{},
					{ "time": 0.3333, "angle": -9.61 },
					{ "time": 0.6667, "angle": 5.1 },
					{ "time": 1, "angle": -9.61 },
					{ "time": 1.3333 }
				]
			},
			"bone4": {
				"rotate": [
					{},
					{ "time": 0.3333, "angle": 28.19 },
					{ "time": 0.6667, "angle": -10.67 },
					{ "time": 1, "angle": 28.19 },
					{ "time": 1.3333 }
				]
			},
			"bone5": {
				"rotate": [
					{},
					{ "time": 0.3333, "angle": -20.89 },
					{ "time": 0.6667, "angle": 4.71 },
					{ "time": 1, "angle": -20.89 },
					{ "time": 1.3333 }
				]
			},
			"bone6": {
				"rotate": [
					{},
					{ "time": 0.3333, "angle": 19.53 },
					{ "time": 0.6667, "angle": -10.33 },
					{ "time": 1, "angle": 19.53 },
					{ "time": 1.3333 }
				]
			}
		}
	}
}
}