%YAML 1.1
%TAG !u! tag:unity3d.com,2011:
--- !u!114 &11400000
MonoBehaviour:
  m_ObjectHideFlags: 0
  m_CorrespondingSourceObject: {fileID: 0}
  m_PrefabInstance: {fileID: 0}
  m_PrefabAsset: {fileID: 0}
  m_GameObject: {fileID: 0}
  m_Enabled: 1
  m_EditorHideFlags: 0
  m_Script: {fileID: 11500000, guid: a6b194f808b1af6499c93410e504af42, type: 3}
  m_Name: skeleton_Atlas
  m_EditorClassIdentifier: 
  atlasFile: {fileID: 4900000, guid: d2ed1e6509d53dd45bbb47dd0815c4e7, type: 3}
  materials:
  - {fileID: 2100000, guid: d7551c7873760a0468b4bcacf7dfdd8f, type: 2}
  - {fileID: 2100000, guid: 75090de1d1cd97a45b276c10d21e947d, type: 2}
  - {fileID: 2100000, guid: 8a4e3522ddd3b4e47b6165a0c24ec6da, type: 2}
  - {fileID: 2100000, guid: 4b69093bda4c23b43a73236263679412, type: 2}
  - {fileID: 2100000, guid: 9926980505403184a98bf549b207d8cc, type: 2}
  - {fileID: 2100000, guid: 7200aa3865f35bb409b2d3d2857c5bad, type: 2}
  - {fileID: 2100000, guid: f1584a5f8782e204a9c9d1842fc86fa9, type: 2}
  - {fileID: 2100000, guid: 912f28b4ef86b4b44928adf7006a8ee6, type: 2}
