%YAML 1.1
%TAG !u! tag:unity3d.com,2011:
--- !u!74 &7400000
AnimationClip:
  m_ObjectHideFlags: 0
  m_CorrespondingSourceObject: {fileID: 0}
  m_PrefabInstance: {fileID: 0}
  m_PrefabAsset: {fileID: 0}
  m_Name: LoseMale
  serializedVersion: 6
  m_Legacy: 0
  m_Compressed: 0
  m_UseHighQualityCurve: 1
  m_RotationCurves: []
  m_CompressedRotationCurves: []
  m_EulerCurves:
  - curve:
      serializedVersion: 2
      m_Curve:
      - serializedVersion: 3
        time: 0
        value: {x: 0, y: 0, z: 0}
        inSlope: {x: 0, y: 0, z: 0}
        outSlope: {x: 0, y: 0, z: 0}
        tangentMode: 0
        weightedMode: 0
        inWeight: {x: 0.33333334, y: 0.33333334, z: 0.33333334}
        outWeight: {x: 0.33333334, y: 0.33333334, z: 0.33333334}
      - serializedVersion: 3
        time: 2.9
        value: {x: 0, y: 0, z: 0}
        inSlope: {x: 0, y: 0, z: 0}
        outSlope: {x: 0, y: 0, z: 0}
        tangentMode: 0
        weightedMode: 0
        inWeight: {x: 0.33333334, y: 0.33333334, z: 0.33333334}
        outWeight: {x: 0.33333334, y: 0.33333334, z: 0.33333334}
      m_PreInfinity: 2
      m_PostInfinity: 2
      m_RotationOrder: 4
    path: Image
  - curve:
      serializedVersion: 2
      m_Curve:
      - serializedVersion: 3
        time: 0
        value: {x: 0, y: 0, z: 0}
        inSlope: {x: 0, y: 0, z: 0}
        outSlope: {x: 0, y: 0, z: 0}
        tangentMode: 0
        weightedMode: 0
        inWeight: {x: 0.33333334, y: 0.33333334, z: 0.33333334}
        outWeight: {x: 0.33333334, y: 0.33333334, z: 0.33333334}
      - serializedVersion: 3
        time: 1.9666667
        value: {x: 0, y: 0, z: 0.255}
        inSlope: {x: 0, y: 0, z: 0}
        outSlope: {x: 0, y: 0, z: 0}
        tangentMode: 0
        weightedMode: 0
        inWeight: {x: 0.33333334, y: 0.33333334, z: 0.33333334}
        outWeight: {x: 0.33333334, y: 0.33333334, z: 0.33333334}
      - serializedVersion: 3
        time: 2.0333333
        value: {x: 0, y: 0, z: -4.15}
        inSlope: {x: 0, y: 0, z: 0}
        outSlope: {x: 0, y: 0, z: 0}
        tangentMode: 0
        weightedMode: 0
        inWeight: {x: 0.33333334, y: 0.33333334, z: 0.33333334}
        outWeight: {x: 0.33333334, y: 0.33333334, z: 0.33333334}
      - serializedVersion: 3
        time: 2.1666667
        value: {x: 0, y: 0, z: 0.322}
        inSlope: {x: 0, y: 0, z: 0}
        outSlope: {x: 0, y: 0, z: 0}
        tangentMode: 0
        weightedMode: 0
        inWeight: {x: 0.33333334, y: 0.33333334, z: 0.33333334}
        outWeight: {x: 0.33333334, y: 0.33333334, z: 0.33333334}
      m_PreInfinity: 2
      m_PostInfinity: 2
      m_RotationOrder: 4
    path: gun
  m_PositionCurves: []
  m_ScaleCurves: []
  m_FloatCurves:
  - curve:
      serializedVersion: 2
      m_Curve:
      - serializedVersion: 3
        time: 0
        value: 0
        inSlope: Infinity
        outSlope: Infinity
        tangentMode: 103
        weightedMode: 0
        inWeight: 0
        outWeight: 0
      m_PreInfinity: 2
      m_PostInfinity: 2
      m_RotationOrder: 4
    attribute: m_IsActive
    path: Image
    classID: 1
    script: {fileID: 0}
  - curve:
      serializedVersion: 2
      m_Curve:
      - serializedVersion: 3
        time: 0
        value: 2
        inSlope: 0
        outSlope: 0
        tangentMode: 136
        weightedMode: 0
        inWeight: 0.33333334
        outWeight: 0.33333334
      - serializedVersion: 3
        time: 2.15
        value: 0.3
        inSlope: 0
        outSlope: 0
        tangentMode: 136
        weightedMode: 0
        inWeight: 0.33333334
        outWeight: 0.33333334
      - serializedVersion: 3
        time: 2.2166667
        value: 2.4
        inSlope: 0
        outSlope: 0
        tangentMode: 136
        weightedMode: 0
        inWeight: 0.33333334
        outWeight: 0.33333334
      - serializedVersion: 3
        time: 2.9
        value: 2
        inSlope: 0
        outSlope: 0
        tangentMode: 136
        weightedMode: 0
        inWeight: 0.33333334
        outWeight: 0.33333334
      m_PreInfinity: 2
      m_PostInfinity: 2
      m_RotationOrder: 4
    attribute: m_AnchoredPosition.x
    path: Image
    classID: 224
    script: {fileID: 0}
  - curve:
      serializedVersion: 2
      m_Curve:
      - serializedVersion: 3
        time: 0
        value: -0.0000061989
        inSlope: 0
        outSlope: 0
        tangentMode: 136
        weightedMode: 0
        inWeight: 0.33333334
        outWeight: 0.33333334
      - serializedVersion: 3
        time: 2.9
        value: -0.00000014760599
        inSlope: 0
        outSlope: 0
        tangentMode: 136
        weightedMode: 0
        inWeight: 0.33333334
        outWeight: 0.33333334
      m_PreInfinity: 2
      m_PostInfinity: 2
      m_RotationOrder: 4
    attribute: m_AnchoredPosition.y
    path: Image
    classID: 224
    script: {fileID: 0}
  - curve:
      serializedVersion: 2
      m_Curve:
      - serializedVersion: 3
        time: 0
        value: 0
        inSlope: Infinity
        outSlope: Infinity
        tangentMode: 103
        weightedMode: 0
        inWeight: 0
        outWeight: 0
      - serializedVersion: 3
        time: 1.85
        value: 1
        inSlope: Infinity
        outSlope: Infinity
        tangentMode: 103
        weightedMode: 0
        inWeight: 0
        outWeight: 0
      - serializedVersion: 3
        time: 1.8666667
        value: 1
        inSlope: Infinity
        outSlope: Infinity
        tangentMode: 103
        weightedMode: 0
        inWeight: 0
        outWeight: 0
      - serializedVersion: 3
        time: 1.8833333
        value: 1
        inSlope: Infinity
        outSlope: Infinity
        tangentMode: 103
        weightedMode: 0
        inWeight: 0
        outWeight: 0
      - serializedVersion: 3
        time: 1.9166666
        value: 1
        inSlope: Infinity
        outSlope: Infinity
        tangentMode: 103
        weightedMode: 0
        inWeight: 0
        outWeight: 0
      - serializedVersion: 3
        time: 1.9333333
        value: 1
        inSlope: Infinity
        outSlope: Infinity
        tangentMode: 103
        weightedMode: 0
        inWeight: 0
        outWeight: 0
      - serializedVersion: 3
        time: 1.9666667
        value: 1
        inSlope: Infinity
        outSlope: Infinity
        tangentMode: 103
        weightedMode: 0
        inWeight: 0
        outWeight: 0
      - serializedVersion: 3
        time: 1.9833333
        value: 1
        inSlope: Infinity
        outSlope: Infinity
        tangentMode: 103
        weightedMode: 0
        inWeight: 0
        outWeight: 0
      - serializedVersion: 3
        time: 2
        value: 1
        inSlope: Infinity
        outSlope: Infinity
        tangentMode: 103
        weightedMode: 0
        inWeight: 0
        outWeight: 0
      - serializedVersion: 3
        time: 2.05
        value: 1
        inSlope: Infinity
        outSlope: Infinity
        tangentMode: 103
        weightedMode: 0
        inWeight: 0
        outWeight: 0
      - serializedVersion: 3
        time: 2.0666666
        value: 1
        inSlope: Infinity
        outSlope: Infinity
        tangentMode: 103
        weightedMode: 0
        inWeight: 0
        outWeight: 0
      - serializedVersion: 3
        time: 2.3333333
        value: 0
        inSlope: Infinity
        outSlope: Infinity
        tangentMode: 103
        weightedMode: 0
        inWeight: 0
        outWeight: 0
      - serializedVersion: 3
        time: 2.35
        value: 0
        inSlope: Infinity
        outSlope: Infinity
        tangentMode: 103
        weightedMode: 0
        inWeight: 0
        outWeight: 0
      m_PreInfinity: 2
      m_PostInfinity: 2
      m_RotationOrder: 4
    attribute: m_IsActive
    path: explode
    classID: 1
    script: {fileID: 0}
  - curve:
      serializedVersion: 2
      m_Curve:
      - serializedVersion: 3
        time: 2.0333333
        value: 20.9
        inSlope: 0
        outSlope: 0
        tangentMode: 136
        weightedMode: 0
        inWeight: 0
        outWeight: 0
      m_PreInfinity: 2
      m_PostInfinity: 2
      m_RotationOrder: 4
    attribute: m_AnchoredPosition.x
    path: explode
    classID: 224
    script: {fileID: 0}
  - curve:
      serializedVersion: 2
      m_Curve:
      - serializedVersion: 3
        time: 2.0333333
        value: 3.6
        inSlope: 0
        outSlope: 0
        tangentMode: 136
        weightedMode: 0
        inWeight: 0
        outWeight: 0
      m_PreInfinity: 2
      m_PostInfinity: 2
      m_RotationOrder: 4
    attribute: m_AnchoredPosition.y
    path: explode
    classID: 224
    script: {fileID: 0}
  - curve:
      serializedVersion: 2
      m_Curve:
      - serializedVersion: 3
        time: 0
        value: 0
        inSlope: Infinity
        outSlope: Infinity
        tangentMode: 103
        weightedMode: 0
        inWeight: 0
        outWeight: 0
      m_PreInfinity: 2
      m_PostInfinity: 2
      m_RotationOrder: 4
    attribute: m_IsActive
    path: fyuh
    classID: 1
    script: {fileID: 0}
  - curve:
      serializedVersion: 2
      m_Curve:
      - serializedVersion: 3
        time: 0
        value: 60.8
        inSlope: 0
        outSlope: 0
        tangentMode: 136
        weightedMode: 0
        inWeight: 0.33333334
        outWeight: 0.33333334
      - serializedVersion: 3
        time: 0.6666667
        value: 60.5
        inSlope: 0
        outSlope: 0
        tangentMode: 136
        weightedMode: 0
        inWeight: 0.33333334
        outWeight: 0.33333334
      - serializedVersion: 3
        time: 1.1166667
        value: 60.8
        inSlope: 0.84615856
        outSlope: 0.84615856
        tangentMode: 136
        weightedMode: 0
        inWeight: 0.33333334
        outWeight: 0.33333334
      - serializedVersion: 3
        time: 1.9666667
        value: 61.600006
        inSlope: 3.555586
        outSlope: 3.555586
        tangentMode: 136
        weightedMode: 0
        inWeight: 0.33333334
        outWeight: 0.33333334
      - serializedVersion: 3
        time: 2.0166667
        value: 64.2
        inSlope: 0
        outSlope: 0
        tangentMode: 136
        weightedMode: 0
        inWeight: 0.33333334
        outWeight: 0.33333334
      - serializedVersion: 3
        time: 2.15
        value: 61.1
        inSlope: 0
        outSlope: 0
        tangentMode: 136
        weightedMode: 0
        inWeight: 0.33333334
        outWeight: 0.33333334
      - serializedVersion: 3
        time: 2.1666667
        value: 61.100006
        inSlope: 0
        outSlope: 0
        tangentMode: 136
        weightedMode: 0
        inWeight: 0.33333334
        outWeight: 0.33333334
      m_PreInfinity: 2
      m_PostInfinity: 2
      m_RotationOrder: 4
    attribute: m_AnchoredPosition.x
    path: gun
    classID: 224
    script: {fileID: 0}
  - curve:
      serializedVersion: 2
      m_Curve:
      - serializedVersion: 3
        time: 0
        value: 0
        inSlope: 0
        outSlope: 0
        tangentMode: 136
        weightedMode: 0
        inWeight: 0.33333334
        outWeight: 0.33333334
      - serializedVersion: 3
        time: 0.25
        value: -2
        inSlope: 0
        outSlope: 0
        tangentMode: 136
        weightedMode: 0
        inWeight: 0.33333334
        outWeight: 0.33333334
      - serializedVersion: 3
        time: 0.6666667
        value: 0.0000021458
        inSlope: 4.040816
        outSlope: 4.040816
        tangentMode: 136
        weightedMode: 0
        inWeight: 0.33333334
        outWeight: 0.33333334
      - serializedVersion: 3
        time: 1.0666667
        value: 1.3
        inSlope: 0
        outSlope: 0
        tangentMode: 136
        weightedMode: 0
        inWeight: 0.33333334
        outWeight: 0.33333334
      - serializedVersion: 3
        time: 1.1166667
        value: -1.4
        inSlope: 0
        outSlope: 0
        tangentMode: 136
        weightedMode: 0
        inWeight: 0.33333334
        outWeight: 0.33333334
      - serializedVersion: 3
        time: 1.2
        value: -0.0000060797
        inSlope: 0.000028469982
        outSlope: 0.000028469982
        tangentMode: 136
        weightedMode: 0
        inWeight: 0.33333334
        outWeight: 0.33333334
      - serializedVersion: 3
        time: 1.9666667
        value: 0
        inSlope: 0.000029778126
        outSlope: 0.000029778126
        tangentMode: 136
        weightedMode: 0
        inWeight: 0.33333334
        outWeight: 0.33333334
      - serializedVersion: 3
        time: 2.0166667
        value: 2.3
        inSlope: 42.000042
        outSlope: 42.000042
        tangentMode: 136
        weightedMode: 0
        inWeight: 0.33333334
        outWeight: 0.33333334
      - serializedVersion: 3
        time: 2.0333333
        value: 3
        inSlope: 0
        outSlope: 0
        tangentMode: 136
        weightedMode: 0
        inWeight: 0.33333334
        outWeight: 0.33333334
      - serializedVersion: 3
        time: 2.15
        value: -0.0000030994
        inSlope: 0
        outSlope: 0
        tangentMode: 136
        weightedMode: 0
        inWeight: 0.33333334
        outWeight: 0.33333334
      - serializedVersion: 3
        time: 2.1666667
        value: 0
        inSlope: 0
        outSlope: 0
        tangentMode: 136
        weightedMode: 0
        inWeight: 0.33333334
        outWeight: 0.33333334
      - serializedVersion: 3
        time: 2.6833334
        value: -1.3
        inSlope: 0
        outSlope: 0
        tangentMode: 136
        weightedMode: 0
        inWeight: 0.33333334
        outWeight: 0.33333334
      - serializedVersion: 3
        time: 2.9666667
        value: -0.4
        inSlope: 0
        outSlope: 0
        tangentMode: 136
        weightedMode: 0
        inWeight: 0.33333334
        outWeight: 0.33333334
      m_PreInfinity: 2
      m_PostInfinity: 2
      m_RotationOrder: 4
    attribute: m_AnchoredPosition.y
    path: gun
    classID: 224
    script: {fileID: 0}
  - curve:
      serializedVersion: 2
      m_Curve:
      - serializedVersion: 3
        time: 0
        value: 1
        inSlope: Infinity
        outSlope: Infinity
        tangentMode: 103
        weightedMode: 0
        inWeight: 0
        outWeight: 0
      m_PreInfinity: 2
      m_PostInfinity: 2
      m_RotationOrder: 4
    attribute: m_IsActive
    path: male
    classID: 1
    script: {fileID: 0}
  - curve:
      serializedVersion: 2
      m_Curve:
      - serializedVersion: 3
        time: 0
        value: 7.6
        inSlope: 0
        outSlope: 0
        tangentMode: 136
        weightedMode: 0
        inWeight: 0.33333334
        outWeight: 0.33333334
      - serializedVersion: 3
        time: 2.1666667
        value: 6.6
        inSlope: -1.3181819
        outSlope: -1.3181819
        tangentMode: 136
        weightedMode: 0
        inWeight: 0.33333334
        outWeight: 0.33333334
      - serializedVersion: 3
        time: 2.2
        value: 4.7
        inSlope: 0
        outSlope: 0
        tangentMode: 136
        weightedMode: 0
        inWeight: 0.33333334
        outWeight: 0.33333334
      m_PreInfinity: 2
      m_PostInfinity: 2
      m_RotationOrder: 4
    attribute: m_AnchoredPosition.x
    path: male
    classID: 224
    script: {fileID: 0}
  m_PPtrCurves:
  - curve:
    - time: 0
      value: {fileID: 540349995769537243, guid: 1a38d75c7da69dc468c76d36988b3461, type: 3}
    - time: 0.083333336
      value: {fileID: -4182145011150561793, guid: 1a38d75c7da69dc468c76d36988b3461, type: 3}
    - time: 0.18333334
      value: {fileID: 540349995769537243, guid: 1a38d75c7da69dc468c76d36988b3461, type: 3}
    - time: 0.26666668
      value: {fileID: -4182145011150561793, guid: 1a38d75c7da69dc468c76d36988b3461, type: 3}
    - time: 0.36666667
      value: {fileID: 540349995769537243, guid: 1a38d75c7da69dc468c76d36988b3461, type: 3}
    - time: 0.45
      value: {fileID: -4182145011150561793, guid: 1a38d75c7da69dc468c76d36988b3461, type: 3}
    - time: 0.55
      value: {fileID: 540349995769537243, guid: 1a38d75c7da69dc468c76d36988b3461, type: 3}
    - time: 0.6333333
      value: {fileID: -4182145011150561793, guid: 1a38d75c7da69dc468c76d36988b3461, type: 3}
    - time: 0.73333335
      value: {fileID: 540349995769537243, guid: 1a38d75c7da69dc468c76d36988b3461, type: 3}
    - time: 0.81666666
      value: {fileID: -4182145011150561793, guid: 1a38d75c7da69dc468c76d36988b3461, type: 3}
    - time: 0.9166667
      value: {fileID: 540349995769537243, guid: 1a38d75c7da69dc468c76d36988b3461, type: 3}
    - time: 1
      value: {fileID: -4182145011150561793, guid: 1a38d75c7da69dc468c76d36988b3461, type: 3}
    - time: 1.0833334
      value: {fileID: 540349995769537243, guid: 1a38d75c7da69dc468c76d36988b3461, type: 3}
    - time: 1.1666666
      value: {fileID: -4182145011150561793, guid: 1a38d75c7da69dc468c76d36988b3461, type: 3}
    - time: 1.2666667
      value: {fileID: 540349995769537243, guid: 1a38d75c7da69dc468c76d36988b3461, type: 3}
    - time: 1.35
      value: {fileID: -4182145011150561793, guid: 1a38d75c7da69dc468c76d36988b3461, type: 3}
    - time: 1.4333333
      value: {fileID: 540349995769537243, guid: 1a38d75c7da69dc468c76d36988b3461, type: 3}
    - time: 1.5166667
      value: {fileID: -4182145011150561793, guid: 1a38d75c7da69dc468c76d36988b3461, type: 3}
    - time: 1.6166667
      value: {fileID: 540349995769537243, guid: 1a38d75c7da69dc468c76d36988b3461, type: 3}
    - time: 1.7
      value: {fileID: -4182145011150561793, guid: 1a38d75c7da69dc468c76d36988b3461, type: 3}
    - time: 1.8
      value: {fileID: 540349995769537243, guid: 1a38d75c7da69dc468c76d36988b3461, type: 3}
    - time: 1.8833333
      value: {fileID: -4182145011150561793, guid: 1a38d75c7da69dc468c76d36988b3461, type: 3}
    - time: 1.9833333
      value: {fileID: 540349995769537243, guid: 1a38d75c7da69dc468c76d36988b3461, type: 3}
    - time: 2.0666666
      value: {fileID: -4182145011150561793, guid: 1a38d75c7da69dc468c76d36988b3461, type: 3}
    - time: 2.15
      value: {fileID: 21300000, guid: 32c38042e3cba8e47ab42761d4f85b06, type: 3}
    - time: 2.1666667
      value: {fileID: 21300000, guid: 32c38042e3cba8e47ab42761d4f85b06, type: 3}
    attribute: m_Sprite
    path: Image
    classID: 114
    script: {fileID: 11500000, guid: fe87c0e1cc204ed48ad3b37840f39efc, type: 3}
  - curve:
    - time: 1.8666667
      value: {fileID: -8092295105046505211, guid: 58921dfc9360ccb409e021ceaccd3205, type: 3}
    - time: 1.9166666
      value: {fileID: -8092295105046505211, guid: 58921dfc9360ccb409e021ceaccd3205, type: 3}
    - time: 1.9666667
      value: {fileID: -5243772346084840235, guid: 58921dfc9360ccb409e021ceaccd3205, type: 3}
    - time: 2.05
      value: {fileID: -4009157606203222040, guid: 58921dfc9360ccb409e021ceaccd3205, type: 3}
    - time: 2.1333334
      value: {fileID: 3730887761424324059, guid: 58921dfc9360ccb409e021ceaccd3205, type: 3}
    - time: 2.2166667
      value: {fileID: -4927540249515241657, guid: 58921dfc9360ccb409e021ceaccd3205, type: 3}
    - time: 2.2833333
      value: {fileID: 5684552838703836615, guid: 58921dfc9360ccb409e021ceaccd3205, type: 3}
    - time: 2.3166666
      value: {fileID: 5684552838703836615, guid: 58921dfc9360ccb409e021ceaccd3205, type: 3}
    - time: 2.8666666
      value: {fileID: 5684552838703836615, guid: 58921dfc9360ccb409e021ceaccd3205, type: 3}
    attribute: m_Sprite
    path: explode
    classID: 114
    script: {fileID: 11500000, guid: fe87c0e1cc204ed48ad3b37840f39efc, type: 3}
  - curve:
    - time: 0
      value: {fileID: 1975649339729004397, guid: ed25413cb22875f4f8bf64f9278cf497, type: 3}
    - time: 0.76666665
      value: {fileID: -5879229001868888675, guid: ed25413cb22875f4f8bf64f9278cf497, type: 3}
    - time: 0.85
      value: {fileID: -3165937549469459363, guid: ed25413cb22875f4f8bf64f9278cf497, type: 3}
    - time: 0.93333334
      value: {fileID: 8263894281840155637, guid: ed25413cb22875f4f8bf64f9278cf497, type: 3}
    - time: 1.0166667
      value: {fileID: -2325556181309899417, guid: ed25413cb22875f4f8bf64f9278cf497, type: 3}
    - time: 1.1
      value: {fileID: 7477691790774029023, guid: ed25413cb22875f4f8bf64f9278cf497, type: 3}
    - time: 1.1833333
      value: {fileID: -2325556181309899417, guid: ed25413cb22875f4f8bf64f9278cf497, type: 3}
    - time: 1.2666667
      value: {fileID: 8263894281840155637, guid: ed25413cb22875f4f8bf64f9278cf497, type: 3}
    - time: 1.35
      value: {fileID: -3165937549469459363, guid: ed25413cb22875f4f8bf64f9278cf497, type: 3}
    - time: 1.4333333
      value: {fileID: -5879229001868888675, guid: ed25413cb22875f4f8bf64f9278cf497, type: 3}
    - time: 1.5
      value: {fileID: 1975649339729004397, guid: ed25413cb22875f4f8bf64f9278cf497, type: 3}
    - time: 2
      value: {fileID: 1677998960751968414, guid: ed25413cb22875f4f8bf64f9278cf497, type: 3}
    - time: 2.1166666
      value: {fileID: 1975649339729004397, guid: ed25413cb22875f4f8bf64f9278cf497, type: 3}
    attribute: m_Sprite
    path: gun
    classID: 114
    script: {fileID: 11500000, guid: fe87c0e1cc204ed48ad3b37840f39efc, type: 3}
  - curve:
    - time: 0
      value: {fileID: 2431826021097924158, guid: 3fdd4bca7db81b9448e4e39bb8845168, type: 3}
    - time: 0.083333336
      value: {fileID: -4102660925925541139, guid: 3fdd4bca7db81b9448e4e39bb8845168, type: 3}
    - time: 0.16666667
      value: {fileID: 2431826021097924158, guid: 3fdd4bca7db81b9448e4e39bb8845168, type: 3}
    - time: 0.25
      value: {fileID: -4102660925925541139, guid: 3fdd4bca7db81b9448e4e39bb8845168, type: 3}
    - time: 0.33333334
      value: {fileID: 2431826021097924158, guid: 3fdd4bca7db81b9448e4e39bb8845168, type: 3}
    - time: 0.41666666
      value: {fileID: -4102660925925541139, guid: 3fdd4bca7db81b9448e4e39bb8845168, type: 3}
    - time: 0.5
      value: {fileID: 2431826021097924158, guid: 3fdd4bca7db81b9448e4e39bb8845168, type: 3}
    - time: 0.5833333
      value: {fileID: -4102660925925541139, guid: 3fdd4bca7db81b9448e4e39bb8845168, type: 3}
    - time: 0.6666667
      value: {fileID: 2431826021097924158, guid: 3fdd4bca7db81b9448e4e39bb8845168, type: 3}
    - time: 0.75
      value: {fileID: -4102660925925541139, guid: 3fdd4bca7db81b9448e4e39bb8845168, type: 3}
    - time: 0.8333333
      value: {fileID: 2431826021097924158, guid: 3fdd4bca7db81b9448e4e39bb8845168, type: 3}
    - time: 0.9166667
      value: {fileID: -4102660925925541139, guid: 3fdd4bca7db81b9448e4e39bb8845168, type: 3}
    - time: 1
      value: {fileID: 2431826021097924158, guid: 3fdd4bca7db81b9448e4e39bb8845168, type: 3}
    - time: 1.0833334
      value: {fileID: -4102660925925541139, guid: 3fdd4bca7db81b9448e4e39bb8845168, type: 3}
    - time: 1.1666666
      value: {fileID: 2431826021097924158, guid: 3fdd4bca7db81b9448e4e39bb8845168, type: 3}
    - time: 1.25
      value: {fileID: -4102660925925541139, guid: 3fdd4bca7db81b9448e4e39bb8845168, type: 3}
    - time: 1.3333334
      value: {fileID: 2431826021097924158, guid: 3fdd4bca7db81b9448e4e39bb8845168, type: 3}
    - time: 1.4166666
      value: {fileID: -4102660925925541139, guid: 3fdd4bca7db81b9448e4e39bb8845168, type: 3}
    - time: 1.5
      value: {fileID: 2431826021097924158, guid: 3fdd4bca7db81b9448e4e39bb8845168, type: 3}
    - time: 1.5833334
      value: {fileID: -4102660925925541139, guid: 3fdd4bca7db81b9448e4e39bb8845168, type: 3}
    - time: 1.6666666
      value: {fileID: 2431826021097924158, guid: 3fdd4bca7db81b9448e4e39bb8845168, type: 3}
    - time: 1.75
      value: {fileID: -4102660925925541139, guid: 3fdd4bca7db81b9448e4e39bb8845168, type: 3}
    - time: 1.8333334
      value: {fileID: 2431826021097924158, guid: 3fdd4bca7db81b9448e4e39bb8845168, type: 3}
    - time: 1.9166666
      value: {fileID: -4102660925925541139, guid: 3fdd4bca7db81b9448e4e39bb8845168, type: 3}
    - time: 2
      value: {fileID: 2431826021097924158, guid: 3fdd4bca7db81b9448e4e39bb8845168, type: 3}
    - time: 2.0833333
      value: {fileID: -4102660925925541139, guid: 3fdd4bca7db81b9448e4e39bb8845168, type: 3}
    - time: 2.1666667
      value: {fileID: 21300000, guid: 3add204a7265a7d40abb08da5ec82187, type: 3}
    - time: 2.25
      value: {fileID: 21300000, guid: 3add204a7265a7d40abb08da5ec82187, type: 3}
    - time: 2.3333333
      value: {fileID: 21300000, guid: 3add204a7265a7d40abb08da5ec82187, type: 3}
    - time: 2.4166667
      value: {fileID: 21300000, guid: 3add204a7265a7d40abb08da5ec82187, type: 3}
    - time: 2.5
      value: {fileID: 21300000, guid: 3add204a7265a7d40abb08da5ec82187, type: 3}
    - time: 2.5333333
      value: {fileID: 21300000, guid: 3add204a7265a7d40abb08da5ec82187, type: 3}
    - time: 2.6
      value: {fileID: 21300000, guid: 3add204a7265a7d40abb08da5ec82187, type: 3}
    - time: 2.6166666
      value: {fileID: 21300000, guid: 3add204a7265a7d40abb08da5ec82187, type: 3}
    - time: 2.7
      value: {fileID: 21300000, guid: 3add204a7265a7d40abb08da5ec82187, type: 3}
    - time: 2.7833333
      value: {fileID: 21300000, guid: 3add204a7265a7d40abb08da5ec82187, type: 3}
    - time: 2.8666666
      value: {fileID: 21300000, guid: 3add204a7265a7d40abb08da5ec82187, type: 3}
    - time: 2.9
      value: {fileID: 21300000, guid: 3add204a7265a7d40abb08da5ec82187, type: 3}
    - time: 2.9166667
      value: {fileID: 21300000, guid: 3add204a7265a7d40abb08da5ec82187, type: 3}
    - time: 3
      value: {fileID: 21300000, guid: 3add204a7265a7d40abb08da5ec82187, type: 3}
    - time: 3.0833333
      value: {fileID: 21300000, guid: 3add204a7265a7d40abb08da5ec82187, type: 3}
    - time: 3.1666667
      value: {fileID: 21300000, guid: 3add204a7265a7d40abb08da5ec82187, type: 3}
    - time: 3.2
      value: {fileID: 21300000, guid: 3add204a7265a7d40abb08da5ec82187, type: 3}
    attribute: m_Sprite
    path: male
    classID: 114
    script: {fileID: 11500000, guid: fe87c0e1cc204ed48ad3b37840f39efc, type: 3}
  m_SampleRate: 60
  m_WrapMode: 0
  m_Bounds:
    m_Center: {x: 0, y: 0, z: 0}
    m_Extent: {x: 0, y: 0, z: 0}
  m_ClipBindingConstant:
    genericBindings:
    - serializedVersion: 2
      path: 1251722587
      attribute: 4
      script: {fileID: 0}
      typeID: 4
      customType: 4
      isPPtrCurve: 0
    - serializedVersion: 2
      path: 83635035
      attribute: 2086281974
      script: {fileID: 0}
      typeID: 1
      customType: 0
      isPPtrCurve: 0
    - serializedVersion: 2
      path: 83635035
      attribute: 1460864421
      script: {fileID: 0}
      typeID: 224
      customType: 28
      isPPtrCurve: 0
    - serializedVersion: 2
      path: 83635035
      attribute: 538195251
      script: {fileID: 0}
      typeID: 224
      customType: 28
      isPPtrCurve: 0
    - serializedVersion: 2
      path: 1416834189
      attribute: 2086281974
      script: {fileID: 0}
      typeID: 1
      customType: 0
      isPPtrCurve: 0
    - serializedVersion: 2
      path: 1963475141
      attribute: 2086281974
      script: {fileID: 0}
      typeID: 1
      customType: 0
      isPPtrCurve: 0
    - serializedVersion: 2
      path: 1251722587
      attribute: 1460864421
      script: {fileID: 0}
      typeID: 224
      customType: 28
      isPPtrCurve: 0
    - serializedVersion: 2
      path: 1251722587
      attribute: 538195251
      script: {fileID: 0}
      typeID: 224
      customType: 28
      isPPtrCurve: 0
    - serializedVersion: 2
      path: 1435361449
      attribute: 2086281974
      script: {fileID: 0}
      typeID: 1
      customType: 0
      isPPtrCurve: 0
    - serializedVersion: 2
      path: 1435361449
      attribute: 1460864421
      script: {fileID: 0}
      typeID: 224
      customType: 28
      isPPtrCurve: 0
    - serializedVersion: 2
      path: 83635035
      attribute: 2015549526
      script: {fileID: 11500000, guid: fe87c0e1cc204ed48ad3b37840f39efc, type: 3}
      typeID: 114
      customType: 0
      isPPtrCurve: 1
    - serializedVersion: 2
      path: 1416834189
      attribute: 2015549526
      script: {fileID: 11500000, guid: fe87c0e1cc204ed48ad3b37840f39efc, type: 3}
      typeID: 114
      customType: 0
      isPPtrCurve: 1
    - serializedVersion: 2
      path: 1251722587
      attribute: 2015549526
      script: {fileID: 11500000, guid: fe87c0e1cc204ed48ad3b37840f39efc, type: 3}
      typeID: 114
      customType: 0
      isPPtrCurve: 1
    - serializedVersion: 2
      path: 1435361449
      attribute: 2015549526
      script: {fileID: 11500000, guid: fe87c0e1cc204ed48ad3b37840f39efc, type: 3}
      typeID: 114
      customType: 0
      isPPtrCurve: 1
    - serializedVersion: 2
      path: 83635035
      attribute: 4
      script: {fileID: 0}
      typeID: 4
      customType: 4
      isPPtrCurve: 0
    - serializedVersion: 2
      path: 1416834189
      attribute: 1460864421
      script: {fileID: 0}
      typeID: 224
      customType: 28
      isPPtrCurve: 0
    - serializedVersion: 2
      path: 1416834189
      attribute: 538195251
      script: {fileID: 0}
      typeID: 224
      customType: 28
      isPPtrCurve: 0
    pptrCurveMapping:
    - {fileID: 540349995769537243, guid: 1a38d75c7da69dc468c76d36988b3461, type: 3}
    - {fileID: -4182145011150561793, guid: 1a38d75c7da69dc468c76d36988b3461, type: 3}
    - {fileID: 540349995769537243, guid: 1a38d75c7da69dc468c76d36988b3461, type: 3}
    - {fileID: -4182145011150561793, guid: 1a38d75c7da69dc468c76d36988b3461, type: 3}
    - {fileID: 540349995769537243, guid: 1a38d75c7da69dc468c76d36988b3461, type: 3}
    - {fileID: -4182145011150561793, guid: 1a38d75c7da69dc468c76d36988b3461, type: 3}
    - {fileID: 540349995769537243, guid: 1a38d75c7da69dc468c76d36988b3461, type: 3}
    - {fileID: -4182145011150561793, guid: 1a38d75c7da69dc468c76d36988b3461, type: 3}
    - {fileID: 540349995769537243, guid: 1a38d75c7da69dc468c76d36988b3461, type: 3}
    - {fileID: -4182145011150561793, guid: 1a38d75c7da69dc468c76d36988b3461, type: 3}
    - {fileID: 540349995769537243, guid: 1a38d75c7da69dc468c76d36988b3461, type: 3}
    - {fileID: -4182145011150561793, guid: 1a38d75c7da69dc468c76d36988b3461, type: 3}
    - {fileID: 540349995769537243, guid: 1a38d75c7da69dc468c76d36988b3461, type: 3}
    - {fileID: -4182145011150561793, guid: 1a38d75c7da69dc468c76d36988b3461, type: 3}
    - {fileID: 540349995769537243, guid: 1a38d75c7da69dc468c76d36988b3461, type: 3}
    - {fileID: -4182145011150561793, guid: 1a38d75c7da69dc468c76d36988b3461, type: 3}
    - {fileID: 540349995769537243, guid: 1a38d75c7da69dc468c76d36988b3461, type: 3}
    - {fileID: -4182145011150561793, guid: 1a38d75c7da69dc468c76d36988b3461, type: 3}
    - {fileID: 540349995769537243, guid: 1a38d75c7da69dc468c76d36988b3461, type: 3}
    - {fileID: -4182145011150561793, guid: 1a38d75c7da69dc468c76d36988b3461, type: 3}
    - {fileID: 540349995769537243, guid: 1a38d75c7da69dc468c76d36988b3461, type: 3}
    - {fileID: -4182145011150561793, guid: 1a38d75c7da69dc468c76d36988b3461, type: 3}
    - {fileID: 540349995769537243, guid: 1a38d75c7da69dc468c76d36988b3461, type: 3}
    - {fileID: -4182145011150561793, guid: 1a38d75c7da69dc468c76d36988b3461, type: 3}
    - {fileID: 21300000, guid: 32c38042e3cba8e47ab42761d4f85b06, type: 3}
    - {fileID: 21300000, guid: 32c38042e3cba8e47ab42761d4f85b06, type: 3}
    - {fileID: -8092295105046505211, guid: 58921dfc9360ccb409e021ceaccd3205, type: 3}
    - {fileID: -8092295105046505211, guid: 58921dfc9360ccb409e021ceaccd3205, type: 3}
    - {fileID: -5243772346084840235, guid: 58921dfc9360ccb409e021ceaccd3205, type: 3}
    - {fileID: -4009157606203222040, guid: 58921dfc9360ccb409e021ceaccd3205, type: 3}
    - {fileID: 3730887761424324059, guid: 58921dfc9360ccb409e021ceaccd3205, type: 3}
    - {fileID: -4927540249515241657, guid: 58921dfc9360ccb409e021ceaccd3205, type: 3}
    - {fileID: 5684552838703836615, guid: 58921dfc9360ccb409e021ceaccd3205, type: 3}
    - {fileID: 5684552838703836615, guid: 58921dfc9360ccb409e021ceaccd3205, type: 3}
    - {fileID: 5684552838703836615, guid: 58921dfc9360ccb409e021ceaccd3205, type: 3}
    - {fileID: 1975649339729004397, guid: ed25413cb22875f4f8bf64f9278cf497, type: 3}
    - {fileID: -5879229001868888675, guid: ed25413cb22875f4f8bf64f9278cf497, type: 3}
    - {fileID: -3165937549469459363, guid: ed25413cb22875f4f8bf64f9278cf497, type: 3}
    - {fileID: 8263894281840155637, guid: ed25413cb22875f4f8bf64f9278cf497, type: 3}
    - {fileID: -2325556181309899417, guid: ed25413cb22875f4f8bf64f9278cf497, type: 3}
    - {fileID: 7477691790774029023, guid: ed25413cb22875f4f8bf64f9278cf497, type: 3}
    - {fileID: -2325556181309899417, guid: ed25413cb22875f4f8bf64f9278cf497, type: 3}
    - {fileID: 8263894281840155637, guid: ed25413cb22875f4f8bf64f9278cf497, type: 3}
    - {fileID: -3165937549469459363, guid: ed25413cb22875f4f8bf64f9278cf497, type: 3}
    - {fileID: -5879229001868888675, guid: ed25413cb22875f4f8bf64f9278cf497, type: 3}
    - {fileID: 1975649339729004397, guid: ed25413cb22875f4f8bf64f9278cf497, type: 3}
    - {fileID: 1677998960751968414, guid: ed25413cb22875f4f8bf64f9278cf497, type: 3}
    - {fileID: 1975649339729004397, guid: ed25413cb22875f4f8bf64f9278cf497, type: 3}
    - {fileID: 2431826021097924158, guid: 3fdd4bca7db81b9448e4e39bb8845168, type: 3}
    - {fileID: -4102660925925541139, guid: 3fdd4bca7db81b9448e4e39bb8845168, type: 3}
    - {fileID: 2431826021097924158, guid: 3fdd4bca7db81b9448e4e39bb8845168, type: 3}
    - {fileID: -4102660925925541139, guid: 3fdd4bca7db81b9448e4e39bb8845168, type: 3}
    - {fileID: 2431826021097924158, guid: 3fdd4bca7db81b9448e4e39bb8845168, type: 3}
    - {fileID: -4102660925925541139, guid: 3fdd4bca7db81b9448e4e39bb8845168, type: 3}
    - {fileID: 2431826021097924158, guid: 3fdd4bca7db81b9448e4e39bb8845168, type: 3}
    - {fileID: -4102660925925541139, guid: 3fdd4bca7db81b9448e4e39bb8845168, type: 3}
    - {fileID: 2431826021097924158, guid: 3fdd4bca7db81b9448e4e39bb8845168, type: 3}
    - {fileID: -4102660925925541139, guid: 3fdd4bca7db81b9448e4e39bb8845168, type: 3}
    - {fileID: 2431826021097924158, guid: 3fdd4bca7db81b9448e4e39bb8845168, type: 3}
    - {fileID: -4102660925925541139, guid: 3fdd4bca7db81b9448e4e39bb8845168, type: 3}
    - {fileID: 2431826021097924158, guid: 3fdd4bca7db81b9448e4e39bb8845168, type: 3}
    - {fileID: -4102660925925541139, guid: 3fdd4bca7db81b9448e4e39bb8845168, type: 3}
    - {fileID: 2431826021097924158, guid: 3fdd4bca7db81b9448e4e39bb8845168, type: 3}
    - {fileID: -4102660925925541139, guid: 3fdd4bca7db81b9448e4e39bb8845168, type: 3}
    - {fileID: 2431826021097924158, guid: 3fdd4bca7db81b9448e4e39bb8845168, type: 3}
    - {fileID: -4102660925925541139, guid: 3fdd4bca7db81b9448e4e39bb8845168, type: 3}
    - {fileID: 2431826021097924158, guid: 3fdd4bca7db81b9448e4e39bb8845168, type: 3}
    - {fileID: -4102660925925541139, guid: 3fdd4bca7db81b9448e4e39bb8845168, type: 3}
    - {fileID: 2431826021097924158, guid: 3fdd4bca7db81b9448e4e39bb8845168, type: 3}
    - {fileID: -4102660925925541139, guid: 3fdd4bca7db81b9448e4e39bb8845168, type: 3}
    - {fileID: 2431826021097924158, guid: 3fdd4bca7db81b9448e4e39bb8845168, type: 3}
    - {fileID: -4102660925925541139, guid: 3fdd4bca7db81b9448e4e39bb8845168, type: 3}
    - {fileID: 2431826021097924158, guid: 3fdd4bca7db81b9448e4e39bb8845168, type: 3}
    - {fileID: -4102660925925541139, guid: 3fdd4bca7db81b9448e4e39bb8845168, type: 3}
    - {fileID: 21300000, guid: 3add204a7265a7d40abb08da5ec82187, type: 3}
    - {fileID: 21300000, guid: 3add204a7265a7d40abb08da5ec82187, type: 3}
    - {fileID: 21300000, guid: 3add204a7265a7d40abb08da5ec82187, type: 3}
    - {fileID: 21300000, guid: 3add204a7265a7d40abb08da5ec82187, type: 3}
    - {fileID: 21300000, guid: 3add204a7265a7d40abb08da5ec82187, type: 3}
    - {fileID: 21300000, guid: 3add204a7265a7d40abb08da5ec82187, type: 3}
    - {fileID: 21300000, guid: 3add204a7265a7d40abb08da5ec82187, type: 3}
    - {fileID: 21300000, guid: 3add204a7265a7d40abb08da5ec82187, type: 3}
    - {fileID: 21300000, guid: 3add204a7265a7d40abb08da5ec82187, type: 3}
    - {fileID: 21300000, guid: 3add204a7265a7d40abb08da5ec82187, type: 3}
    - {fileID: 21300000, guid: 3add204a7265a7d40abb08da5ec82187, type: 3}
    - {fileID: 21300000, guid: 3add204a7265a7d40abb08da5ec82187, type: 3}
    - {fileID: 21300000, guid: 3add204a7265a7d40abb08da5ec82187, type: 3}
    - {fileID: 21300000, guid: 3add204a7265a7d40abb08da5ec82187, type: 3}
    - {fileID: 21300000, guid: 3add204a7265a7d40abb08da5ec82187, type: 3}
    - {fileID: 21300000, guid: 3add204a7265a7d40abb08da5ec82187, type: 3}
    - {fileID: 21300000, guid: 3add204a7265a7d40abb08da5ec82187, type: 3}
  m_AnimationClipSettings:
    serializedVersion: 2
    m_AdditiveReferencePoseClip: {fileID: 0}
    m_AdditiveReferencePoseTime: 0
    m_StartTime: 0
    m_StopTime: 3.2166667
    m_OrientationOffsetY: 0
    m_Level: 0
    m_CycleOffset: 0
    m_HasAdditiveReferencePose: 0
    m_LoopTime: 0
    m_LoopBlend: 0
    m_LoopBlendOrientation: 0
    m_LoopBlendPositionY: 0
    m_LoopBlendPositionXZ: 0
    m_KeepOriginalOrientation: 0
    m_KeepOriginalPositionY: 1
    m_KeepOriginalPositionXZ: 0
    m_HeightFromFeet: 0
    m_Mirror: 0
  m_EditorCurves:
  - curve:
      serializedVersion: 2
      m_Curve:
      - serializedVersion: 3
        time: 0
        value: 0
        inSlope: Infinity
        outSlope: Infinity
        tangentMode: 103
        weightedMode: 0
        inWeight: 0
        outWeight: 0
      m_PreInfinity: 2
      m_PostInfinity: 2
      m_RotationOrder: 4
    attribute: m_IsActive
    path: Image
    classID: 1
    script: {fileID: 0}
  - curve:
      serializedVersion: 2
      m_Curve:
      - serializedVersion: 3
        time: 0
        value: 0
        inSlope: 0
        outSlope: 0
        tangentMode: 136
        weightedMode: 0
        inWeight: 0.33333334
        outWeight: 0.33333334
      - serializedVersion: 3
        time: 2.9
        value: 0
        inSlope: 0
        outSlope: 0
        tangentMode: 136
        weightedMode: 0
        inWeight: 0.33333334
        outWeight: 0.33333334
      m_PreInfinity: 2
      m_PostInfinity: 2
      m_RotationOrder: 4
    attribute: localEulerAnglesRaw.x
    path: Image
    classID: 224
    script: {fileID: 0}
  - curve:
      serializedVersion: 2
      m_Curve:
      - serializedVersion: 3
        time: 0
        value: 0
        inSlope: 0
        outSlope: 0
        tangentMode: 136
        weightedMode: 0
        inWeight: 0.33333334
        outWeight: 0.33333334
      - serializedVersion: 3
        time: 2.9
        value: 0
        inSlope: 0
        outSlope: 0
        tangentMode: 136
        weightedMode: 0
        inWeight: 0.33333334
        outWeight: 0.33333334
      m_PreInfinity: 2
      m_PostInfinity: 2
      m_RotationOrder: 4
    attribute: localEulerAnglesRaw.y
    path: Image
    classID: 224
    script: {fileID: 0}
  - curve:
      serializedVersion: 2
      m_Curve:
      - serializedVersion: 3
        time: 0
        value: 0
        inSlope: 0
        outSlope: 0
        tangentMode: 136
        weightedMode: 0
        inWeight: 0.33333334
        outWeight: 0.33333334
      - serializedVersion: 3
        time: 2.9
        value: 0
        inSlope: 0
        outSlope: 0
        tangentMode: 136
        weightedMode: 0
        inWeight: 0.33333334
        outWeight: 0.33333334
      m_PreInfinity: 2
      m_PostInfinity: 2
      m_RotationOrder: 4
    attribute: localEulerAnglesRaw.z
    path: Image
    classID: 224
    script: {fileID: 0}
  - curve:
      serializedVersion: 2
      m_Curve:
      - serializedVersion: 3
        time: 0
        value: 2
        inSlope: 0
        outSlope: 0
        tangentMode: 136
        weightedMode: 0
        inWeight: 0.33333334
        outWeight: 0.33333334
      - serializedVersion: 3
        time: 2.15
        value: 0.3
        inSlope: 0
        outSlope: 0
        tangentMode: 136
        weightedMode: 0
        inWeight: 0.33333334
        outWeight: 0.33333334
      - serializedVersion: 3
        time: 2.2166667
        value: 2.4
        inSlope: 0
        outSlope: 0
        tangentMode: 136
        weightedMode: 0
        inWeight: 0.33333334
        outWeight: 0.33333334
      - serializedVersion: 3
        time: 2.9
        value: 2
        inSlope: 0
        outSlope: 0
        tangentMode: 136
        weightedMode: 0
        inWeight: 0.33333334
        outWeight: 0.33333334
      m_PreInfinity: 2
      m_PostInfinity: 2
      m_RotationOrder: 4
    attribute: m_AnchoredPosition.x
    path: Image
    classID: 224
    script: {fileID: 0}
  - curve:
      serializedVersion: 2
      m_Curve:
      - serializedVersion: 3
        time: 0
        value: -0.0000061989
        inSlope: 0
        outSlope: 0
        tangentMode: 136
        weightedMode: 0
        inWeight: 0.33333334
        outWeight: 0.33333334
      - serializedVersion: 3
        time: 2.9
        value: -0.00000014760599
        inSlope: 0
        outSlope: 0
        tangentMode: 136
        weightedMode: 0
        inWeight: 0.33333334
        outWeight: 0.33333334
      m_PreInfinity: 2
      m_PostInfinity: 2
      m_RotationOrder: 4
    attribute: m_AnchoredPosition.y
    path: Image
    classID: 224
    script: {fileID: 0}
  - curve:
      serializedVersion: 2
      m_Curve:
      - serializedVersion: 3
        time: 0
        value: 0
        inSlope: Infinity
        outSlope: Infinity
        tangentMode: 103
        weightedMode: 0
        inWeight: 0
        outWeight: 0
      - serializedVersion: 3
        time: 1.85
        value: 1
        inSlope: Infinity
        outSlope: Infinity
        tangentMode: 103
        weightedMode: 0
        inWeight: 0
        outWeight: 0
      - serializedVersion: 3
        time: 1.8666667
        value: 1
        inSlope: Infinity
        outSlope: Infinity
        tangentMode: 103
        weightedMode: 0
        inWeight: 0
        outWeight: 0
      - serializedVersion: 3
        time: 1.8833333
        value: 1
        inSlope: Infinity
        outSlope: Infinity
        tangentMode: 103
        weightedMode: 0
        inWeight: 0
        outWeight: 0
      - serializedVersion: 3
        time: 1.9166666
        value: 1
        inSlope: Infinity
        outSlope: Infinity
        tangentMode: 103
        weightedMode: 0
        inWeight: 0
        outWeight: 0
      - serializedVersion: 3
        time: 1.9333333
        value: 1
        inSlope: Infinity
        outSlope: Infinity
        tangentMode: 103
        weightedMode: 0
        inWeight: 0
        outWeight: 0
      - serializedVersion: 3
        time: 1.9666667
        value: 1
        inSlope: Infinity
        outSlope: Infinity
        tangentMode: 103
        weightedMode: 0
        inWeight: 0
        outWeight: 0
      - serializedVersion: 3
        time: 1.9833333
        value: 1
        inSlope: Infinity
        outSlope: Infinity
        tangentMode: 103
        weightedMode: 0
        inWeight: 0
        outWeight: 0
      - serializedVersion: 3
        time: 2
        value: 1
        inSlope: Infinity
        outSlope: Infinity
        tangentMode: 103
        weightedMode: 0
        inWeight: 0
        outWeight: 0
      - serializedVersion: 3
        time: 2.05
        value: 1
        inSlope: Infinity
        outSlope: Infinity
        tangentMode: 103
        weightedMode: 0
        inWeight: 0
        outWeight: 0
      - serializedVersion: 3
        time: 2.0666666
        value: 1
        inSlope: Infinity
        outSlope: Infinity
        tangentMode: 103
        weightedMode: 0
        inWeight: 0
        outWeight: 0
      - serializedVersion: 3
        time: 2.3333333
        value: 0
        inSlope: Infinity
        outSlope: Infinity
        tangentMode: 103
        weightedMode: 0
        inWeight: 0
        outWeight: 0
      - serializedVersion: 3
        time: 2.35
        value: 0
        inSlope: Infinity
        outSlope: Infinity
        tangentMode: 103
        weightedMode: 0
        inWeight: 0
        outWeight: 0
      m_PreInfinity: 2
      m_PostInfinity: 2
      m_RotationOrder: 4
    attribute: m_IsActive
    path: explode
    classID: 1
    script: {fileID: 0}
  - curve:
      serializedVersion: 2
      m_Curve:
      - serializedVersion: 3
        time: 2.0333333
        value: 20.9
        inSlope: 0
        outSlope: 0
        tangentMode: 136
        weightedMode: 0
        inWeight: 0
        outWeight: 0
      m_PreInfinity: 2
      m_PostInfinity: 2
      m_RotationOrder: 4
    attribute: m_AnchoredPosition.x
    path: explode
    classID: 224
    script: {fileID: 0}
  - curve:
      serializedVersion: 2
      m_Curve:
      - serializedVersion: 3
        time: 2.0333333
        value: 3.6
        inSlope: 0
        outSlope: 0
        tangentMode: 136
        weightedMode: 0
        inWeight: 0
        outWeight: 0
      m_PreInfinity: 2
      m_PostInfinity: 2
      m_RotationOrder: 4
    attribute: m_AnchoredPosition.y
    path: explode
    classID: 224
    script: {fileID: 0}
  - curve:
      serializedVersion: 2
      m_Curve:
      - serializedVersion: 3
        time: 0
        value: 0
        inSlope: Infinity
        outSlope: Infinity
        tangentMode: 103
        weightedMode: 0
        inWeight: 0
        outWeight: 0
      m_PreInfinity: 2
      m_PostInfinity: 2
      m_RotationOrder: 4
    attribute: m_IsActive
    path: fyuh
    classID: 1
    script: {fileID: 0}
  - curve:
      serializedVersion: 2
      m_Curve:
      - serializedVersion: 3
        time: 0
        value: 0
        inSlope: 0
        outSlope: 0
        tangentMode: 136
        weightedMode: 0
        inWeight: 0.33333334
        outWeight: 0.33333334
      - serializedVersion: 3
        time: 1.9666667
        value: 0
        inSlope: 0
        outSlope: 0
        tangentMode: 136
        weightedMode: 0
        inWeight: 0.33333334
        outWeight: 0.33333334
      - serializedVersion: 3
        time: 2.0333333
        value: 0
        inSlope: 0
        outSlope: 0
        tangentMode: 136
        weightedMode: 0
        inWeight: 0.33333334
        outWeight: 0.33333334
      - serializedVersion: 3
        time: 2.1666667
        value: 0
        inSlope: 0
        outSlope: 0
        tangentMode: 136
        weightedMode: 0
        inWeight: 0.33333334
        outWeight: 0.33333334
      m_PreInfinity: 2
      m_PostInfinity: 2
      m_RotationOrder: 4
    attribute: localEulerAnglesRaw.x
    path: gun
    classID: 224
    script: {fileID: 0}
  - curve:
      serializedVersion: 2
      m_Curve:
      - serializedVersion: 3
        time: 0
        value: 0
        inSlope: 0
        outSlope: 0
        tangentMode: 136
        weightedMode: 0
        inWeight: 0.33333334
        outWeight: 0.33333334
      - serializedVersion: 3
        time: 1.9666667
        value: 0
        inSlope: 0
        outSlope: 0
        tangentMode: 136
        weightedMode: 0
        inWeight: 0.33333334
        outWeight: 0.33333334
      - serializedVersion: 3
        time: 2.0333333
        value: 0
        inSlope: 0
        outSlope: 0
        tangentMode: 136
        weightedMode: 0
        inWeight: 0.33333334
        outWeight: 0.33333334
      - serializedVersion: 3
        time: 2.1666667
        value: 0
        inSlope: 0
        outSlope: 0
        tangentMode: 136
        weightedMode: 0
        inWeight: 0.33333334
        outWeight: 0.33333334
      m_PreInfinity: 2
      m_PostInfinity: 2
      m_RotationOrder: 4
    attribute: localEulerAnglesRaw.y
    path: gun
    classID: 224
    script: {fileID: 0}
  - curve:
      serializedVersion: 2
      m_Curve:
      - serializedVersion: 3
        time: 0
        value: 0
        inSlope: 0
        outSlope: 0
        tangentMode: 136
        weightedMode: 0
        inWeight: 0.33333334
        outWeight: 0.33333334
      - serializedVersion: 3
        time: 1.9666667
        value: 0.255
        inSlope: 0
        outSlope: 0
        tangentMode: 136
        weightedMode: 0
        inWeight: 0.33333334
        outWeight: 0.33333334
      - serializedVersion: 3
        time: 2.0333333
        value: -4.15
        inSlope: 0
        outSlope: 0
        tangentMode: 136
        weightedMode: 0
        inWeight: 0.33333334
        outWeight: 0.33333334
      - serializedVersion: 3
        time: 2.1666667
        value: 0.322
        inSlope: 0
        outSlope: 0
        tangentMode: 136
        weightedMode: 0
        inWeight: 0.33333334
        outWeight: 0.33333334
      m_PreInfinity: 2
      m_PostInfinity: 2
      m_RotationOrder: 4
    attribute: localEulerAnglesRaw.z
    path: gun
    classID: 224
    script: {fileID: 0}
  - curve:
      serializedVersion: 2
      m_Curve:
      - serializedVersion: 3
        time: 0
        value: 60.8
        inSlope: 0
        outSlope: 0
        tangentMode: 136
        weightedMode: 0
        inWeight: 0.33333334
        outWeight: 0.33333334
      - serializedVersion: 3
        time: 0.6666667
        value: 60.5
        inSlope: 0
        outSlope: 0
        tangentMode: 136
        weightedMode: 0
        inWeight: 0.33333334
        outWeight: 0.33333334
      - serializedVersion: 3
        time: 1.1166667
        value: 60.8
        inSlope: 0.84615856
        outSlope: 0.84615856
        tangentMode: 136
        weightedMode: 0
        inWeight: 0.33333334
        outWeight: 0.33333334
      - serializedVersion: 3
        time: 1.9666667
        value: 61.600006
        inSlope: 3.555586
        outSlope: 3.555586
        tangentMode: 136
        weightedMode: 0
        inWeight: 0.33333334
        outWeight: 0.33333334
      - serializedVersion: 3
        time: 2.0166667
        value: 64.2
        inSlope: 0
        outSlope: 0
        tangentMode: 136
        weightedMode: 0
        inWeight: 0.33333334
        outWeight: 0.33333334
      - serializedVersion: 3
        time: 2.15
        value: 61.1
        inSlope: 0
        outSlope: 0
        tangentMode: 136
        weightedMode: 0
        inWeight: 0.33333334
        outWeight: 0.33333334
      - serializedVersion: 3
        time: 2.1666667
        value: 61.100006
        inSlope: 0
        outSlope: 0
        tangentMode: 136
        weightedMode: 0
        inWeight: 0.33333334
        outWeight: 0.33333334
      m_PreInfinity: 2
      m_PostInfinity: 2
      m_RotationOrder: 4
    attribute: m_AnchoredPosition.x
    path: gun
    classID: 224
    script: {fileID: 0}
  - curve:
      serializedVersion: 2
      m_Curve:
      - serializedVersion: 3
        time: 0
        value: 0
        inSlope: 0
        outSlope: 0
        tangentMode: 136
        weightedMode: 0
        inWeight: 0.33333334
        outWeight: 0.33333334
      - serializedVersion: 3
        time: 0.25
        value: -2
        inSlope: 0
        outSlope: 0
        tangentMode: 136
        weightedMode: 0
        inWeight: 0.33333334
        outWeight: 0.33333334
      - serializedVersion: 3
        time: 0.6666667
        value: 0.0000021458
        inSlope: 4.040816
        outSlope: 4.040816
        tangentMode: 136
        weightedMode: 0
        inWeight: 0.33333334
        outWeight: 0.33333334
      - serializedVersion: 3
        time: 1.0666667
        value: 1.3
        inSlope: 0
        outSlope: 0
        tangentMode: 136
        weightedMode: 0
        inWeight: 0.33333334
        outWeight: 0.33333334
      - serializedVersion: 3
        time: 1.1166667
        value: -1.4
        inSlope: 0
        outSlope: 0
        tangentMode: 136
        weightedMode: 0
        inWeight: 0.33333334
        outWeight: 0.33333334
      - serializedVersion: 3
        time: 1.2
        value: -0.0000060797
        inSlope: 0.000028469982
        outSlope: 0.000028469982
        tangentMode: 136
        weightedMode: 0
        inWeight: 0.33333334
        outWeight: 0.33333334
      - serializedVersion: 3
        time: 1.9666667
        value: 0
        inSlope: 0.000029778126
        outSlope: 0.000029778126
        tangentMode: 136
        weightedMode: 0
        inWeight: 0.33333334
        outWeight: 0.33333334
      - serializedVersion: 3
        time: 2.0166667
        value: 2.3
        inSlope: 42.000042
        outSlope: 42.000042
        tangentMode: 136
        weightedMode: 0
        inWeight: 0.33333334
        outWeight: 0.33333334
      - serializedVersion: 3
        time: 2.0333333
        value: 3
        inSlope: 0
        outSlope: 0
        tangentMode: 136
        weightedMode: 0
        inWeight: 0.33333334
        outWeight: 0.33333334
      - serializedVersion: 3
        time: 2.15
        value: -0.0000030994
        inSlope: 0
        outSlope: 0
        tangentMode: 136
        weightedMode: 0
        inWeight: 0.33333334
        outWeight: 0.33333334
      - serializedVersion: 3
        time: 2.1666667
        value: 0
        inSlope: 0
        outSlope: 0
        tangentMode: 136
        weightedMode: 0
        inWeight: 0.33333334
        outWeight: 0.33333334
      - serializedVersion: 3
        time: 2.6833334
        value: -1.3
        inSlope: 0
        outSlope: 0
        tangentMode: 136
        weightedMode: 0
        inWeight: 0.33333334
        outWeight: 0.33333334
      - serializedVersion: 3
        time: 2.9666667
        value: -0.4
        inSlope: 0
        outSlope: 0
        tangentMode: 136
        weightedMode: 0
        inWeight: 0.33333334
        outWeight: 0.33333334
      m_PreInfinity: 2
      m_PostInfinity: 2
      m_RotationOrder: 4
    attribute: m_AnchoredPosition.y
    path: gun
    classID: 224
    script: {fileID: 0}
  - curve:
      serializedVersion: 2
      m_Curve:
      - serializedVersion: 3
        time: 0
        value: 1
        inSlope: Infinity
        outSlope: Infinity
        tangentMode: 103
        weightedMode: 0
        inWeight: 0
        outWeight: 0
      m_PreInfinity: 2
      m_PostInfinity: 2
      m_RotationOrder: 4
    attribute: m_IsActive
    path: male
    classID: 1
    script: {fileID: 0}
  - curve:
      serializedVersion: 2
      m_Curve:
      - serializedVersion: 3
        time: 0
        value: 7.6
        inSlope: 0
        outSlope: 0
        tangentMode: 136
        weightedMode: 0
        inWeight: 0.33333334
        outWeight: 0.33333334
      - serializedVersion: 3
        time: 2.1666667
        value: 6.6
        inSlope: -1.3181819
        outSlope: -1.3181819
        tangentMode: 136
        weightedMode: 0
        inWeight: 0.33333334
        outWeight: 0.33333334
      - serializedVersion: 3
        time: 2.2
        value: 4.7
        inSlope: 0
        outSlope: 0
        tangentMode: 136
        weightedMode: 0
        inWeight: 0.33333334
        outWeight: 0.33333334
      m_PreInfinity: 2
      m_PostInfinity: 2
      m_RotationOrder: 4
    attribute: m_AnchoredPosition.x
    path: male
    classID: 224
    script: {fileID: 0}
  m_EulerEditorCurves:
  - curve:
      serializedVersion: 2
      m_Curve: []
      m_PreInfinity: 2
      m_PostInfinity: 2
      m_RotationOrder: 4
    attribute: m_LocalEulerAngles.x
    path: Image
    classID: 224
    script: {fileID: 0}
  - curve:
      serializedVersion: 2
      m_Curve: []
      m_PreInfinity: 2
      m_PostInfinity: 2
      m_RotationOrder: 4
    attribute: m_LocalEulerAngles.y
    path: Image
    classID: 224
    script: {fileID: 0}
  - curve:
      serializedVersion: 2
      m_Curve: []
      m_PreInfinity: 2
      m_PostInfinity: 2
      m_RotationOrder: 4
    attribute: m_LocalEulerAngles.z
    path: Image
    classID: 224
    script: {fileID: 0}
  - curve:
      serializedVersion: 2
      m_Curve: []
      m_PreInfinity: 2
      m_PostInfinity: 2
      m_RotationOrder: 4
    attribute: m_LocalEulerAngles.x
    path: gun
    classID: 224
    script: {fileID: 0}
  - curve:
      serializedVersion: 2
      m_Curve: []
      m_PreInfinity: 2
      m_PostInfinity: 2
      m_RotationOrder: 4
    attribute: m_LocalEulerAngles.y
    path: gun
    classID: 224
    script: {fileID: 0}
  - curve:
      serializedVersion: 2
      m_Curve: []
      m_PreInfinity: 2
      m_PostInfinity: 2
      m_RotationOrder: 4
    attribute: m_LocalEulerAngles.z
    path: gun
    classID: 224
    script: {fileID: 0}
  m_HasGenericRootTransform: 0
  m_HasMotionFloatCurves: 0
  m_Events:
  - time: 3.15
    functionName: f_OnAnimationDone
    data: 
    objectReferenceParameter: {fileID: 0}
    floatParameter: 0
    intParameter: 0
    messageOptions: 0
