{
"skeleton": {
	"hash": "VIyFDDUWvoyAQ6EF6U8PFFBO7MQ",
	"spine": "3.8.0",
	"x": -124.14,
	"y": -220.62,
	"width": 252,
	"height": 559.22,
	"images": "C:/Users/Legion/Desktop/redrain_atlas/Casino/Spine/Image/aset",
	"audio": ""
},
"bones": [
	{ "name": "root" },
	{ "name": "Rok", "parent": "root", "length": 81.16, "rotation": -90, "x": -0.98, "y": -26.54 },
	{ "name": "kaki_kanan_1", "parent": "Rok", "length": 91.98, "rotation": 7.01, "x": 18.92, "y": -30.76 },
	{ "name": "kaki_kanan_2", "parent": "kaki_kanan_1", "length": 74.49, "rotation": -5.44, "x": 91.98 },
	{ "name": "kaki_kiri_1", "parent": "Rok", "length": 97.37, "rotation": -8.13, "x": 16.88, "y": 37.07 },
	{ "name": "kaki_kiri_2", "parent": "kaki_kiri_1", "length": 72.99, "rotation": 5.73, "x": 97.37 },
	{ "name": "badan", "parent": "root", "length": 80.28, "rotation": 89.54, "x": -0.04, "y": 28.82 },
	{ "name": "tangan_kanan_1", "parent": "badan", "length": 69.24, "rotation": 160.48, "x": 84.68, "y": 42.46 },
	{ "name": "tangan_kanan_2", "parent": "tangan_kanan_1", "length": 86.56, "x": 69.24 },
	{ "name": "tangan_kiri_1", "parent": "badan", "length": 68.49, "rotation": -158.88, "x": 86.84, "y": -41.83 },
	{ "name": "tangan_kiri_2", "parent": "tangan_kiri_1", "length": 88.55, "rotation": -1.81, "x": 68.49 },
	{ "name": "head", "parent": "badan", "length": 83.19, "rotation": 0.01, "x": 96.13, "y": 0.19 },
	{ "name": "hair", "parent": "head", "length": 47.62, "rotation": 0.94, "x": 119.28, "y": 2.18 },
	{ "name": "body", "parent": "root", "length": 102.76, "rotation": 90.39, "x": 2.05, "y": 23.59 },
	{ "name": "tangan_kanan_3", "parent": "body", "length": 67.12, "rotation": -172.01, "x": 80.25, "y": -19.42 },
	{ "name": "tangan_kanan_4", "parent": "tangan_kanan_3", "length": 73.35, "rotation": -0.72, "x": 67.12 },
	{ "name": "tangan_kanan_5", "parent": "tangan_kanan_4", "length": 35.81, "rotation": 30.99, "x": 73.35 },
	{ "name": "tangan_kiri_3", "parent": "body", "length": 64.97, "rotation": 171.01, "x": 79.05, "y": 6.68 },
	{ "name": "tangan_kiri_4", "parent": "tangan_kiri_3", "length": 53.64, "rotation": -4.28, "x": 64.97 },
	{ "name": "tangan_kiri3", "parent": "tangan_kiri_4", "length": 38.13, "rotation": -42.5, "x": 53.64 },
	{ "name": "head2", "parent": "body", "length": 144.92, "rotation": -0.09, "x": 126.04, "y": -3.35 },
	{ "name": "hair_1", "parent": "head2", "length": 73.99, "rotation": 1.44, "x": 69.05, "y": 62.39 },
	{ "name": "hair_2", "parent": "head2", "length": 120.86, "rotation": -171.76, "x": 138.41, "y": -103.8 },
	{ "name": "kaki_kiri_3", "parent": "body", "length": 79.18, "rotation": -174.29, "x": -59.21, "y": -0.17 },
	{ "name": "kaki_kiri_4", "parent": "kaki_kiri_3", "length": 79.37, "rotation": -4.36, "x": 79.18 },
	{ "name": "kaki_kiri_5", "parent": "kaki_kiri_4", "length": 42.18, "rotation": -58.95, "x": 79.37 },
	{ "name": "kaki_kanan_3", "parent": "body", "length": 68.51, "rotation": 179.61, "x": -97.17, "y": -13.73 },
	{ "name": "kaki_kanan_4", "parent": "kaki_kanan_3", "length": 45.25, "rotation": -59.69, "x": 68.51 }
],
"slots": [
	{ "name": "Tangan_Kiri", "bone": "root", "attachment": "Tangan_Kiri" },
	{ "name": "Tangan_Kanan", "bone": "root", "attachment": "Tangan_Kanan" },
	{ "name": "Kaki_Kiri", "bone": "root", "attachment": "Kaki_Kiri" },
	{ "name": "Kaki_Kanan", "bone": "root", "attachment": "Kaki_Kanan" },
	{ "name": "Hipps", "bone": "root", "attachment": "Hipps" },
	{ "name": "Badan", "bone": "root", "attachment": "Badan" },
	{ "name": "Head", "bone": "root", "attachment": "Head" }
],
"skins": [
	{
		"name": "Back",
		"attachments": {
			"Kaki_Kiri": {
				"Kaki_Kiri": {
					"name": "Npc3/back/leg1",
					"type": "mesh",
					"uvs": [ 0.24795, 0, 0.31968, 0, 0.68026, 0.01099, 0.87842, 0.04604, 0.97945, 0.09185, 0.97943, 0.12362, 1, 0.16212, 1, 0.20215, 0.91494, 0.28313, 0.83563, 0.31673, 0.78177, 0.35383, 0.89719, 0.47215, 0.70658, 0.60741, 0.66166, 0.63147, 0.8979, 0.79908, 0.89809, 0.85792, 0.8423, 0.895, 0.54861, 0.9943, 0.39639, 0.9856, 0.29168, 0.98524, 0.04045, 0.90634, 0, 0.89165, 0, 0.78255, 0.08758, 0.6948, 0.10372, 0.66424, 0.10328, 0.43193, 0.05996, 0.35071, 0.03469, 0.17625, 0.06709, 0.06507 ],
					"triangles": [ 17, 18, 16, 16, 18, 20, 18, 19, 20, 16, 20, 15, 15, 20, 21, 14, 22, 23, 15, 22, 14, 14, 23, 13, 23, 24, 13, 15, 21, 22, 13, 24, 12, 12, 24, 25, 12, 25, 11, 25, 10, 11, 25, 26, 10, 10, 26, 9, 5, 9, 27, 5, 27, 28, 2, 28, 1, 28, 0, 1, 9, 26, 27, 9, 7, 8, 2, 5, 28, 6, 7, 9, 3, 5, 2, 6, 9, 5, 5, 3, 4 ],
					"vertices": [ 1, 4, 4.58, -17.74, 1, 1, 4, 4.09, -14.33, 1, 1, 4, 3.85, 3.12, 1, 1, 4, 9.55, 13.54, 1, 1, 4, 18.07, 19.66, 1, 1, 4, 24.45, 20.57, 1, 1, 4, 32.05, 22.65, 1, 1, 4, 40.09, 23.8, 1, 1, 4, 56.95, 22.09, 1, 2, 4, 64.24, 19.28, 0.99996, 5, -31.04, 22.49, 4.0E-5, 2, 4, 72.06, 17.79, 0.98892, 5, -23.41, 20.22, 0.01108, 2, 4, 95.05, 26.67, 0.51569, 5, 0.36, 26.77, 0.48431, 2, 4, 123.53, 21.49, 0.00425, 5, 28.17, 18.78, 0.99575, 1, 5, 33.14, 16.83, 1, 1, 5, 66.66, 29.58, 1, 1, 5, 78.6, 30.09, 1, 1, 5, 86.23, 27.73, 1, 1, 5, 106.96, 14.49, 1, 1, 5, 105.5, 7.12, 1, 1, 5, 105.64, 2.09, 1, 1, 5, 90.14, -10.63, 1, 1, 5, 87.24, -12.69, 1, 1, 5, 65.12, -13.62, 1, 1, 5, 47.14, -10.17, 1, 1, 5, 40.91, -9.65, 1, 2, 4, 92.36, -12.21, 0.85116, 5, -6.2, -11.65, 0.14884, 1, 4, 76.33, -16.6, 1, 1, 4, 41.44, -22.81, 1, 1, 4, 18.88, -24.46, 1 ],
					"hull": 29,
					"edges": [ 0, 56, 0, 2, 2, 4, 4, 6, 6, 8, 8, 10, 10, 12, 12, 14, 14, 16, 16, 18, 18, 20, 20, 22, 22, 24, 24, 26, 26, 28, 28, 30, 30, 32, 32, 34, 34, 36, 36, 38, 38, 40, 40, 42, 42, 44, 44, 46, 46, 48, 48, 50, 50, 52, 52, 54, 54, 56 ],
					"width": 48,
					"height": 203
				}
			},
			"Tangan_Kiri": {
				"Tangan_Kiri": {
					"name": "Npc3/back/hand1",
					"type": "mesh",
					"uvs": [ 0.20067, 0, 0.25823, 0.00768, 0.34122, 0.05153, 0.3905, 0.11799, 0.4786, 0.27034, 0.49454, 0.29045, 0.64376, 0.45149, 0.70706, 0.53714, 0.79201, 0.70173, 0.77533, 0.72032, 0.87907, 0.8078, 0.95169, 0.92229, 1, 0.97317, 1, 0.97886, 0.9591, 1, 0.88535, 0.99797, 0.81989, 0.97393, 0.702, 0.87258, 0.68983, 0.96897, 0.61629, 0.98893, 0.57695, 0.96896, 0.51887, 0.85867, 0.54582, 0.75415, 0.51979, 0.71775, 0.27951, 0.51696, 0.25884, 0.42174, 0.23686, 0.40259, 0.00896, 0.17126, 0, 0.13753, 0, 0.06523, 0.01667, 0.02049, 0.05918, 0, 0.09525, 0 ],
					"triangles": [ 13, 14, 12, 12, 14, 15, 19, 20, 18, 12, 15, 11, 15, 16, 11, 11, 16, 17, 18, 20, 17, 20, 21, 17, 17, 10, 11, 21, 22, 17, 17, 9, 10, 17, 22, 9, 22, 23, 9, 9, 23, 8, 23, 7, 8, 7, 24, 6, 7, 23, 24, 24, 25, 6, 25, 5, 6, 25, 26, 5, 4, 26, 27, 29, 31, 3, 31, 29, 30, 0, 3, 31, 26, 4, 5, 4, 27, 3, 2, 3, 1, 1, 3, 0, 31, 32, 0, 27, 28, 3, 29, 3, 28 ],
					"vertices": [ 1, 9, -8.19, 3.25, 1, 1, 9, -2.5, 7.5, 1, 1, 9, 8.66, 12.51, 1, 1, 9, 22.79, 12.67, 1, 2, 9, 54.24, 10.6, 0.93343, 10, -14.58, 10.15, 0.06657, 2, 9, 58.55, 10.75, 0.81916, 10, -10.27, 10.43, 0.18084, 1, 10, 24.92, 14.82, 1, 1, 10, 43.09, 15.57, 1, 1, 10, 76.79, 13.41, 1, 1, 10, 79.71, 10.58, 1, 1, 10, 99.59, 15.2, 1, 1, 10, 123.48, 15.03, 1, 1, 10, 134.64, 16.53, 1, 1, 10, 135.71, 16.17, 1, 1, 10, 138.29, 10.79, 1, 1, 10, 135.44, 3.66, 1, 1, 10, 128.73, -1.25, 1, 1, 10, 105.78, -6.37, 1, 1, 10, 123.44, -13.73, 1, 1, 10, 124.71, -22.24, 1, 1, 10, 119.64, -24.84, 1, 1, 10, 97.03, -23.51, 1, 1, 10, 78.35, -14.17, 1, 1, 10, 70.65, -14.41, 1, 1, 10, 24.95, -25.22, 1, 2, 9, 74.23, -21.36, 0.14819, 10, 6.42, -21.16, 0.85181, 2, 9, 69.88, -22.16, 0.34445, 10, 2.09, -22.1, 0.65555, 1, 9, 18.66, -28.18, 1, 1, 9, 11.72, -27.67, 1, 1, 9, -1.67, -22.6, 1, 1, 9, -8.99, -16.9, 1, 1, 9, -11.72, -11.15, 1, 1, 9, -12.06, -7.01, 1 ],
					"hull": 33,
					"edges": [ 0, 64, 0, 2, 2, 4, 4, 6, 6, 8, 8, 10, 10, 12, 12, 14, 14, 16, 16, 18, 18, 20, 20, 22, 22, 24, 24, 26, 26, 28, 28, 30, 30, 32, 32, 34, 34, 36, 36, 38, 38, 40, 40, 42, 42, 44, 44, 46, 46, 48, 48, 50, 50, 52, 52, 54, 54, 56, 56, 58, 58, 60, 60, 62, 62, 64 ],
					"width": 104,
					"height": 198
				}
			},
			"Head": {
				"Head": {
					"name": "Npc3/back/head",
					"type": "mesh",
					"uvs": [ 1, 0.99142, 0, 0.99142, 0, 0.00858, 1, 0.00858 ],
					"triangles": [ 1, 2, 3, 1, 3, 0 ],
					"vertices": [ 2, 11, -14.34, -127.44, 0.97261, 12, -135.73, -127.4, 0.02739, 2, 11, -16.32, 124.56, 0.81818, 12, -133.58, 124.59, 0.18182, 2, 11, 212.67, 126.36, 0.01581, 12, 95.41, 122.63, 0.98419, 2, 11, 214.65, -125.63, 0.08105, 12, 93.26, -129.36, 0.91895 ],
					"hull": 4,
					"edges": [ 0, 2, 2, 4, 4, 6, 0, 6 ],
					"width": 248,
					"height": 233
				}
			},
			"Badan": {
				"Badan": {
					"name": "Npc3/back/body",
					"type": "mesh",
					"uvs": [ 0.76229, 0.03651, 0.96706, 0.20994, 0.98365, 0.31, 0.995, 0.46674, 0.94689, 0.67339, 0.90816, 0.7657, 0.97337, 0.78243, 0.89828, 0.79789, 0.89839, 0.98124, 0.86084, 0.99162, 0.13821, 0.99155, 0.09242, 0.9485, 0.09233, 0.89994, 0.08335, 0.73683, 0.03722, 0.59982, 0.00642, 0.44388, 0.01072, 0.334, 0.09115, 0.17297, 0.14808, 0.08505, 0.22828, 0.00844, 0.73358, 0.0084 ],
					"triangles": [ 17, 15, 16, 14, 15, 17, 18, 0, 3, 2, 0, 1, 3, 0, 2, 18, 13, 14, 3, 4, 18, 4, 5, 18, 7, 5, 6, 17, 18, 14, 5, 12, 13, 19, 20, 0, 18, 19, 0, 18, 5, 13, 7, 12, 5, 12, 10, 11, 7, 10, 12, 10, 7, 9, 8, 9, 7 ],
					"vertices": [ 1, 6, 92.09, -30.37, 1, 1, 6, 71.98, -52.65, 1, 1, 6, 60.29, -54.53, 1, 1, 6, 41.96, -55.91, 1, 1, 6, 17.74, -50.91, 1, 1, 6, 6.9, -46.81, 1, 1, 6, 5, -53.87, 1, 1, 6, 3.13, -45.77, 1, 1, 6, -18.32, -45.96, 1, 1, 6, -19.57, -41.91, 1, 1, 6, -20.19, 36.13, 1, 1, 6, -15.2, 41.11, 1, 1, 6, -9.51, 41.17, 1, 1, 6, 9.56, 42.29, 1, 1, 6, 25.55, 47.41, 1, 1, 6, 43.77, 50.88, 1, 1, 6, 56.63, 50.52, 1, 1, 6, 75.54, 41.98, 1, 1, 6, 85.87, 35.92, 1, 1, 6, 94.91, 27.33, 1, 1, 6, 95.35, -27.24, 1 ],
					"hull": 21,
					"edges": [ 0, 40, 0, 2, 2, 4, 4, 6, 6, 8, 8, 10, 10, 12, 12, 14, 14, 16, 16, 18, 18, 20, 20, 22, 22, 24, 24, 26, 26, 28, 28, 30, 30, 32, 32, 34, 34, 36, 36, 38, 38, 40 ],
					"width": 108,
					"height": 117
				}
			},
			"Tangan_Kanan": {
				"Tangan_Kanan": {
					"name": "Npc3/back/hand2",
					"type": "mesh",
					"uvs": [ 0.91481, 0, 0.96864, 0.00662, 0.99901, 0.03917, 1, 0.0989, 0.8679, 0.26513, 0.73726, 0.39113, 0.69366, 0.41703, 0.69431, 0.48192, 0.6453, 0.55086, 0.46286, 0.7024, 0.42513, 0.7582, 0.4582, 0.86516, 0.38841, 0.97947, 0.29841, 0.98039, 0.27472, 0.8706, 0.16574, 0.97158, 0.07568, 0.99959, 0.01746, 1, 0, 0.97092, 0.10882, 0.80734, 0.2119, 0.70752, 0.25082, 0.57961, 0.32548, 0.4557, 0.46607, 0.31361, 0.6006, 0.08226, 0.6494, 0.04249, 0.71551, 0.00635, 0.7621, 0 ],
					"triangles": [ 17, 18, 16, 16, 18, 15, 12, 13, 14, 12, 14, 11, 14, 15, 19, 15, 18, 19, 19, 20, 14, 14, 10, 11, 14, 20, 10, 10, 20, 9, 20, 21, 9, 9, 21, 8, 21, 22, 8, 8, 22, 7, 22, 6, 7, 22, 23, 6, 6, 23, 5, 5, 23, 4, 23, 24, 4, 4, 24, 3, 3, 24, 25, 3, 25, 26, 3, 27, 2, 1, 2, 0, 0, 2, 27, 3, 26, 27 ],
					"vertices": [ 1, 7, -13.29, 11.98, 1, 1, 7, -12.01, 18.63, 1, 1, 7, -7.04, 23.93, 1, 1, 7, 4.09, 28.09, 1, 1, 7, 40.05, 25.99, 1, 2, 7, 68.44, 21.3, 0.54483, 8, -0.81, 21.3, 0.45517, 2, 7, 74.89, 18.63, 0.20996, 8, 5.65, 18.63, 0.79004, 2, 7, 87.01, 23.11, 0.00316, 8, 17.76, 23.11, 0.99684, 1, 8, 32.46, 22.83, 1, 1, 8, 67.54, 14.62, 1, 1, 8, 79.36, 14.58, 1, 1, 8, 98.15, 25.21, 1, 1, 8, 122.1, 25.9, 1, 1, 8, 125.59, 16.83, 1, 1, 8, 105.94, 6.96, 1, 1, 8, 128.84, 2.76, 1, 1, 8, 137.41, -4.47, 1, 1, 8, 139.63, -10.35, 1, 1, 8, 135.21, -15.13, 1, 1, 8, 100.23, -14.18, 1, 1, 8, 77.76, -10.51, 1, 1, 8, 52.4, -15.26, 1, 1, 8, 26.47, -16.11, 1, 2, 7, 63.95, -11.5, 0.70725, 8, -5.29, -11.5, 0.29275, 1, 7, 15.72, -13.58, 1, 1, 7, 6.48, -11.33, 1, 1, 7, -2.72, -7.08, 1, 1, 7, -7.61, -3.5, 1 ],
					"hull": 28,
					"edges": [ 0, 54, 0, 2, 2, 4, 4, 6, 6, 8, 8, 10, 10, 12, 12, 14, 14, 16, 16, 18, 18, 20, 20, 22, 22, 24, 24, 26, 26, 28, 28, 30, 30, 32, 32, 34, 34, 36, 36, 38, 38, 40, 40, 42, 42, 44, 44, 46, 46, 48, 48, 50, 50, 52, 52, 54 ],
					"width": 108,
					"height": 199
				}
			},
			"Hipps": {
				"Hipps": {
					"name": "Npc3/back/skirt",
					"type": "mesh",
					"uvs": [ 0.62684, 0, 0.74245, 0, 0.82581, 0.0194, 0.85975, 0.07463, 0.92684, 0.18404, 0.992, 0.37042, 1, 0.49019, 0.99959, 0.92846, 0.98426, 0.96366, 0.9563, 0.97911, 0.85752, 0.97975, 0.66532, 0.93416, 0.49036, 0.85059, 0.47171, 0.88165, 0.24051, 0.99991, 0.09314, 1, 0.0136, 0.96197, 0, 0.93769, 1.3E-4, 0.67566, 0.01775, 0.58509, 0.03141, 0.36375, 0.06161, 0.26025, 0.17095, 0.05346, 0.19397, 0.02404, 0.28159, 0, 0.38541, 0 ],
					"triangles": [ 21, 0, 4, 21, 25, 0, 1, 3, 0, 3, 1, 2, 4, 0, 3, 12, 4, 5, 12, 5, 6, 21, 22, 24, 22, 23, 24, 21, 24, 25, 4, 12, 21, 20, 21, 12, 19, 20, 12, 18, 19, 12, 13, 18, 12, 6, 11, 12, 6, 10, 11, 15, 16, 17, 15, 17, 18, 10, 6, 7, 8, 9, 7, 9, 10, 7, 13, 14, 18, 14, 15, 18 ],
					"vertices": [ 3, 1, -59.49, 21.73, 0.72626, 2, -71.42, 61.66, 0.01444, 4, -73.43, -25.98, 0.2593, 3, 1, -55.18, 37.68, 0.61698, 2, -65.19, 76.97, 0.00146, 4, -71.42, -9.58, 0.38156, 2, 1, -49.61, 49.18, 0.53288, 4, -67.53, 2.6, 0.46712, 2, 1, -41.6, 53.87, 0.4669, 4, -60.27, 8.36, 0.5331, 2, 1, -25.73, 63.13, 0.2845, 4, -45.87, 19.77, 0.7155, 2, 1, 1.29, 72.12, 0.04075, 4, -20.39, 32.5, 0.95925, 2, 1, 18.66, 73.22, 5.2E-4, 4, -3.35, 36.05, 0.99948, 1, 4, 59.57, 44.98, 1, 1, 4, 64.92, 43.6, 1, 1, 4, 67.68, 40.1, 1, 1, 4, 69.7, 26.62, 1, 2, 1, 83.03, 27.04, 0.00231, 4, 66.91, -0.57, 0.99769, 2, 1, 70.92, 2.89, 0.93088, 4, 58.33, -26.19, 0.06912, 2, 1, 75.42, 0.32, 0.9994, 2, 59.87, 23.96, 6.0E-4, 1, 2, 73, -9.8, 1, 1, 2, 70.53, -29.99, 1, 1, 2, 63.72, -40.21, 1, 1, 2, 59.81, -43.17, 1, 1, 2, 22.29, -36.99, 1, 1, 2, 9.55, -32.97, 1, 2, 1, 0.32, -60.44, 0.11223, 2, -22.08, -27.19, 0.88777, 2, 1, -14.68, -56.27, 0.28788, 2, -36.46, -21.22, 0.71212, 3, 1, -44.67, -41.19, 0.67252, 2, -64.38, -2.59, 0.32517, 4, -49.86, -86.17, 0.00231, 3, 1, -48.93, -38.01, 0.70201, 2, -68.23, 1.09, 0.29328, 4, -54.53, -83.63, 0.00471, 3, 1, -54.92, -25.92, 0.77022, 2, -72.7, 13.82, 0.20864, 4, -62.17, -72.5, 0.02114, 3, 1, -59.47, -11.59, 0.81392, 2, -75.47, 28.59, 0.12482, 4, -68.7, -58.96, 0.06125 ],
					"hull": 26,
					"edges": [ 0, 50, 0, 2, 2, 4, 4, 6, 6, 8, 8, 10, 10, 12, 12, 14, 14, 16, 16, 18, 18, 20, 20, 22, 22, 24, 24, 26, 26, 28, 28, 30, 30, 32, 32, 34, 34, 36, 36, 38, 38, 40, 40, 42, 42, 44, 44, 46, 46, 48, 48, 50 ],
					"width": 138,
					"height": 145
				}
			},
			"Kaki_Kanan": {
				"Kaki_Kanan": {
					"name": "Npc3/back/leg2",
					"type": "mesh",
					"uvs": [ 0.61035, 0.00484, 0.7923, 0.00509, 0.89905, 0.03148, 0.91685, 0.04433, 0.91851, 0.14333, 0.83109, 0.36412, 0.84485, 0.48265, 0.89306, 0.67309, 0.89864, 0.74769, 0.98061, 0.79914, 0.97977, 0.88387, 0.83392, 0.93826, 0.71877, 0.99502, 0.35571, 0.99508, 0.14903, 0.91954, 0.05174, 0.87266, 0.02778, 0.80117, 0.24953, 0.67808, 0.08196, 0.52992, 0.08339, 0.38362, 0.12114, 0.3665, 0.01991, 0.27931, 0.01986, 0.09324, 0.10962, 0.04861, 0.3797, 0.01412 ],
					"triangles": [ 12, 13, 11, 11, 13, 14, 11, 14, 10, 14, 15, 10, 10, 15, 9, 9, 16, 8, 8, 16, 17, 16, 9, 15, 17, 7, 8, 17, 18, 6, 6, 18, 19, 17, 6, 7, 6, 20, 5, 20, 6, 19, 20, 21, 5, 5, 21, 4, 24, 4, 22, 4, 24, 3, 2, 3, 0, 23, 24, 22, 2, 0, 1, 0, 3, 24, 4, 21, 22 ],
					"vertices": [ 1, 2, 12.1, 13.99, 1, 1, 2, 13.21, 22.65, 1, 1, 2, 18.92, 27.11, 1, 1, 2, 21.5, 27.66, 1, 1, 2, 40.57, 25.39, 1, 2, 2, 82.57, 16, 0.93225, 3, -10.88, 15.04, 0.06775, 2, 2, 105.47, 13.86, 0.02794, 3, 12.12, 15.07, 0.97206, 1, 3, 49.12, 16.37, 1, 1, 3, 63.59, 16.24, 1, 1, 3, 73.68, 19.9, 1, 1, 3, 90.11, 19.41, 1, 1, 3, 100.46, 12.13, 1, 1, 3, 111.32, 6.3, 1, 1, 3, 110.85, -11.12, 1, 1, 3, 95.93, -20.64, 1, 1, 3, 86.71, -25.06, 1, 1, 3, 72.82, -25.83, 1, 1, 3, 49.24, -14.53, 1, 2, 2, 110.11, -23.61, 0.00892, 3, 20.29, -21.78, 0.99108, 2, 2, 81.95, -20.08, 0.78007, 3, -8.08, -20.94, 0.21993, 2, 2, 78.87, -17.87, 0.88582, 3, -11.35, -19.04, 0.11418, 1, 2, 61.49, -20.63, 1, 1, 2, 25.66, -16.23, 1, 1, 2, 17.59, -10.9, 1, 1, 2, 12.53, 2.78, 1 ],
					"hull": 25,
					"edges": [ 0, 48, 0, 2, 2, 4, 4, 6, 6, 8, 8, 10, 10, 12, 12, 14, 14, 16, 16, 18, 18, 20, 20, 22, 22, 24, 24, 26, 26, 28, 28, 30, 30, 32, 32, 34, 34, 36, 36, 38, 38, 40, 40, 42, 42, 44, 44, 46, 46, 48 ],
					"width": 48,
					"height": 194
				}
			}
		}
	},
	{
		"name": "Front",
		"attachments": {
			"Kaki_Kiri": {
				"Kaki_Kiri": { "name": "Npc3/front/leg1", "type": "linkedmesh", "skin": "Back", "parent": "Kaki_Kiri", "width": 51, "height": 209 }
			},
			"Tangan_Kiri": {
				"Tangan_Kiri": { "name": "Npc3/front/hand1", "type": "linkedmesh", "skin": "Back", "parent": "Tangan_Kiri", "width": 106, "height": 202 }
			},
			"Head": {
				"Head": { "name": "Npc3/front/head", "type": "linkedmesh", "skin": "Back", "parent": "Head", "width": 252, "height": 229 }
			},
			"Badan": {
				"Badan": { "name": "Npc3/front/body", "type": "linkedmesh", "skin": "Back", "parent": "Badan", "width": 106, "height": 120 }
			},
			"Tangan_Kanan": {
				"Tangan_Kanan": { "name": "Npc3/front/hand2", "type": "linkedmesh", "skin": "Back", "parent": "Tangan_Kanan", "width": 110, "height": 203 }
			},
			"Hipps": {
				"Hipps": { "name": "Npc3/front/skirt", "type": "linkedmesh", "skin": "Back", "parent": "Hipps", "width": 141, "height": 154 }
			},
			"Kaki_Kanan": {
				"Kaki_Kanan": { "name": "Npc3/front/leg2", "type": "linkedmesh", "skin": "Back", "parent": "Kaki_Kanan", "width": 48, "height": 200 }
			}
		}
	},
	{
		"name": "Side",
		"attachments": {
			"Kaki_Kiri": {
				"Kaki_Kiri": {
					"name": "Npc3/side/leg1",
					"type": "mesh",
					"uvs": [ 0.6551, 0.01126, 0.75866, 0.01122, 0.90979, 0.01939, 0.9876, 0.06935, 0.99162, 0.11263, 0.9373, 0.32199, 0.97485, 0.37905, 0.98166, 0.49613, 0.92132, 0.61246, 0.89487, 0.67627, 0.98863, 0.74449, 0.98848, 0.81898, 0.9349, 0.92091, 0.88891, 0.96596, 0.80016, 0.96617, 0.72946, 0.93198, 0.66711, 0.95841, 0.51719, 0.99457, 0.26081, 0.99529, 0.01125, 0.98012, 0.01173, 0.91488, 0.06124, 0.87855, 0.16598, 0.82881, 0.57188, 0.69597, 0.57602, 0.65522, 0.56251, 0.43992, 0.51474, 0.4024, 0.44572, 0.23844, 0.46043, 0.08397, 0.51117, 0.04699 ],
					"triangles": [ 4, 1, 3, 3, 1, 2, 0, 28, 29, 28, 1, 27, 1, 26, 27, 0, 1, 28, 1, 4, 26, 5, 26, 4, 25, 26, 5, 25, 5, 6, 25, 6, 7, 8, 25, 7, 24, 25, 8, 9, 24, 8, 23, 24, 9, 10, 23, 9, 10, 11, 23, 11, 15, 23, 12, 15, 11, 16, 22, 23, 15, 16, 23, 12, 14, 15, 13, 14, 12, 17, 22, 16, 18, 22, 17, 21, 22, 18, 20, 21, 18, 19, 20, 18 ],
					"vertices": [ 1, 23, 12.03, 1.44, 1, 1, 23, 12.96, 10.19, 1, 1, 23, 15.75, 22.81, 1, 1, 23, 25.2, 28.45, 1, 1, 23, 32.81, 27.98, 1, 2, 23, 68.96, 19.48, 0.87727, 24, -11.68, 18.64, 0.12273, 2, 23, 79.28, 21.58, 0.51208, 24, -1.54, 21.53, 0.48792, 2, 23, 99.83, 19.97, 0.01968, 24, 19.07, 21.48, 0.98032, 1, 24, 39.38, 15.74, 1, 1, 24, 50.54, 13.15, 1, 1, 24, 62.78, 20.75, 1, 2, 24, 75.89, 20.34, 0.9162, 25, -19.22, 7.51, 0.0838, 2, 24, 93.68, 15.25, 0.26973, 25, -5.68, 20.13, 0.73027, 2, 24, 101.49, 11.1, 0.10536, 25, 1.9, 24.67, 0.89464, 2, 24, 101.29, 3.56, 0.0593, 25, 8.26, 20.62, 0.9407, 2, 24, 95.1, -2.27, 0.01257, 25, 10.06, 12.31, 0.98743, 1, 25, 17.03, 13.35, 1, 1, 25, 31.19, 11.8, 1, 1, 25, 49.58, 0.1, 1, 1, 25, 65.97, -13.63, 1, 2, 24, 90.24, -63.16, 2.6E-4, 25, 59.72, -23.26, 0.99974, 2, 24, 83.98, -58.76, 0.00389, 25, 52.71, -26.35, 0.99611, 2, 24, 75.5, -49.59, 0.03347, 25, 40.49, -28.89, 0.96653, 2, 24, 53.17, -14.4, 0.88301, 25, -1.18, -29.87, 0.11699, 2, 24, 46.02, -13.83, 0.98167, 25, -5.35, -35.71, 0.01833, 2, 23, 86.21, -14.41, 0.20709, 24, 8.11, -13.83, 0.79291, 2, 23, 79.21, -17.74, 0.57313, 24, 1.38, -17.69, 0.42687, 1, 23, 49.9, -20.51, 1, 1, 23, 23, -16.38, 1, 1, 23, 16.98, -11.4, 1 ],
					"hull": 30,
					"edges": [ 0, 58, 0, 2, 2, 4, 4, 6, 6, 8, 8, 10, 10, 12, 12, 14, 14, 16, 16, 18, 18, 20, 20, 22, 22, 24, 24, 26, 26, 28, 28, 30, 30, 32, 32, 34, 34, 36, 36, 38, 38, 40, 40, 42, 42, 44, 44, 46, 46, 48, 48, 50, 50, 52, 52, 54, 54, 56, 56, 58 ],
					"width": 85,
					"height": 176
				}
			},
			"Tangan_Kiri": {
				"Tangan_Kiri": {
					"name": "Npc3/side/hand1",
					"type": "mesh",
					"uvs": [ 0.24328, 0.08054, 0.48707, 0.12501, 0.60536, 0.21859, 0.59385, 0.35123, 0.57557, 0.35584, 0.66765, 0.5583, 0.66716, 0.73211, 0.71138, 0.78561, 0.9482, 0.87085, 0.99669, 0.91904, 0.9718, 0.97388, 0.91194, 1, 0.88785, 1, 0.72749, 0.9829, 0.55716, 0.93219, 0.50625, 0.92916, 0.50585, 0.96293, 0.41952, 0.99333, 0.36984, 0.97044, 0.34178, 0.87274, 0.3806, 0.82859, 0.38928, 0.79004, 0.19434, 0.61275, 0.11176, 0.31557, 0.07515, 0.29811, 0, 0.21557, 0, 0.21021, 0.02138, 0.16998, 0.08139, 0.10418, 0.24238, 0.08064 ],
					"triangles": [ 1, 25, 26, 26, 27, 1, 24, 25, 1, 29, 0, 1, 27, 28, 29, 27, 29, 1, 2, 24, 1, 2, 23, 24, 2, 4, 23, 3, 4, 2, 22, 23, 4, 22, 4, 5, 6, 22, 5, 21, 22, 6, 21, 6, 7, 7, 20, 21, 7, 14, 20, 14, 15, 20, 19, 20, 15, 8, 14, 7, 13, 14, 8, 15, 18, 19, 16, 18, 15, 8, 9, 13, 10, 13, 9, 17, 18, 16, 12, 13, 10, 11, 12, 10 ],
					"vertices": [ 1, 14, -15.51, 5.39, 1, 1, 14, -1.99, 24.84, 1, 1, 14, 21.46, 31.78, 1, 2, 14, 52.41, 26.21, 0.93545, 15, -15.04, 26.02, 0.06455, 2, 14, 53.26, 24.48, 0.91287, 15, -14.17, 24.3, 0.08713, 1, 15, 34.45, 25.84, 1, 2, 15, 75.27, 20.3, 0.29307, 16, 12.1, 16.41, 0.70693, 2, 15, 88.35, 22.42, 0.01291, 16, 24.4, 11.5, 0.98709, 1, 16, 53.05, 14.97, 1, 1, 16, 64.6, 11.13, 1, 1, 16, 73.4, 1.32, 1, 1, 16, 74.98, -6.62, 1, 1, 16, 73.67, -8.25, 1, 1, 16, 61.79, -16.62, 1, 1, 16, 43.15, -20.68, 1, 1, 16, 39.82, -23.69, 1, 1, 16, 46.05, -28.72, 1, 1, 16, 46.99, -39.08, 1, 1, 16, 40.05, -39.07, 1, 1, 16, 20.44, -26.51, 1, 1, 16, 14.38, -17.34, 1, 2, 15, 85.66, -5.49, 0.00592, 16, 7.72, -11.04, 0.99408, 1, 15, 41.75, -16.69, 1, 1, 14, 37.93, -14.05, 1, 1, 14, 33.37, -16.6, 1, 1, 14, 13.07, -20.22, 1, 1, 14, 11.81, -20.03, 1, 1, 14, 2.65, -16.8, 1, 1, 14, -12.02, -9.36, 1, 1, 14, -15.49, 5.31, 1 ],
					"hull": 30,
					"edges": [ 0, 2, 2, 4, 4, 6, 6, 8, 8, 10, 10, 12, 12, 14, 14, 16, 16, 18, 18, 20, 20, 22, 22, 24, 24, 26, 26, 28, 28, 30, 30, 32, 32, 34, 34, 36, 36, 38, 38, 40, 40, 42, 42, 44, 44, 46, 46, 48, 48, 50, 50, 52, 52, 54, 54, 56, 56, 58, 58, 0 ],
					"width": 87,
					"height": 237
				}
			},
			"Head": {
				"Head": {
					"name": "Npc3/side/head1",
					"type": "mesh",
					"uvs": [ 1, 0.99142, 0, 0.99142, 0, 0.00858, 1, 0.00858 ],
					"triangles": [ 1, 3, 0, 1, 2, 3 ],
					"vertices": [ 1, 20, -40.68, -123.11, 1, 2, 20, -39.39, 128.88, 0.29298, 21, -106.73, 69.19, 0.70702, 1, 21, 122.17, 62.26, 1, 1, 20, 188.31, -124.29, 1 ],
					"hull": 4,
					"edges": [ 0, 2, 2, 4, 4, 6, 0, 6 ],
					"width": 242,
					"height": 221
				}
			},
			"Badan": {
				"Badan": {
					"name": "Npc3/side/body",
					"type": "mesh",
					"uvs": [ 0.61619, 0.00363, 0.83675, 0.0958, 0.91845, 0.17503, 0.92226, 0.27217, 0.82264, 0.38713, 0.8052, 0.42776, 0.89229, 0.55097, 0.90149, 0.55563, 0.9521, 0.58746, 0.99124, 0.64839, 0.99121, 0.73302, 0.7983, 0.9966, 0.5634, 0.9963, 0.46122, 0.97835, 0.38875, 0.94284, 0.29825, 0.86358, 0.20452, 0.62923, 0.20506, 0.55711, 0.1868, 0.5365, 0.1468, 0.38275, 0.1056, 0.36733, 0.0337, 0.32766, 0.00867, 0.30484, 0.00883, 0.25677, 0.0708, 0.20639, 0.30066, 0.09831, 0.31181, 0.08754, 0.29983, 0.03167, 0.37496, 0.01382, 0.47477, 0.0036 ],
					"triangles": [ 26, 27, 28, 21, 23, 24, 22, 23, 21, 19, 20, 24, 21, 24, 20, 29, 26, 28, 0, 26, 29, 0, 1, 26, 24, 3, 19, 3, 25, 2, 1, 25, 26, 1, 2, 25, 25, 3, 24, 4, 19, 3, 5, 19, 4, 18, 19, 5, 17, 18, 5, 6, 17, 5, 7, 8, 9, 9, 16, 17, 6, 9, 17, 6, 7, 9, 10, 15, 9, 15, 16, 9, 14, 15, 10, 12, 13, 14, 14, 11, 12, 10, 11, 14 ],
					"vertices": [ 1, 13, 117.62, -8.2, 1, 1, 13, 92.75, -32.74, 1, 1, 13, 71.45, -41.74, 1, 1, 13, 45.41, -41.99, 1, 1, 13, 14.68, -30.62, 1, 1, 13, 3.81, -28.6, 1, 1, 13, -29.28, -38.13, 1, 1, 13, -30.53, -39.15, 1, 1, 13, -39.1, -44.76, 1, 1, 13, -55.46, -49.03, 1, 1, 13, -78.14, -48.87, 1, 1, 13, -148.63, -26.79, 1, 1, 13, -148.37, -0.48, 1, 1, 13, -143.49, 10.93, 1, 1, 13, -133.91, 18.98, 1, 1, 13, -112.6, 28.97, 1, 1, 13, -49.73, 39.04, 1, 1, 13, -30.4, 38.85, 1, 1, 13, -24.87, 40.86, 1, 1, 13, 16.37, 45.06, 1, 1, 13, 20.53, 49.65, 1, 1, 13, 31.22, 57.63, 1, 1, 13, 37.35, 60.39, 1, 1, 13, 50.24, 60.28, 1, 1, 13, 63.69, 53.25, 1, 1, 13, 92.48, 27.31, 1, 1, 13, 95.36, 26.04, 1, 1, 13, 110.34, 27.28, 1, 1, 13, 115.07, 18.83, 1, 1, 13, 117.73, 7.64, 1 ],
					"hull": 30,
					"edges": [ 0, 58, 0, 2, 2, 4, 4, 6, 6, 8, 8, 10, 10, 12, 12, 14, 14, 16, 16, 18, 18, 20, 20, 22, 22, 24, 24, 26, 26, 28, 28, 30, 30, 32, 32, 34, 34, 36, 36, 38, 38, 40, 40, 42, 42, 44, 44, 46, 46, 48, 48, 50, 50, 52, 52, 54, 54, 56, 56, 58 ],
					"width": 112,
					"height": 268
				}
			},
			"Tangan_Kanan": {
				"Tangan_Kanan": {
					"name": "Npc3/side/hand2",
					"type": "mesh",
					"uvs": [ 0.75779, 0.08464, 0.91834, 0.10366, 1, 0.19334, 1, 0.21873, 0.91876, 0.30262, 0.88781, 0.31198, 0.81011, 0.60706, 0.61044, 0.79043, 0.61015, 0.81726, 0.65827, 0.87505, 0.62874, 0.97411, 0.59107, 0.98384, 0.52693, 0.98304, 0.46031, 0.93081, 0.33731, 0.96763, 0.18574, 0.99577, 0.07325, 0.99607, 0.01188, 0.95582, 0.01031, 0.91235, 0.04962, 0.8717, 0.29365, 0.7835, 0.33188, 0.7335, 0.33262, 0.55644, 0.41924, 0.36754, 0.40649, 0.34011, 0.39376, 0.23282, 0.48472, 0.13075, 0.75649, 0.07984 ],
					"triangles": [ 26, 27, 0, 1, 2, 0, 2, 3, 5, 0, 2, 26, 3, 4, 5, 2, 25, 26, 5, 25, 2, 24, 25, 5, 23, 24, 5, 6, 23, 5, 22, 23, 6, 21, 22, 6, 7, 21, 6, 20, 21, 7, 8, 20, 7, 13, 20, 8, 13, 8, 9, 19, 20, 13, 14, 18, 19, 18, 15, 17, 19, 13, 14, 10, 13, 9, 12, 13, 10, 11, 12, 10, 14, 15, 18, 16, 17, 15 ],
					"vertices": [ 1, 17, -8.25, 8.99, 1, 1, 17, -4.23, 20.02, 1, 1, 17, 12.97, 25.07, 1, 1, 17, 17.78, 24.89, 1, 1, 17, 33.47, 18.65, 1, 1, 17, 35.16, 16.43, 1, 1, 18, 25.16, 10.86, 1, 1, 19, 6.16, 3.32, 1, 1, 19, 9.8, 6.88, 1, 1, 19, 15.24, 16.96, 1, 1, 19, 30.04, 28.7, 1, 1, 19, 33.2, 28.13, 1, 1, 19, 36.23, 24.85, 1, 1, 19, 32.44, 14.59, 1, 1, 19, 43.42, 13.41, 1, 1, 19, 54.63, 9.65, 1, 1, 19, 60.18, 4.12, 1, 1, 19, 57.75, -4.28, 1, 1, 19, 51.96, -10.15, 1, 1, 19, 44.56, -13.62, 1, 2, 18, 59.94, -23.8, 0.07459, 19, 20.73, -13.29, 0.92541, 2, 18, 50.36, -21.5, 0.40811, 19, 12.11, -18.06, 0.59189, 3, 17, 80.05, -23.9, 0.04344, 18, 16.82, -22.71, 0.95521, 19, -11.81, -41.62, 0.00135, 2, 17, 44.48, -16.55, 0.98937, 18, -19.2, -18.03, 0.01063, 2, 17, 39.25, -17.24, 0.99975, 18, -24.36, -19.11, 2.5E-4, 1, 17, 18.89, -17.37, 1, 1, 17, -0.22, -10.33, 1, 1, 17, -9.16, 8.93, 1 ],
					"hull": 28,
					"edges": [ 0, 2, 2, 4, 4, 6, 6, 8, 8, 10, 10, 12, 12, 14, 14, 16, 16, 18, 18, 20, 20, 22, 22, 24, 24, 26, 26, 28, 28, 30, 30, 32, 32, 34, 34, 36, 36, 38, 38, 40, 40, 42, 42, 44, 44, 46, 46, 48, 48, 50, 50, 52, 52, 54, 54, 0 ],
					"width": 87,
					"height": 237
				}
			},
			"Hipps": {
				"Hipps": {
					"name": "Npc3/front/skirt",
					"type": "linkedmesh",
					"color": "ffffff00",
					"skin": "Back",
					"parent": "Hipps",
					"width": 141,
					"height": 154
				}
			},
			"Kaki_Kanan": {
				"Kaki_Kanan": {
					"name": "Npc3/side/leg2",
					"type": "mesh",
					"uvs": [ 0.75299, 0.02534, 0.82323, 0.03393, 0.90066, 0.06986, 0.96859, 0.13623, 0.95026, 0.24016, 0.8664, 0.34352, 0.85589, 0.36892, 0.85656, 0.51321, 0.74939, 0.68377, 0.81527, 0.76475, 0.81455, 0.82826, 0.72243, 0.9702, 0.65292, 0.989, 0.58441, 0.94853, 0.37751, 1, 0.36763, 1, 0.12792, 0.97249, 0.0104, 0.95057, 0.00888, 0.90092, 0.07631, 0.83302, 0.19818, 0.79535, 0.4911, 0.69468, 0.50436, 0.62042, 0.5289, 0.42975, 0.47383, 0.29171, 0.50431, 0.13439, 0.54116, 0.06663, 0.59434, 0.03352, 0.66307, 0.02488 ],
					"triangles": [ 13, 14, 20, 20, 14, 15, 12, 13, 11, 16, 18, 19, 15, 16, 20, 16, 19, 20, 11, 13, 10, 16, 17, 18, 20, 21, 13, 10, 13, 9, 9, 13, 21, 8, 9, 21, 21, 22, 8, 8, 22, 7, 22, 23, 7, 23, 6, 7, 6, 23, 5, 26, 5, 25, 0, 5, 26, 0, 26, 28, 26, 27, 28, 23, 24, 5, 25, 5, 24, 0, 4, 5, 2, 0, 1, 0, 2, 4, 4, 2, 3 ],
					"vertices": [ 1, 26, -45.43, -12.69, 1, 1, 26, -45.47, -5.74, 1, 1, 26, -41.43, 2.74, 1, 1, 26, -32.54, 11.27, 1, 1, 26, -16.19, 12.78, 1, 1, 26, 1.33, 8.04, 1, 1, 26, 5.44, 7.84, 1, 1, 26, 27.63, 12.41, 1, 1, 26, 55.94, 7.55, 1, 2, 26, 67.13, 16.35, 0.69165, 27, -14.81, 7.06, 0.30835, 2, 26, 76.91, 18.26, 0.35285, 27, -11.53, 16.47, 0.64715, 2, 26, 100.53, 13.95, 0.00472, 27, 4.12, 34.68, 0.99528, 1, 27, 11.45, 35.3, 1, 1, 27, 15.69, 27.14, 1, 1, 27, 37.3, 28.31, 1, 1, 27, 38.2, 28, 1, 1, 27, 58.82, 16.41, 1, 1, 27, 68.5, 9.47, 1, 1, 27, 66.12, 2.05, 1, 1, 27, 56.49, -5.93, 1, 1, 27, 43.39, -7.71, 1, 2, 26, 62.61, -16.66, 0.39606, 27, 11.4, -13.51, 0.60394, 2, 26, 50.93, -17.72, 0.89159, 27, 6.42, -24.13, 0.10841, 1, 26, 21.12, -21.35, 1, 1, 26, 0.94, -30.9, 1, 1, 26, -23.85, -32.92, 1, 1, 26, -34.99, -31.53, 1, 1, 26, -41.11, -27.51, 1, 1, 26, -43.77, -21.25, 1 ],
					"hull": 29,
					"edges": [ 0, 56, 0, 2, 2, 4, 4, 6, 6, 8, 8, 10, 10, 12, 12, 14, 14, 16, 16, 18, 18, 20, 20, 22, 22, 24, 24, 26, 26, 28, 28, 30, 30, 32, 32, 34, 34, 36, 36, 38, 38, 40, 40, 42, 42, 44, 44, 46, 46, 48, 48, 50, 50, 52, 52, 54, 54, 56 ],
					"width": 97,
					"height": 157
				}
			}
		}
	}
],
"animations": {
	"Back": {
		"bones": {
			"badan": {
				"translate": [
					{},
					{ "time": 0.1667, "y": 4.21 },
					{ "time": 0.5, "y": 1.48 },
					{ "time": 0.8333, "y": 4.21 },
					{ "time": 1.1667, "y": 1.48 },
					{ "time": 1.3 }
				]
			},
			"tangan_kiri_1": {
				"rotate": [
					{},
					{ "time": 0.1667, "angle": -5.07 },
					{ "time": 0.5, "angle": 1.35 },
					{ "time": 0.8333, "angle": -5.07 },
					{ "time": 1.1667, "angle": 1.35 },
					{ "time": 1.3 }
				]
			},
			"tangan_kanan_1": {
				"rotate": [
					{},
					{ "time": 0.1667, "angle": -2.02 },
					{ "time": 0.5, "angle": 4.98 },
					{ "time": 0.8333, "angle": -2.02 },
					{ "time": 1.1667, "angle": 4.98 },
					{ "time": 1.3 }
				]
			},
			"hair": {
				"translate": [
					{},
					{ "time": 0.2, "x": -5.23, "y": -0.04 },
					{ "time": 0.5333, "x": 1.05, "y": 0.01 },
					{ "time": 0.8667, "x": -5.23, "y": -0.04 },
					{ "time": 1.2, "x": 1.05, "y": 0.01 },
					{ "time": 1.3667 }
				]
			},
			"head": {
				"translate": [
					{},
					{ "time": 0.1667, "x": -6.71, "y": -0.05 },
					{ "time": 0.5, "x": 1.01, "y": 0.01 },
					{ "time": 0.8333, "x": -6.71, "y": -0.05 },
					{ "time": 1.1667, "x": 1.01, "y": 0.01 },
					{ "time": 1.3667 }
				]
			},
			"kaki_kiri_2": {
				"translate": [
					{},
					{ "time": 0.1667, "x": 0.95, "y": -1.19 },
					{ "time": 0.5, "x": 4.22, "y": -0.52 },
					{ "time": 0.8333, "x": 0.95, "y": -1.19 },
					{ "time": 1.1667, "x": 4.22, "y": -0.52 },
					{ "time": 1.3333 }
				],
				"scale": [
					{},
					{ "time": 0.1667, "x": 0.8, "y": 0.8 },
					{ "time": 0.5 },
					{ "time": 0.8333, "x": 0.8, "y": 0.8 },
					{ "time": 1.1667 }
				]
			},
			"kaki_kiri_1": {
				"rotate": [
					{ "angle": 3.13 }
				],
				"translate": [
					{},
					{ "time": 0.1667, "x": -1.53 },
					{ "time": 0.5, "x": 14.57 },
					{ "time": 0.8333, "x": -1.53 },
					{ "time": 1.1667, "x": 14.57 },
					{ "time": 1.3 }
				]
			},
			"kaki_kanan_2": {
				"translate": [
					{},
					{ "time": 0.1667, "x": 4.22, "y": -0.52, "curve": "stepped" },
					{ "time": 1.1667, "x": 4.22, "y": -0.52 },
					{ "time": 1.3333 }
				],
				"scale": [
					{ "time": 0.1667 },
					{ "time": 0.5, "x": 0.8, "y": 0.8 },
					{ "time": 0.8333 },
					{ "time": 1.1667, "x": 0.8, "y": 0.8 },
					{ "time": 1.3333 }
				]
			},
			"kaki_kanan_1": {
				"rotate": [
					{ "angle": -2.01 }
				],
				"translate": [
					{},
					{ "time": 0.1667, "x": 14.57 },
					{ "time": 0.5, "x": -1.53 },
					{ "time": 0.8333, "x": 14.57 },
					{ "time": 1.1667, "x": -1.53 },
					{ "time": 1.3 }
				]
			},
			"tangan_kanan_2": {
				"scale": [
					{},
					{ "time": 0.1667, "x": 0.85, "y": 0.85 },
					{ "time": 0.5, "x": 1.08, "y": 1.08 },
					{ "time": 0.8333, "x": 0.85, "y": 0.85 },
					{ "time": 1.1667, "x": 1.08, "y": 1.08 },
					{ "time": 1.3 }
				]
			},
			"tangan_kiri_2": {
				"scale": [
					{},
					{ "time": 0.1667, "x": 1.08, "y": 1.08 },
					{ "time": 0.5, "x": 0.85, "y": 0.85 },
					{ "time": 0.8333, "x": 1.08, "y": 1.08 },
					{ "time": 1.1667, "x": 0.85, "y": 0.85 },
					{ "time": 1.3 }
				]
			}
		}
	},
	"Front": {
		"bones": {
			"badan": {
				"translate": [
					{},
					{ "time": 0.1667, "y": 4.21 },
					{ "time": 0.5, "y": 1.48 },
					{ "time": 0.8333, "y": 4.21 },
					{ "time": 1.1667, "y": 1.48 },
					{ "time": 1.3 }
				]
			},
			"tangan_kiri_1": {
				"rotate": [
					{},
					{ "time": 0.1667, "angle": -5.07 },
					{ "time": 0.5, "angle": 1.35 },
					{ "time": 0.8333, "angle": -5.07 },
					{ "time": 1.1667, "angle": 1.35 },
					{ "time": 1.3 }
				]
			},
			"tangan_kanan_1": {
				"rotate": [
					{},
					{ "time": 0.1667, "angle": -2.02 },
					{ "time": 0.5, "angle": 4.98 },
					{ "time": 0.8333, "angle": -2.02 },
					{ "time": 1.1667, "angle": 4.98 },
					{ "time": 1.3 }
				]
			},
			"hair": {
				"translate": [
					{},
					{ "time": 0.2, "x": -5.23, "y": -0.04 },
					{ "time": 0.5333, "x": 1.05, "y": 0.01 },
					{ "time": 0.8667, "x": -5.23, "y": -0.04 },
					{ "time": 1.2, "x": 1.05, "y": 0.01 },
					{ "time": 1.3667 }
				]
			},
			"head": {
				"translate": [
					{},
					{ "time": 0.1667, "x": -6.71, "y": -0.05 },
					{ "time": 0.5, "x": 1.01, "y": 0.01 },
					{ "time": 0.8333, "x": -6.71, "y": -0.05 },
					{ "time": 1.1667, "x": 1.01, "y": 0.01 },
					{ "time": 1.3667 }
				]
			},
			"kaki_kiri_2": {
				"translate": [
					{},
					{ "time": 0.1667, "x": 0.95, "y": -1.19 },
					{ "time": 0.5, "x": 4.22, "y": -0.52 },
					{ "time": 0.8333, "x": 0.95, "y": -1.19 },
					{ "time": 1.1667, "x": 4.22, "y": -0.52 },
					{ "time": 1.3333 }
				],
				"scale": [
					{},
					{ "time": 0.1667, "x": 0.8, "y": 0.8 },
					{ "time": 0.5 },
					{ "time": 0.8333, "x": 0.8, "y": 0.8 },
					{ "time": 1.1667 }
				]
			},
			"kaki_kiri_1": {
				"rotate": [
					{ "angle": 3.13 }
				],
				"translate": [
					{},
					{ "time": 0.1667, "x": -1.53 },
					{ "time": 0.5, "x": 14.57 },
					{ "time": 0.8333, "x": -1.53 },
					{ "time": 1.1667, "x": 14.57 },
					{ "time": 1.3 }
				]
			},
			"kaki_kanan_2": {
				"translate": [
					{},
					{ "time": 0.1667, "x": 4.22, "y": -0.52, "curve": "stepped" },
					{ "time": 1.1667, "x": 4.22, "y": -0.52 },
					{ "time": 1.3333 }
				],
				"scale": [
					{ "time": 0.1667 },
					{ "time": 0.5, "x": 0.8, "y": 0.8 },
					{ "time": 0.8333 },
					{ "time": 1.1667, "x": 0.8, "y": 0.8 },
					{ "time": 1.3333 }
				]
			},
			"kaki_kanan_1": {
				"rotate": [
					{ "angle": -2.01 }
				],
				"translate": [
					{},
					{ "time": 0.1667, "x": 14.57 },
					{ "time": 0.5, "x": -1.53 },
					{ "time": 0.8333, "x": 14.57 },
					{ "time": 1.1667, "x": -1.53 },
					{ "time": 1.3 }
				]
			},
			"tangan_kanan_2": {
				"scale": [
					{},
					{ "time": 0.1667, "x": 0.85, "y": 0.85 },
					{ "time": 0.5, "x": 1.08, "y": 1.08 },
					{ "time": 0.8333, "x": 0.85, "y": 0.85 },
					{ "time": 1.1667, "x": 1.08, "y": 1.08 },
					{ "time": 1.3 }
				]
			},
			"tangan_kiri_2": {
				"scale": [
					{},
					{ "time": 0.1667, "x": 1.08, "y": 1.08 },
					{ "time": 0.5, "x": 0.85, "y": 0.85 },
					{ "time": 0.8333, "x": 1.08, "y": 1.08 },
					{ "time": 1.1667, "x": 0.85, "y": 0.85 },
					{ "time": 1.3 }
				]
			}
		}
	},
	"Idle_Back": {
		"bones": {
			"badan": {
				"translate": [
					{},
					{ "time": 0.3333, "y": -3.58 },
					{ "time": 0.6667, "y": 0.62 }
				]
			},
			"tangan_kiri_1": {
				"rotate": [
					{},
					{ "time": 0.3333, "angle": -2.14 },
					{ "time": 0.6667 }
				]
			},
			"tangan_kanan_1": {
				"rotate": [
					{},
					{ "time": 0.3333, "angle": 2.06 },
					{ "time": 0.6667 }
				]
			},
			"hair": {
				"translate": [
					{},
					{ "time": 0.3667, "x": -4.87, "y": -0.04 },
					{ "time": 0.7 }
				]
			},
			"head": {
				"translate": [
					{},
					{ "time": 0.3333, "x": -5.43, "y": -0.04 },
					{ "time": 0.6667 }
				]
			}
		}
	},
	"Idle_Front": {
		"bones": {
			"badan": {
				"translate": [
					{},
					{ "time": 0.3333, "y": -6.05 },
					{ "time": 0.6667 }
				]
			},
			"head": {
				"translate": [
					{},
					{ "time": 0.3333, "x": -6.05, "y": -0.05 },
					{ "time": 0.6667 }
				]
			},
			"hair": {
				"translate": [
					{},
					{ "time": 0.3667, "x": -7.56, "y": -0.06 },
					{ "time": 0.7 }
				]
			},
			"tangan_kanan_1": {
				"rotate": [
					{},
					{ "time": 0.3333, "angle": 4.44 },
					{ "time": 0.6667 }
				]
			},
			"tangan_kiri_1": {
				"rotate": [
					{},
					{ "time": 0.3333, "angle": -3.73 },
					{ "time": 0.6667 }
				]
			}
		}
	},
	"Idle_Left": {
		"bones": {
			"body": {
				"scale": [
					{},
					{ "time": 0.3333, "x": 0.98 },
					{ "time": 0.6667 }
				]
			},
			"head2": {
				"translate": [
					{},
					{ "time": 0.4, "x": -5.98, "y": 0.04 },
					{ "time": 0.8333 }
				]
			},
			"hair_1": {
				"translate": [
					{},
					{ "time": 0.3667, "x": -3.98, "y": 0.02 },
					{ "time": 0.7 }
				]
			},
			"hair_2": {
				"translate": [
					{},
					{ "time": 0.3667, "x": -7.97, "y": 0.04 },
					{ "time": 0.7 }
				]
			},
			"tangan_kanan_3": {
				"rotate": [
					{},
					{ "time": 0.3333, "angle": -4.61 },
					{ "time": 0.6667 }
				]
			},
			"tangan_kiri_3": {
				"rotate": [
					{},
					{ "time": 0.3333, "angle": 5.82 },
					{ "time": 0.6667 }
				]
			}
		},
		"drawOrder": [
			{
				"offsets": [
					{ "slot": "Tangan_Kiri", "offset": 5 },
					{ "slot": "Kaki_Kiri", "offset": 0 }
				]
			}
		]
	},
	"Idle_Right": {
		"bones": {
			"root": {
				"scale": [
					{ "x": -1 }
				]
			},
			"body": {
				"scale": [
					{},
					{ "time": 0.3333, "x": 0.98 },
					{ "time": 0.6667 }
				]
			},
			"tangan_kiri_3": {
				"rotate": [
					{},
					{ "time": 0.3333, "angle": 4.19 },
					{ "time": 0.6667 }
				]
			},
			"tangan_kanan_3": {
				"rotate": [
					{},
					{ "time": 0.3333, "angle": -7.96 },
					{ "time": 0.6667 }
				]
			},
			"hair_2": {
				"translate": [
					{},
					{ "time": 0.3667, "x": -6.96, "y": 0.04 },
					{ "time": 0.7 }
				]
			},
			"hair_1": {
				"translate": [
					{},
					{ "time": 0.3667, "x": -8.95, "y": 0.05 },
					{ "time": 0.7 }
				]
			},
			"head2": {
				"translate": [
					{},
					{ "time": 0.3667, "x": -5.71, "y": 0.04 },
					{ "time": 0.8333 }
				]
			}
		},
		"drawOrder": [
			{
				"offsets": [
					{ "slot": "Tangan_Kiri", "offset": 5 },
					{ "slot": "Kaki_Kiri", "offset": 0 }
				]
			}
		]
	},
	"Left": {
		"bones": {
			"body": {
				"translate": [
					{},
					{ "time": 0.2, "y": -4.15 },
					{ "time": 0.6333, "y": 1.85 },
					{ "time": 1.0667, "y": -4.15 },
					{ "time": 1.5333, "y": 1.85 },
					{ "time": 1.7333 }
				]
			},
			"tangan_kiri3": {
				"rotate": [
					{},
					{ "time": 0.2, "angle": 18.51 },
					{ "time": 0.6333, "angle": 0.89 },
					{ "time": 1.0667, "angle": 18.51 },
					{ "time": 1.5333, "angle": 0.89 },
					{ "time": 1.7333 }
				]
			},
			"tangan_kiri_4": {
				"rotate": [
					{},
					{ "time": 0.2, "angle": 17.26 },
					{ "time": 0.6333, "angle": -5.44 },
					{ "time": 1.0667, "angle": 17.26 },
					{ "time": 1.5333, "angle": -5.44 },
					{ "time": 1.7333 }
				]
			},
			"tangan_kiri_3": {
				"rotate": [
					{},
					{ "time": 0.2, "angle": 26.01 },
					{ "time": 0.6333, "angle": -18.73 },
					{ "time": 1.0667, "angle": 26.01 },
					{ "time": 1.5333, "angle": -18.73 },
					{ "time": 1.7333 }
				]
			},
			"tangan_kanan_5": {
				"rotate": [
					{},
					{ "time": 0.2, "angle": -24.34 },
					{ "time": 0.6333, "angle": -9.4 },
					{ "time": 1.0667, "angle": -24.34 },
					{ "time": 1.5333, "angle": -9.4 },
					{ "time": 1.7333 }
				]
			},
			"tangan_kanan_4": {
				"rotate": [
					{},
					{ "time": 0.2, "angle": -16.8 },
					{ "time": 0.6333, "angle": 0.05 },
					{ "time": 1.0667, "angle": -16.8 },
					{ "time": 1.5333, "angle": 0.05 },
					{ "time": 1.6333, "angle": -1.77 },
					{ "time": 1.7333 }
				]
			},
			"tangan_kanan_3": {
				"rotate": [
					{},
					{ "time": 0.2, "angle": -29.04 },
					{ "time": 0.6333, "angle": 13.7 },
					{ "time": 1.0667, "angle": -29.04 },
					{ "time": 1.6, "angle": 13.7 },
					{ "time": 1.7333 }
				]
			},
			"kaki_kiri_5": {
				"rotate": [
					{},
					{ "time": 0.2, "angle": -20.61 },
					{ "time": 0.6333, "angle": -30.31 },
					{ "time": 1.0667, "angle": -20.61 },
					{ "time": 1.5333, "angle": -30.31 },
					{ "time": 1.7333 }
				]
			},
			"kaki_kiri_4": {
				"rotate": [
					{},
					{ "time": 0.2, "angle": 14.14 },
					{ "time": 0.6333, "angle": -6.53 },
					{ "time": 1.0667, "angle": 14.14 },
					{ "time": 1.5333, "angle": -6.53 },
					{ "time": 1.7333 }
				]
			},
			"kaki_kiri_3": {
				"rotate": [
					{},
					{ "time": 0.2, "angle": 18.23 },
					{ "time": 0.6333, "angle": -17.79 },
					{ "time": 1.0667, "angle": 18.23 },
					{ "time": 1.5333, "angle": -17.79 },
					{ "time": 1.7333 }
				]
			},
			"kaki_kanan_4": {
				"rotate": [
					{},
					{ "time": 0.2, "angle": -16.86 },
					{ "time": 0.6333, "angle": 6.44 },
					{ "time": 1.0667, "angle": -16.86 },
					{ "time": 1.5333, "angle": 6.44 },
					{ "time": 1.7333 }
				]
			},
			"kaki_kanan_3": {
				"rotate": [
					{},
					{ "time": 0.2, "angle": -15.16 },
					{ "time": 0.6333, "angle": 28.79 },
					{ "time": 1.0667, "angle": -15.16 },
					{ "time": 1.5333, "angle": 28.79 },
					{ "time": 1.7333 }
				],
				"translate": [
					{},
					{ "time": 0.2, "x": 0.08, "y": 11.63 },
					{ "time": 0.6333, "x": -0.08, "y": -11.74 },
					{ "time": 1.0667, "x": 0.08, "y": 11.63 },
					{ "time": 1.5333, "x": -0.08, "y": -11.74 },
					{ "time": 1.7333 }
				]
			},
			"hair_2": {
				"translate": [
					{},
					{ "time": 0.2333, "x": -8.94, "y": 0.05 },
					{ "time": 0.6667, "x": -4.94, "y": 0.03 },
					{ "time": 1.1333, "x": -8.94, "y": 0.05 },
					{ "time": 1.5667, "x": -4.94, "y": 0.03 },
					{ "time": 1.7333 }
				]
			},
			"hair_1": {
				"translate": [
					{},
					{ "time": 0.2333, "x": -6.72, "y": 0.03 },
					{ "time": 0.6667, "x": -1.52, "y": 0.01 },
					{ "time": 1.1333, "x": -6.72, "y": 0.03 },
					{ "time": 1.5667, "x": -2.35, "y": 0.01 },
					{ "time": 1.7333 }
				]
			},
			"head2": {
				"translate": [
					{},
					{ "time": 0.2, "x": -6.06, "y": 0.04 },
					{ "time": 0.6333, "x": -0.06 },
					{ "time": 1.0667, "x": -6.06, "y": 0.04 },
					{ "time": 1.5333, "x": -0.06 }
				]
			}
		},
		"drawOrder": [
			{
				"offsets": [
					{ "slot": "Tangan_Kiri", "offset": 5 },
					{ "slot": "Kaki_Kiri", "offset": 0 }
				]
			}
		]
	},
	"Right": {
		"bones": {
			"body": {
				"translate": [
					{},
					{ "time": 0.2, "y": -4.15 },
					{ "time": 0.6333, "y": 1.85 },
					{ "time": 1.0667, "y": -4.15 },
					{ "time": 1.5333, "y": 1.85 },
					{ "time": 1.7333 }
				]
			},
			"tangan_kiri3": {
				"rotate": [
					{},
					{ "time": 0.2, "angle": 18.51 },
					{ "time": 0.6333, "angle": 0.89 },
					{ "time": 1.0667, "angle": 18.51 },
					{ "time": 1.5333, "angle": 0.89 },
					{ "time": 1.7333 }
				]
			},
			"tangan_kiri_4": {
				"rotate": [
					{},
					{ "time": 0.2, "angle": 17.26 },
					{ "time": 0.6333, "angle": -5.44 },
					{ "time": 1.0667, "angle": 17.26 },
					{ "time": 1.5333, "angle": -5.44 },
					{ "time": 1.7333 }
				]
			},
			"tangan_kiri_3": {
				"rotate": [
					{},
					{ "time": 0.2, "angle": 26.01 },
					{ "time": 0.6333, "angle": -18.73 },
					{ "time": 1.0667, "angle": 26.01 },
					{ "time": 1.5333, "angle": -18.73 },
					{ "time": 1.7333 }
				]
			},
			"tangan_kanan_5": {
				"rotate": [
					{},
					{ "time": 0.2, "angle": -24.34 },
					{ "time": 0.6333, "angle": -9.4 },
					{ "time": 1.0667, "angle": -24.34 },
					{ "time": 1.5333, "angle": -9.4 },
					{ "time": 1.7333 }
				]
			},
			"tangan_kanan_4": {
				"rotate": [
					{},
					{ "time": 0.2, "angle": -16.8 },
					{ "time": 0.6333, "angle": 0.05 },
					{ "time": 1.0667, "angle": -16.8 },
					{ "time": 1.5333, "angle": 0.05 },
					{ "time": 1.6667, "angle": -1.77 },
					{ "time": 1.7333 }
				]
			},
			"tangan_kanan_3": {
				"rotate": [
					{},
					{ "time": 0.2, "angle": -29.04 },
					{ "time": 0.6333, "angle": 13.7 },
					{ "time": 1.0667, "angle": -29.04 },
					{ "time": 1.5333, "angle": 13.7 },
					{ "time": 1.6667, "angle": 4.62 },
					{ "time": 1.7333 }
				]
			},
			"kaki_kiri_5": {
				"rotate": [
					{},
					{ "time": 0.2, "angle": -20.61 },
					{ "time": 0.6333, "angle": -30.31 },
					{ "time": 1.0667, "angle": -20.61 },
					{ "time": 1.5333, "angle": -30.31 },
					{ "time": 1.7333 }
				]
			},
			"kaki_kiri_4": {
				"rotate": [
					{},
					{ "time": 0.2, "angle": 14.14 },
					{ "time": 0.6333, "angle": -6.53 },
					{ "time": 1.0667, "angle": 14.14 },
					{ "time": 1.5333, "angle": -6.53 },
					{ "time": 1.7333 }
				]
			},
			"kaki_kiri_3": {
				"rotate": [
					{},
					{ "time": 0.2, "angle": 18.23 },
					{ "time": 0.6333, "angle": -17.79 },
					{ "time": 1.0667, "angle": 18.23 },
					{ "time": 1.5333, "angle": -17.79 },
					{ "time": 1.7333 }
				]
			},
			"kaki_kanan_4": {
				"rotate": [
					{},
					{ "time": 0.2, "angle": -16.86 },
					{ "time": 0.6333, "angle": 6.44 },
					{ "time": 1.0667, "angle": -16.86 },
					{ "time": 1.5333, "angle": 6.44 },
					{ "time": 1.7333 }
				]
			},
			"kaki_kanan_3": {
				"rotate": [
					{},
					{ "time": 0.2, "angle": -15.16 },
					{ "time": 0.6333, "angle": 28.79 },
					{ "time": 1.0667, "angle": -15.16 },
					{ "time": 1.5333, "angle": 28.79 },
					{ "time": 1.7333 }
				],
				"translate": [
					{},
					{ "time": 0.2, "x": 0.08, "y": 11.63 },
					{ "time": 0.6333, "x": -0.08, "y": -11.74 },
					{ "time": 1.0667, "x": 0.08, "y": 11.63 },
					{ "time": 1.5333, "x": -0.08, "y": -11.74 },
					{ "time": 1.7333 }
				]
			},
			"hair_2": {
				"translate": [
					{},
					{ "time": 0.2333, "x": -8.94, "y": 0.05 },
					{ "time": 0.7, "x": -4.94, "y": 0.03 },
					{ "time": 1.1, "x": -8.94, "y": 0.05 },
					{ "time": 1.5667, "x": -4.94, "y": 0.03 },
					{ "time": 1.7333 }
				]
			},
			"hair_1": {
				"translate": [
					{},
					{ "time": 0.2333, "x": -6.72, "y": 0.03 },
					{ "time": 0.7, "x": -1.52, "y": 0.01 },
					{ "time": 1.1, "x": -6.72, "y": 0.03 },
					{ "time": 1.5667, "x": -2.35, "y": 0.01 },
					{ "time": 1.7333 }
				]
			},
			"head2": {
				"translate": [
					{},
					{ "time": 0.2, "x": -6.06, "y": 0.04 },
					{ "time": 0.6333, "x": -0.06 },
					{ "time": 1.0667, "x": -6.06, "y": 0.04 },
					{ "time": 1.5333, "x": -0.06 }
				]
			},
			"root": {
				"scale": [
					{ "x": -1 }
				]
			}
		},
		"drawOrder": [
			{
				"offsets": [
					{ "slot": "Tangan_Kiri", "offset": 5 },
					{ "slot": "Kaki_Kiri", "offset": 0 }
				]
			}
		]
	}
}
}