{
"skeleton": {
	"hash": "BWdk9pIXuXMB1IVlnT+9ariQ7uI",
	"spine": "3.8.75",
	"x": -527.9,
	"y": -477,
	"width": 1070.9,
	"height": 1075.9,
	"images": "../John/",
	"audio": "C:/Users/ASUS/Downloads/Work/Day 31/anim"
},
"bones": [
	{ "name": "root" },
	{ "name": "bone", "parent": "root", "length": 133.42, "rotation": -125.58, "x": 0.34, "y": -1.05 },
	{ "name": "bone2", "parent": "bone", "length": 271.8, "rotation": 35.63, "x": 133.42 },
	{ "name": "bone3", "parent": "root", "length": 143.71, "rotation": -45.82, "x": -1.78, "y": 0.23 },
	{ "name": "bone4", "parent": "bone3", "length": 277.25, "rotation": -39.49, "x": 143.71 }
],
"slots": [
	{ "name": "l1", "bone": "root", "attachment": "l1" },
	{ "name": "l2", "bone": "root", "attachment": "l2" },
	{ "name": "body", "bone": "root", "attachment": "body" },
	{ "name": "head", "bone": "root", "attachment": "head" },
	{ "name": "leg", "bone": "root", "attachment": "leg" },
	{ "name": "r1", "bone": "root", "attachment": "r1" },
	{ "name": "r2", "bone": "root", "attachment": "r2" }
],
"skins": [
	{
		"name": "default",
		"attachments": {
			"r2": {
				"r2": {
					"type": "mesh",
					"uvs": [ 1, 1, 0, 1, 0, 0, 1, 0 ],
					"triangles": [ 1, 2, 3, 1, 3, 0 ],
					"vertices": [ 537, -475, -511, -475, -511, 573, 537, 573 ],
					"hull": 4,
					"edges": [ 0, 2, 2, 4, 4, 6, 0, 6 ],
					"width": 1048,
					"height": 1048
				}
			},
			"l1": {
				"l1": {
					"type": "mesh",
					"uvs": [ 1, 1, 0, 1, 0, 0, 1, 0 ],
					"triangles": [ 1, 2, 3, 1, 3, 0 ],
					"vertices": [ 529, -459, -519, -459, -519, 589, 529, 589 ],
					"hull": 4,
					"edges": [ 0, 2, 2, 4, 4, 6, 0, 6 ],
					"width": 1048,
					"height": 1048
				}
			},
			"l2": {
				"l2": {
					"type": "mesh",
					"uvs": [ 1, 1, 0, 1, 0, 0, 1, 0 ],
					"triangles": [ 1, 2, 3, 1, 3, 0 ],
					"vertices": [ 523.9, -449.09, -524.09, -452.9, -527.9, 595.09, 520.09, 598.9 ],
					"hull": 4,
					"edges": [ 0, 2, 2, 4, 4, 6, 0, 6 ],
					"width": 1048,
					"height": 1048
				}
			},
			"leg": {
				"leg": {
					"type": "mesh",
					"uvs": [ 0.34917, 0.57547, 0.3451, 0.60046, 0.33755, 0.63765, 0.33232, 0.66787, 0.32883, 0.69402, 0.32825, 0.73295, 0.34394, 0.74051, 0.36079, 0.74632, 0.3637, 0.77189, 0.36776, 0.79746, 0.37299, 0.81256, 0.3666, 0.81954, 0.36253, 0.84104, 0.37183, 0.86777, 0.36544, 0.89392, 0.35963, 0.91135, 0.35963, 0.93402, 0.37299, 0.95087, 0.39914, 0.96133, 0.43052, 0.95958, 0.45377, 0.95203, 0.46481, 0.93576, 0.46481, 0.89624, 0.45028, 0.87009, 0.45725, 0.84511, 0.4619, 0.82535, 0.45086, 0.81024, 0.46132, 0.7777, 0.4619, 0.76608, 0.47701, 0.76201, 0.49038, 0.71145, 0.49968, 0.71087, 0.5235, 0.76724, 0.5421, 0.77014, 0.55256, 0.8114, 0.54268, 0.81954, 0.53803, 0.83174, 0.54268, 0.85731, 0.55139, 0.86893, 0.54151, 0.89566, 0.54035, 0.93692, 0.54733, 0.94854, 0.57464, 0.95958, 0.60602, 0.95958, 0.62984, 0.95261, 0.64321, 0.93866, 0.64379, 0.89508, 0.62287, 0.87126, 0.63391, 0.84104, 0.63333, 0.81779, 0.62403, 0.81198, 0.64088, 0.76549, 0.64263, 0.74399, 0.67343, 0.7283, 0.66006, 0.65973, 0.64379, 0.60046, 0.63042, 0.55746, 0.57289, 0.54758, 0.51013, 0.54351, 0.44331, 0.54758, 0.39624, 0.55281, 0.35789, 0.55746, 0.40902, 0.9253, 0.4096, 0.86486, 0.41193, 0.8114, 0.41425, 0.75271, 0.41948, 0.68472, 0.43808, 0.60685, 0.49212, 0.57257, 0.58161, 0.61034, 0.59788, 0.68298, 0.5973, 0.75968, 0.59091, 0.85382, 0.59265, 0.93983 ],
					"triangles": [ 31, 30, 67, 60, 67, 1, 60, 1, 0, 0, 61, 60, 67, 60, 59, 67, 68, 31, 67, 59, 68, 67, 2, 1, 64, 26, 24, 24, 26, 25, 27, 26, 64, 27, 64, 65, 19, 18, 62, 18, 17, 62, 19, 62, 20, 20, 62, 21, 17, 16, 62, 62, 22, 21, 16, 15, 62, 15, 14, 62, 62, 14, 63, 62, 23, 22, 62, 63, 23, 63, 14, 13, 23, 63, 24, 13, 12, 63, 63, 64, 24, 64, 63, 12, 12, 11, 10, 64, 12, 10, 10, 9, 64, 64, 9, 65, 9, 8, 65, 27, 65, 28, 8, 7, 65, 29, 28, 30, 30, 28, 65, 65, 66, 30, 65, 7, 66, 66, 7, 4, 7, 6, 4, 30, 66, 67, 4, 3, 66, 3, 2, 66, 66, 2, 67, 5, 4, 6, 54, 70, 69, 34, 71, 50, 50, 71, 51, 71, 33, 70, 31, 70, 33, 51, 71, 52, 71, 70, 52, 52, 70, 53, 70, 54, 53, 42, 73, 43, 43, 73, 44, 42, 41, 73, 44, 73, 45, 41, 40, 73, 40, 39, 73, 73, 39, 72, 39, 38, 72, 45, 73, 46, 73, 72, 47, 46, 73, 47, 49, 48, 50, 50, 48, 72, 72, 48, 47, 38, 37, 72, 72, 37, 36, 72, 34, 50, 34, 33, 71, 72, 36, 34, 34, 36, 35, 31, 33, 32, 31, 69, 70, 69, 68, 57, 57, 68, 58, 68, 69, 31, 68, 59, 58, 54, 69, 55, 69, 56, 55, 69, 57, 56 ],
					"vertices": [ 3, 3, -65.37, -127.96, 1.7E-4, 2, -67.54, -61.76, 0.05986, 1, 114.5, -89.54, 0.93997, 3, 3, -49.56, -149.27, 8.0E-5, 2, -41.36, -66.04, 0.21558, 1, 138.28, -77.77, 0.78434, 3, 3, -27.12, -182.1, 1.0E-5, 2, -2.39, -73.99, 0.65399, 1, 174.58, -61.53, 0.346, 3, 3, -8.23, -208.1, 0, 2, 29.28, -79.5, 0.91138, 1, 203.52, -47.56, 0.08862, 2, 2, 56.68, -83.17, 0.98836, 1, 227.94, -34.59, 0.01164, 1, 2, 97.48, -83.82, 1, 1, 2, 105.41, -67.38, 1, 1, 2, 111.51, -49.72, 1, 1, 2, 138.31, -46.7, 1, 1, 2, 165.11, -42.46, 1, 1, 2, 180.95, -36.99, 1, 1, 2, 188.25, -43.69, 1, 1, 2, 210.78, -47.98, 1, 1, 2, 238.8, -38.25, 1, 1, 2, 266.2, -44.97, 1, 1, 2, 284.47, -51.08, 1, 1, 2, 308.22, -51.1, 1, 1, 2, 325.89, -37.11, 1, 1, 2, 336.88, -9.71, 1, 1, 2, 335.08, 23.18, 1, 1, 2, 327.18, 47.54, 1, 1, 2, 310.13, 59.13, 1, 1, 2, 268.72, 59.16, 1, 1, 2, 241.31, 43.96, 1, 1, 2, 215.12, 51.29, 1, 2, 4, 190.66, -135.36, 4.0E-5, 2, 194.42, 56.18, 0.99996, 2, 4, 173.93, -145.6, 9.4E-4, 2, 178.58, 44.62, 0.99906, 3, 3, 168.54, -191.35, 0.0016, 4, 140.84, -131.89, 0.01662, 2, 144.48, 55.61, 0.98179, 4, 3, 160.23, -182.42, 0.00463, 4, 128.75, -130.28, 0.03328, 2, 132.3, 56.23, 0.96192, 1, 208.2, 122.77, 1.7E-4, 4, 3, 168.21, -168.1, 0.00943, 4, 125.8, -114.16, 0.057, 2, 128.05, 72.06, 0.9321, 1, 195.52, 133.17, 0.00147, 4, 3, 139.97, -121.13, 0.07201, 4, 74.14, -95.86, 0.33139, 2, 75.08, 86.11, 0.54672, 1, 144.28, 113.73, 0.04988, 4, 3, 146.32, -113.72, 0.07888, 4, 74.33, -86.1, 0.52031, 2, 74.48, 95.86, 0.35399, 1, 138.12, 121.3, 0.04683, 4, 3, 206.09, -136.97, 0.00306, 4, 135.24, -66.05, 0.95216, 2, 133.57, 120.78, 0.04296, 1, 171.63, 175.98, 0.00182, 4, 3, 221.85, -125.12, 5.2E-4, 4, 139.87, -46.87, 0.97839, 2, 136.63, 140.26, 0.02069, 1, 162.77, 193.6, 4.0E-4, 2, 4, 183.86, -39.48, 0.99981, 2, 179.88, 151.19, 1.9E-4, 2, 4, 191.51, -50.5, 1, 2, 188.4, 140.83, 0, 1, 4, 203.86, -56.4, 1, 1, 4, 230.96, -53.73, 1, 1, 4, 243.85, -45.62, 1, 1, 4, 270.92, -58.23, 1, 1, 4, 313.92, -62.98, 1, 1, 4, 326.65, -56.69, 1, 1, 4, 340.53, -29.11, 1, 1, 4, 343.21, 3.67, 1, 1, 4, 337.97, 29.15, 1, 1, 4, 324.55, 44.3, 1, 1, 4, 279.08, 48.64, 1, 1, 4, 252.4, 28.83, 1, 1, 4, 221.78, 42.95, 1, 1, 4, 197.46, 44.34, 1, 1, 4, 190.59, 35.13, 1, 1, 4, 143.48, 56.71, 1, 1, 4, 121.17, 60.37, 1, 1, 4, 107.42, 93.89, 1, 2, 3, 225.01, 44.18, 0.05331, 4, 34.65, 85.8, 0.94669, 3, 3, 168.58, 75.24, 0.58123, 4, -28.65, 73.88, 0.41876, 1, -43.87, 176.8, 1.0E-5, 3, 3, 126.5, 96.6, 0.88593, 4, -74.71, 63.6, 0.11401, 1, -72.37, 139.19, 6.0E-5, 3, 3, 77.06, 60.57, 0.99875, 4, -89.96, 4.36, 9.4E-4, 1, -45.71, 84.13, 3.2E-4, 2, 3, 28.17, 16.37, 0.99643, 1, -10.9, 28.16, 0.00357, 2, 3, -17.58, -36.83, 0.00161, 1, 33.32, -26.32, 0.99839, 2, 3, -48.02, -76.03, 4.1E-4, 1, 66.48, -63.25, 0.99959, 3, 3, -72.54, -108.25, 2.1E-4, 2, -86.41, -52.61, 0.01818, 1, 93.83, -93.1, 0.9816, 1, 2, 299.13, 0.67, 1, 1, 2, 235.79, 1.33, 1, 2, 4, 171.81, -186.37, 1.0E-5, 2, 179.76, 3.81, 0.99999, 3, 3, 115.38, -208.48, 2.0E-4, 4, 110.71, -178.91, 0.00187, 2, 118.26, 6.3, 0.99793, 4, 3, 68.1, -154.89, 0.00622, 4, 40.14, -167.62, 0.01073, 2, 47.01, 11.84, 0.97131, 1, 164.73, 37.01, 0.01175, 4, 3, 23.15, -84.05, 0.01039, 4, -39.6, -141.53, 0.0018, 2, -34.58, 31.39, 0.00756, 1, 87.02, 5.37, 0.98025, 4, 3, 36.85, -18.39, 0.69698, 4, -70.78, -82.15, 5.9E-4, 2, -70.47, 88.06, 0.00129, 1, 24.85, 30.52, 0.30114, 3, 3, 130.6, 21.29, 0.92478, 4, -23.66, 8.09, 0.07522, 1, 2.47, 129.83, 1.0E-5, 1, 4, 53.6, 18.86, 1, 1, 4, 133.67, 11.68, 1, 1, 4, 231.45, -3.06, 1, 1, 4, 321.43, -8.6, 1 ],
					"hull": 62,
					"edges": [ 0, 2, 2, 4, 4, 6, 6, 8, 8, 10, 10, 12, 12, 14, 14, 16, 16, 18, 18, 20, 20, 22, 22, 24, 24, 26, 26, 28, 28, 30, 30, 32, 32, 34, 34, 36, 36, 38, 38, 40, 40, 42, 42, 44, 44, 46, 46, 48, 48, 50, 50, 52, 52, 54, 54, 56, 56, 58, 58, 60, 60, 62, 62, 64, 64, 66, 66, 68, 68, 70, 70, 72, 72, 74, 74, 76, 76, 78, 78, 80, 80, 82, 82, 84, 84, 86, 86, 88, 88, 90, 90, 92, 92, 94, 94, 96, 96, 98, 98, 100, 100, 102, 102, 104, 104, 106, 106, 108, 108, 110, 110, 112, 112, 114, 114, 116, 116, 118, 118, 120, 120, 122, 0, 122 ],
					"width": 1048,
					"height": 1048
				}
			},
			"head": {
				"head": {
					"type": "mesh",
					"uvs": [ 1, 1, 0, 1, 0, 0, 1, 0 ],
					"triangles": [ 1, 2, 3, 1, 3, 0 ],
					"vertices": [ 543, -476, -505, -476, -505, 572, 543, 572 ],
					"hull": 4,
					"edges": [ 0, 2, 2, 4, 4, 6, 0, 6 ],
					"width": 1048,
					"height": 1048
				}
			},
			"body": {
				"body": {
					"type": "mesh",
					"uvs": [ 1, 1, 0, 1, 0, 0, 1, 0 ],
					"triangles": [ 1, 2, 3, 1, 3, 0 ],
					"vertices": [ 540, -477, -508, -477, -508, 571, 540, 571 ],
					"hull": 4,
					"edges": [ 0, 2, 2, 4, 4, 6, 0, 6 ],
					"width": 1048,
					"height": 1048
				}
			},
			"r1": {
				"r1": {
					"type": "mesh",
					"uvs": [ 1, 1, 0, 1, 0, 0, 1, 0 ],
					"triangles": [ 1, 2, 3, 1, 3, 0 ],
					"vertices": [ 535, -466, -513, -466, -513, 582, 535, 582 ],
					"hull": 4,
					"edges": [ 0, 2, 2, 4, 4, 6, 0, 6 ],
					"width": 1048,
					"height": 1048
				}
			}
		}
	}
],
"animations": {
	"animation": {
		"bones": {
			"bone2": {
				"rotate": [
					{ "angle": 0.12 },
					{ "time": 0.3333, "angle": 17.26 },
					{ "time": 0.6667, "angle": -13.8 },
					{ "time": 1, "angle": 1.11 }
				]
			},
			"bone4": {
				"rotate": [
					{ "angle": 0.34 },
					{ "time": 0.3333, "angle": -27.65 },
					{ "time": 0.6667, "angle": 23.31 },
					{ "time": 1, "angle": 3.89 }
				]
			}
		},
		"deform": {
			"default": {
				"l1": {
					"l1": [
						{},
						{
							"time": 0.3333,
							"vertices": [ 203.63062, 219.37723, 296.65524, -212.27759, -134.99988, -305.30225, -228.02432, 126.35266 ]
						},
						{
							"time": 0.6667,
							"vertices": [ -325.48566, -123.99716, -204.71747, 364.41263, 283.69263, 243.6448, 162.92462, -244.76541 ]
						},
						{
							"time": 1,
							"vertices": [ -7.32721, -7.23779, -7.22406, 7.44601, 7.45969, 7.3432, 7.35693, -7.34076 ]
						}
					]
				},
				"l2": {
					"l2": [
						{},
						{
							"time": 0.3333,
							"vertices": [ 200.00226, 216.3974, 294.59473, -214.91653, -136.71924, -309.50894, -231.31165, 121.80511 ]
						},
						{
							"time": 0.6667,
							"vertices": [ -320.28052, -122.76227, -201.28827, 366.08334, 287.5578, 247.09067, 168.56525, -241.75519 ]
						},
						{
							"time": 1,
							"vertices": [ -7.18774, -7.16739, -7.13812, 7.51682, 7.54596, 7.4671, 7.49646, -7.21692 ]
						}
					]
				},
				"body": {
					"body": [
						{
							"vertices": [ -0.10242, -0.10242, -0.10242, 0.10242, 0.10242, 0.10242, 0.10242, -0.10242 ]
						},
						{
							"time": 0.3333,
							"vertices": [ 38.99609, 41.57925, 41.97897, -37.43307, -37.03345, -40.41577, -40.01636, 38.59668 ]
						},
						{
							"time": 0.6667,
							"vertices": [ -19.85663, -18.93161, -19.16553, 19.11624, 18.88226, 18.42542, 18.19135, -19.62213 ]
						},
						{
							"time": 1,
							"vertices": [ -7.58057, -7.39017, -7.47723, 7.29373, 7.20663, 7.1908, 7.10364, -7.4928 ]
						}
					]
				},
				"leg": {
					"leg": [
						{},
						{
							"time": 0.3333,
							"vertices": [ 13.45944, -1.73101, 10.88171, 8.10818, 4.09645, 12.93724, 15.02234, -0.47766, 11.13465, 10.09552, 3.14094, 14.69808, 17.43688, 1.31182, 11.62746, 13.0602, 1.80927, 17.3923, 19.34253, 2.8156, 11.95284, 15.46583, 0.66826, 19.53496, 12.1517, 17.54308, -0.38366, 21.33717, 12.08388, 20.62132, 10.82207, 21.17242, 9.47353, 21.58238, 9.16933, 23.59422, 8.77324, 25.60262, 8.31589, 26.78114, 8.8006, 27.35081, 9.05921, 29.0616, 8.24655, 31.14657, 8.67522, 33.23148, 9.08352, 34.62592, 9.01733, 36.41665, 7.91206, 37.70917, 5.81529, 38.45934, 3.34087, 38.22997, 1.52635, 37.56517, 0.70142, 36.2473, 0.8168, 33.125, 2.04102, 31.10121, 1.56302, 29.10645, 12.21396, 24.70602, 1.25317, 27.53181, 12.58287, 23.27777, 2.16505, 26.37229, 17.5249, 16.16837, 10.8201, 21.24765, 1.36696, 23.80486, 16.85917, 15.58541, 10.39819, 20.46979, 1.29332, 22.923, -12.33962, 19.36157, 15.71714, 16.22582, 9.10487, 20.6738, 0.02705, 22.58994, -13.17288, 18.3516, 12.17544, 14.72289, 6.30539, 18.03455, -1.47543, 19.04807, -12.32359, 14.59911, 11.44013, 15.63552, 5.29895, 18.63507, -2.63837, 19.19337, -13.35241, 14.03778, 11.23662, 21.66472, 3.01453, 24.21844, -6.9744, 23.3876, -19.32174, 14.90947, 9.91982, 22.53528, 1.47739, 24.57759, -8.52627, 23.09859, -20.41255, 13.76844, 0.72423, 27.90813, -10.55463, 25.84551, 1.53214, 28.51663, -10.05945, 26.72742, 1.94185, 29.46442, 1.66377, 31.50032, 1.01572, 32.44876, 1.88922, 34.52587, 2.12483, 37.78091, 1.61449, 38.72324, -0.50441, 39.6906, -2.98322, 39.79996, -4.8895, 39.33216, -5.9939, 38.27708, -6.19171, 34.83636, -4.62218, 32.88151, -5.59969, 30.53303, -5.63483, 28.69487, -4.92062, 28.20348, -6.41379, 24.58996, -6.62646, 22.89767, -9.11398, 21.76564, -2.02541, 18.24939, -8.23636, 16.4105, -2.62205, 14.50041, -7.49403, 12.68761, -14.73557, -0.00217, -3.91297, 11.83424, -7.77884, 9.73909, -12.3414, -1.74656, -1.1589, 8.46917, -4.02765, 7.53973, -8.54028, 0.36534, 2.31096, 4.90994, -4.42083, 3.1471, 6.4521, 1.61233, -0.43949, 6.63597, 9.49409, -0.57142, 2.25031, 9.24123, 11.99351, -2.32805, 10.24242, 6.66017, 4.42335, 11.38851, 5.13989, 35.58367, 5.27045, 30.80671, 15.4828, 22.22686, 5.24283, 26.57569, 19.00077, 12.1461, 13.60081, 17.98815, 5.22334, 21.93797, 15.11486, 8.45628, 11.23795, 13.17858, 4.993, 16.58428, -5.63421, 16.37753, 9.90075, 4.82238, 7.61015, 7.96024, 3.76867, 10.34782, -2.98524, 10.6004, 4.90839, 5.66406, 2.63615, 7.016, -0.40627, 7.48392, -4.70114, 5.83723, 1.681, 12.58411, -2.79333, 12.38475, -12.08474, 3.89161, -3.30458, 17.92191, -2.99132, 23.97906, -2.15831, 31.39304, -1.99626, 38.19271 ]
						},
						{
							"time": 0.6667,
							"vertices": [ -6.56439, 1.18331, -8.1435, 1.21684, -2.33157, -6.24942, -7.59592, 0.47329, -9.24965, 0.24802, -1.81626, -7.39076, -9.04689, -1.2278, -10.51472, -1.68996, -0.40025, -9.12105, -9.61318, -2.95425, -10.84195, -3.29916, 1.19801, -9.98527, -10.93674, -4.45722, 2.49785, -10.42414, -10.96735, -5.96597, -10.37583, -6.26473, -9.73895, -6.49794, -9.64674, -7.47286, -9.51034, -8.44872, -9.3222, -9.02732, -9.57053, -9.28802, -9.74076, -10.10314, -9.4063, -11.12684, -9.66839, -12.11716, -9.90211, -12.77623, -9.91843, -13.63853, -9.42202, -14.28939, -8.43459, -14.70618, -7.23962, -14.66245, -6.34967, -14.39178, -5.91784, -13.78073, -5.88935, -12.27731, -6.42326, -11.27183, -6.1399, -10.3262, 11.3688, -13.0866, -5.94923, -9.57784, 10.13222, -13.02126, -6.36815, -8.99456, -3.96723, -8.13389, 8.78655, -11.13096, -6.09441, -7.76798, -4.04459, -7.53819, 8.10501, -10.61734, -6.2063, -7.33302, 6.69899, -5.3204, -3.5524, -7.30682, 8.35253, -9.73238, -5.83898, -7.25456, 6.5588, -4.79492, -4.46665, -4.93261, 5.2451, -7.69817, -6.85738, -6.13795, 4.05987, -5.27248, -5.07344, -4.96317, 4.9194, -7.76305, -7.46146, -6.76324, 3.98207, -5.87504, -8.80322, -6.51593, 4.50922, -10.32878, -11.32346, -10.91744, 4.84696, -9.82146, -8.83566, -7.38068, 5.05145, -10.55013, -10.92357, -12.12911, 5.69215, -10.00714, 5.15044, -12.23267, -12.95681, -14.46715, 4.7439, -12.50397, -13.80699, -14.24776, 4.52142, -12.94835, 4.60033, -13.93419, 4.88619, -14.40734, 4.41065, -15.38194, 4.21001, -16.93974, 4.42979, -17.40633, 5.42213, -17.92812, 6.61019, -18.04729, 7.53886, -17.87379, 8.09784, -17.39643, 8.2854, -15.74852, 7.58389, -14.76688, 8.11669, -13.66462, 8.18285, -12.78231, 7.85292, -12.52694, 8.6675, -10.83074, 8.8151, -10.02319, 10.04099, -9.54614, -2.00426, -11.15921, 9.84345, -6.78401, 0.64542, -8.36039, 9.12586, -3.34583, 8.34194, -0.8513, 1.68092, -6.20479, 7.7153, -1.0604, 6.40479, 0.55096, 0.33149, -4.10273, 4.87031, -1.46584, 4.09631, -0.40323, -1.24245, -2.29724, 2.03974, -1.63109, -3.14378, -0.60128, 0.03275, -3.20059, -4.5468, 0.52981, -1.32977, -4.38017, -5.74984, 1.44825, -7.18007, 1.60592, -2.44747, -5.40075, -8.0329, -13.34251, -7.96713, -11.04354, 8.58444, -15.05578, -7.84023, -9.01111, -5.9759, -7.04338, 5.67713, -12.49606, -7.72461, -6.77482, -5.73585, -3.92648, 2.38946, -9.39996, -7.53416, -4.18006, 2.84412, -6.34257, -4.8806, -2.03314, 0.15633, -6.52864, -6.02039, -2.67766, 1.13301, -5.16432, -2.50869, -2.58453, 1.84943, -4.04897, -3.04658, -3.29023, 2.09732, -2.92823, -1.1168, -6.08252, 6.46407, -4.06427, 5.78705, -2.18045, 7.35279, -7.54298, 7.03954, -10.44514, 6.43987, -13.98531, 6.17917, -17.2484 ]
						},
						{
							"time": 1,
							"vertices": [ -2.63164, 0.4213, -4.7636, 3.3671, -0.88248, -2.51481, -3.1951, 0.05033, -5.76294, 2.96628, -0.6176, -3.13525, -3.95238, -1.1683, -6.85591, 1.85555, 0.44698, -4.09713, -3.96335, -2.48412, -7.06214, 0.92633, 1.73988, -4.34186, -7.0657, 0.37007, 2.75671, -4.24185, -7.05999, -0.23048, -6.83052, -0.34321, -6.58369, -0.43041, -6.54398, -0.80624, -6.48714, -1.18224, -6.41206, -1.40468, -6.50683, -1.50638, -6.56894, -1.82157, -6.43546, -2.21514, -6.53244, -2.59839, -6.61974, -2.85367, -6.62229, -3.18651, -6.42797, -3.43551, -6.04512, -3.59209, -5.5843, -3.57004, -5.24206, -3.46175, -5.078, -3.22416, -5.07352, -2.64394, -5.28389, -2.25821, -5.17863, -1.89216, 12.97483, -5.2296, -5.10854, -1.60257, 11.95116, -5.54606, -5.27869, -1.37877, 1.35231, -3.71535, 10.27048, -4.37677, -5.26887, -0.90217, 1.07691, -3.29954, 9.54314, -4.12676, -5.40091, -0.73397, 3.43844, 0.47311, 1.25675, -2.8822, 9.42995, -3.28688, -5.38826, -0.73519, 3.05972, 0.72429, -0.64329, -1.07731, 5.8943, -2.30744, -6.73116, -0.70973, 0.94578, -0.82458, -1.37442, -0.9313, 5.36201, -2.30933, -7.54694, -1.29227, 0.6721, -1.5181, -4.51396, -1.0703, 4.54926, -3.39692, -11.95222, -4.01401, 0.25069, -4.63233, -4.8069, -1.5785, 4.66693, -3.49686, -11.98661, -5.14584, 0.6987, -5.01097, 4.62633, -4.18836, -14.25439, -6.51093, 4.46968, -4.29525, -14.8717, -6.10374, 4.38564, -4.46764, 4.42033, -4.84771, 4.5326, -5.02905, 4.35336, -5.40713, 4.28269, -6.00909, 4.36951, -6.18819, 4.75462, -6.38524, 5.21346, -6.4261, 5.57121, -6.35518, 5.78471, -6.16856, 5.85011, -5.53197, 5.57519, -5.15618, 5.77599, -4.72857, 5.79767, -4.38784, 5.66933, -4.29069, 5.97634, -3.63273, 6.02978, -3.32047, 6.50079, -3.13117, -1.74593, -5.29457, 6.44516, -1.99731, 0.19795, -3.77248, 5.95477, -1.6E-4, 3.74757, -0.47593, 0.72645, -2.55763, 4.72195, 1.23147, 2.64604, 0.26015, 0.14651, -1.58243, 3.17632, 0.40941, 1.58327, -0.13717, -0.46951, -0.89175, 0.79407, -0.62058, -1.21047, -0.24552, 0.0264, -1.23483, -1.75669, 0.18487, -0.49425, -1.69584, -2.25667, 0.53812, -4.01758, 3.34639, -0.93077, -2.12505, -5.89612, -3.06414, -5.88053, -2.17681, 11.3098, -7.6651, -5.84043, -1.39201, -0.29237, -3.81772, 8.18098, -6.45965, -5.81466, -0.52504, -1.25671, -1.73799, 4.57991, -4.92179, -5.78585, 0.48853, 1.48686, -1.54569, -1.87251, -0.79594, 1.77021, -3.7047, -4.68639, 0.28877, 0.45033, -1.9842, -0.95605, -1.00502, 2.10449, -1.84887, -3.0049, -1.07577, 0.81903, -1.11951, -0.39219, -2.38515, 4.76491, -0.70146, 2.27742, -0.81001, 5.45488, -2.36982, 5.34672, -3.49096, 5.13043, -4.85947, 5.04391, -6.11972 ]
						}
					]
				},
				"r2": {
					"r2": [
						{},
						{
							"time": 0.3333,
							"vertices": [ -159.81076, -146.88034, -135.21893, 78.82007, 90.48132, 54.22818, 65.8891, -171.47238 ]
						},
						{
							"time": 0.6667,
							"vertices": [ 226.935, 381.4174, 347.8796, -107.3278, -140.86572, -228.27261, -261.8105, 260.47284 ]
						},
						{
							"time": 1,
							"vertices": [ -7.55194, -7.34857, -7.44916, 7.33545, 7.23477, 7.23254, 7.13184, -7.45123 ]
						}
					]
				},
				"r1": {
					"r1": [
						{},
						{
							"time": 0.3333,
							"vertices": [ -157.82602, -146.66098, -133.2337, 79.03964, 92.46634, 54.44748, 67.87439, -171.2529 ]
						},
						{
							"time": 0.6667,
							"vertices": [ 222.96857, 379.44608, 343.91327, -109.2993, -144.83203, -230.24399, -265.77676, 258.5014 ]
						},
						{
							"time": 1,
							"vertices": [ -7.42584, -7.32123, -7.32269, 7.36249, 7.36111, 7.25983, 7.25824, -7.42413 ]
						}
					]
				},
				"head": {
					"head": [
						{},
						{
							"time": 0.3333,
							"vertices": [ 38.91217, 41.80267, 41.89505, -37.20984, -37.11752, -40.19257, -40.10028, 38.81995 ]
						},
						{
							"time": 0.6667,
							"vertices": [ -19.82214, -19.04126, -19.13138, 19.00653, 18.91632, 18.31586, 18.22571, -19.73193 ]
						},
						{
							"time": 1,
							"vertices": [ -7.56659, -7.4325, -7.46384, 7.25146, 7.22003, 7.1488, 7.11755, -7.53528 ]
						}
					]
				}
			}
		}
	}
}
}