%YAML 1.1
%TAG !u! tag:unity3d.com,2011:
--- !u!687078895 &4343727234628468602
SpriteAtlas:
  m_ObjectHideFlags: 0
  m_CorrespondingSourceObject: {fileID: 0}
  m_PrefabInstance: {fileID: 0}
  m_PrefabAsset: {fileID: 0}
  m_Name: Shop
  m_EditorData:
    serializedVersion: 2
    textureSettings:
      serializedVersion: 2
      anisoLevel: 1
      compressionQuality: 50
      maxTextureSize: 2048
      textureCompression: 0
      filterMode: 1
      generateMipMaps: 0
      readable: 0
      crunchedCompression: 0
      sRGB: 1
    platformSettings:
    - serializedVersion: 3
      m_BuildTarget: Android
      m_MaxTextureSize: 1024
      m_ResizeAlgorithm: 0
      m_TextureFormat: 29
      m_TextureCompression: 1
      m_CompressionQuality: 100
      m_CrunchedCompression: 0
      m_AllowsAlphaSplitting: 0
      m_Overridden: 1
      m_AndroidETC2FallbackOverride: 0
      m_ForceMaximumCompressionQuality_BC6H_BC7: 0
    packingSettings:
      serializedVersion: 2
      padding: 4
      blockOffset: 1
      allowAlphaSplitting: 0
      enableRotation: 1
      enableTightPacking: 0
    secondaryTextureSettings: {}
    variantMultiplier: 1
    packables:
    - {fileID: 102900000, guid: b091a9341bb13a14ea484f17b3b55481, type: 3}
    - {fileID: 102900000, guid: 201f3342fbfb936469e4103d4febb7d7, type: 3}
    bindAsDefault: 1
    isAtlasV2: 0
    cachedData: {fileID: 0}
  m_MasterAtlas: {fileID: 0}
  m_PackedSprites:
  - {fileID: 21300000, guid: e84c2bd03af497d409b7dca3c064e42a, type: 3}
  - {fileID: 21300000, guid: 296c8d0138c71e446b89e691ff138f01, type: 3}
  - {fileID: -8614649252922005308, guid: 9d65dd619a29eaf4484307acff8b0ebb, type: 3}
  - {fileID: 21300000, guid: d367549130d0fd0419bc699c732fa312, type: 3}
  - {fileID: 21300000, guid: 4657f71359b7cda448f54bc32c34a769, type: 3}
  - {fileID: 21300000, guid: 4cb4b7a4f37a0fb428f6eec1fa970461, type: 3}
  - {fileID: 21300000, guid: 124728552cf87044e960fe97db72ad5a, type: 3}
  - {fileID: 21300000, guid: 07e466852efa3894cb277556ed611cff, type: 3}
  - {fileID: 21300000, guid: 447e54e5331a0814882a7baeeaecf239, type: 3}
  - {fileID: 21300000, guid: 6fa0c7969d21be947a9c984eea503f52, type: 3}
  - {fileID: -1527197745244451840, guid: a568d6d666fe36f4aa5787c57a2fe26d, type: 3}
  - {fileID: 21300000, guid: 640eae275f545574c9de7a747f978595, type: 3}
  - {fileID: 21300000, guid: da672ba7f1f1f764f99388f5eae8a86d, type: 3}
  - {fileID: 21300000, guid: f94b3ec71b8bd1941949be60ee0a0073, type: 3}
  - {fileID: 21300000, guid: c97944e788778744f82e461da225f388, type: 3}
  - {fileID: 21300000, guid: c0881f58f30d14b4f83b2f70a0c00106, type: 3}
  - {fileID: 21300000, guid: 45c8af687abe22f4daa99e8635124213, type: 3}
  - {fileID: 21300000, guid: c90f91a8e9ea38f4683b99e7e0fd8c7f, type: 3}
  - {fileID: 21300000, guid: fd9b21f8b6f04d748b9b36cc5e6a3124, type: 3}
  - {fileID: 2711124957875288333, guid: 91b9ee194eaf13147bd9eb50e2530020, type: 3}
  - {fileID: 21300000, guid: 02d65a594061a6f45af0d4387831c3d4, type: 3}
  - {fileID: 21300000, guid: e51cc3a900b10a04b81465236ba2efac, type: 3}
  - {fileID: 21300000, guid: ff123ad9edcfad44a9e44031d82c971e, type: 3}
  - {fileID: 21300000, guid: 380b5bba67d93bc45b225bf81aa35e17, type: 3}
  - {fileID: 21300000, guid: bb8f8bfa8decf18458107d6c09d522fe, type: 3}
  - {fileID: 21300000, guid: e80e214b23ccf2b43ae0eadda1aaab0c, type: 3}
  - {fileID: 21300000, guid: 31609dccfc905104496801d15bb8d4d0, type: 3}
  - {fileID: 21300000, guid: ec49a1ecb00438a4a98a3bd3221fba2e, type: 3}
  - {fileID: 21300000, guid: 6931377d293fb0749adc01f81b2c6d65, type: 3}
  - {fileID: 21300000, guid: a7b866eda957bba4da61c627e2e49c9c, type: 3}
  - {fileID: 21300000, guid: ae64242e7c6ebcf48a44074923b3dd83, type: 3}
  - {fileID: 21300000, guid: eb9a0d5e79f6a0e4890b01295cfb7b0a, type: 3}
  - {fileID: 21300000, guid: 3486db6e1e52d5441a60dd3e39202772, type: 3}
  - {fileID: 21300000, guid: a7a5d37ea70427740b59629c66dde156, type: 3}
  - {fileID: 7424610862168630142, guid: 417b93febd0994c43be555e720539234, type: 3}
  - {fileID: 54424983460405338, guid: 417b93febd0994c43be555e720539234, type: 3}
  - {fileID: 9013270751167399587, guid: 417b93febd0994c43be555e720539234, type: 3}
  - {fileID: 8659770091634399788, guid: 417b93febd0994c43be555e720539234, type: 3}
  - {fileID: 5617967483211012242, guid: 417b93febd0994c43be555e720539234, type: 3}
  - {fileID: 5040107957939724949, guid: 417b93febd0994c43be555e720539234, type: 3}
  - {fileID: -741557670863718756, guid: 417b93febd0994c43be555e720539234, type: 3}
  - {fileID: -3417920176317857453, guid: 417b93febd0994c43be555e720539234, type: 3}
  - {fileID: -2061956352732346191, guid: 417b93febd0994c43be555e720539234, type: 3}
  - {fileID: -2704448795956546945, guid: 86e0cc6f4ed10a548b9e16e7f48c1c3b, type: 3}
  - {fileID: 2863293332678488952, guid: 86e0cc6f4ed10a548b9e16e7f48c1c3b, type: 3}
  - {fileID: -8271165608624662503, guid: 86e0cc6f4ed10a548b9e16e7f48c1c3b, type: 3}
  - {fileID: -6418650645028139938, guid: 86e0cc6f4ed10a548b9e16e7f48c1c3b, type: 3}
  - {fileID: 9037367276065786499, guid: 86e0cc6f4ed10a548b9e16e7f48c1c3b, type: 3}
  - {fileID: -1011162756401661264, guid: 86e0cc6f4ed10a548b9e16e7f48c1c3b, type: 3}
  - {fileID: -6727863954156906528, guid: 86e0cc6f4ed10a548b9e16e7f48c1c3b, type: 3}
  - {fileID: 8208491443232052566, guid: 86e0cc6f4ed10a548b9e16e7f48c1c3b, type: 3}
  - {fileID: -8156226704683686350, guid: 86e0cc6f4ed10a548b9e16e7f48c1c3b, type: 3}
  m_PackedSpriteNamesToIndex:
  - premium_pack
  - pile_of_diamonds
  - discount_base_0
  - 25_
  - countdown_2
  - 30_
  - coin_20M
  - ClothesShop_Text
  - coin_1M
  - wheathy_pack
  - line_discount_0
  - Special_Offer
  - dsicount button
  - coin_5M
  - deluxe_pack
  - bucket_of_diamonds
  - ClothesStore_Item_Plate 1
  - ClothesStore_Item_Inside_Plate
  - Coin_Button
  - ClothesStore_buy_Price_Btn_0
  - coin_75K
  - Money_Diamond_Plate
  - Item_Plate
  - 35_
  - barrel_of_diamonds
  - heap_of_diamonds
  - Diamond_Button
  - growth_pack
  - ClothesStore_Border
  - Store_Text
  - 20_
  - chest_of_diamonds
  - dsicount
  - box_of_diamonds
  - ClothesStore_Button_off_8
  - ClothesStore_Button_off_4
  - ClothesStore_Button_off_5
  - ClothesStore_Button_off_6
  - ClothesStore_Button_off_7
  - ClothesStore_Button_off_0
  - ClothesStore_Button_off_1
  - ClothesStore_Button_off_2
  - ClothesStore_Button_off_3
  - ClothesStore_Button_on_8
  - ClothesStore_Button_on_0
  - ClothesStore_Button_on_1
  - ClothesStore_Button_on_2
  - ClothesStore_Button_on_3
  - ClothesStore_Button_on_4
  - ClothesStore_Button_on_5
  - ClothesStore_Button_on_6
  - ClothesStore_Button_on_7
  m_RenderDataMap: {}
  m_Tag: Shop
  m_IsVariant: 0
