%YAML 1.1
%TAG !u! tag:unity3d.com,2011:
--- !u!74 &7400000
AnimationClip:
  m_ObjectHideFlags: 0
  m_CorrespondingSourceObject: {fileID: 0}
  m_PrefabInstance: {fileID: 0}
  m_PrefabAsset: {fileID: 0}
  m_Name: Red
  serializedVersion: 6
  m_Legacy: 0
  m_Compressed: 0
  m_UseHighQualityCurve: 1
  m_RotationCurves: []
  m_CompressedRotationCurves: []
  m_EulerCurves: []
  m_PositionCurves: []
  m_ScaleCurves: []
  m_FloatCurves:
  - curve:
      serializedVersion: 2
      m_Curve:
      - serializedVersion: 3
        time: 0
        value: 0
        inSlope: Infinity
        outSlope: Infinity
        tangentMode: 103
        weightedMode: 0
        inWeight: 0
        outWeight: 0
      - serializedVersion: 3
        time: 0.4888889
        value: 1
        inSlope: Infinity
        outSlope: Infinity
        tangentMode: 103
        weightedMode: 0
        inWeight: 0
        outWeight: 0
      m_PreInfinity: 2
      m_PostInfinity: 2
      m_RotationOrder: 4
    attribute: m_IsActive
    path: IsiKartu
    classID: 1
    script: {fileID: 0}
  m_PPtrCurves:
  - curve:
    - time: 0
      value: {fileID: -4240194620174916445, guid: 9a8b4168895ad954aadab5303e0ba545, type: 3}
    - time: 0.044444446
      value: {fileID: -3186729506298846413, guid: 9a8b4168895ad954aadab5303e0ba545, type: 3}
    - time: 0.08888889
      value: {fileID: -2752684380857860503, guid: 9a8b4168895ad954aadab5303e0ba545, type: 3}
    - time: 0.13333334
      value: {fileID: -3050083583858145712, guid: 9a8b4168895ad954aadab5303e0ba545, type: 3}
    - time: 0.17777778
      value: {fileID: 2995202207471969925, guid: 9a8b4168895ad954aadab5303e0ba545, type: 3}
    - time: 0.22222222
      value: {fileID: -1374988840970415697, guid: 9a8b4168895ad954aadab5303e0ba545, type: 3}
    - time: 0.26666668
      value: {fileID: 5789077131917876050, guid: 9a8b4168895ad954aadab5303e0ba545, type: 3}
    - time: 0.31111112
      value: {fileID: -7002019293506549736, guid: 9a8b4168895ad954aadab5303e0ba545, type: 3}
    - time: 0.35555556
      value: {fileID: 1951228636931062545, guid: 9a8b4168895ad954aadab5303e0ba545, type: 3}
    - time: 0.4
      value: {fileID: 2818121102593580280, guid: 9a8b4168895ad954aadab5303e0ba545, type: 3}
    - time: 0.44444445
      value: {fileID: 5365773204019594017, guid: 9a8b4168895ad954aadab5303e0ba545, type: 3}
    - time: 0.4888889
      value: {fileID: 4982037482401690027, guid: 9a8b4168895ad954aadab5303e0ba545, type: 3}
    attribute: m_Sprite
    path: 
    classID: 114
    script: {fileID: 11500000, guid: fe87c0e1cc204ed48ad3b37840f39efc, type: 3}
  m_SampleRate: 45
  m_WrapMode: 0
  m_Bounds:
    m_Center: {x: 0, y: 0, z: 0}
    m_Extent: {x: 0, y: 0, z: 0}
  m_ClipBindingConstant:
    genericBindings:
    - serializedVersion: 2
      path: 830205642
      attribute: 2086281974
      script: {fileID: 0}
      typeID: 1
      customType: 0
      isPPtrCurve: 0
    - serializedVersion: 2
      path: 0
      attribute: 2015549526
      script: {fileID: 11500000, guid: fe87c0e1cc204ed48ad3b37840f39efc, type: 3}
      typeID: 114
      customType: 0
      isPPtrCurve: 1
    pptrCurveMapping:
    - {fileID: -4240194620174916445, guid: 9a8b4168895ad954aadab5303e0ba545, type: 3}
    - {fileID: -3186729506298846413, guid: 9a8b4168895ad954aadab5303e0ba545, type: 3}
    - {fileID: -2752684380857860503, guid: 9a8b4168895ad954aadab5303e0ba545, type: 3}
    - {fileID: -3050083583858145712, guid: 9a8b4168895ad954aadab5303e0ba545, type: 3}
    - {fileID: 2995202207471969925, guid: 9a8b4168895ad954aadab5303e0ba545, type: 3}
    - {fileID: -1374988840970415697, guid: 9a8b4168895ad954aadab5303e0ba545, type: 3}
    - {fileID: 5789077131917876050, guid: 9a8b4168895ad954aadab5303e0ba545, type: 3}
    - {fileID: -7002019293506549736, guid: 9a8b4168895ad954aadab5303e0ba545, type: 3}
    - {fileID: 1951228636931062545, guid: 9a8b4168895ad954aadab5303e0ba545, type: 3}
    - {fileID: 2818121102593580280, guid: 9a8b4168895ad954aadab5303e0ba545, type: 3}
    - {fileID: 5365773204019594017, guid: 9a8b4168895ad954aadab5303e0ba545, type: 3}
    - {fileID: 4982037482401690027, guid: 9a8b4168895ad954aadab5303e0ba545, type: 3}
  m_AnimationClipSettings:
    serializedVersion: 2
    m_AdditiveReferencePoseClip: {fileID: 0}
    m_AdditiveReferencePoseTime: 0
    m_StartTime: 0
    m_StopTime: 0.51111114
    m_OrientationOffsetY: 0
    m_Level: 0
    m_CycleOffset: 0
    m_HasAdditiveReferencePose: 0
    m_LoopTime: 0
    m_LoopBlend: 0
    m_LoopBlendOrientation: 0
    m_LoopBlendPositionY: 0
    m_LoopBlendPositionXZ: 0
    m_KeepOriginalOrientation: 0
    m_KeepOriginalPositionY: 1
    m_KeepOriginalPositionXZ: 0
    m_HeightFromFeet: 0
    m_Mirror: 0
  m_EditorCurves:
  - curve:
      serializedVersion: 2
      m_Curve:
      - serializedVersion: 3
        time: 0
        value: 0
        inSlope: Infinity
        outSlope: Infinity
        tangentMode: 103
        weightedMode: 0
        inWeight: 0
        outWeight: 0
      - serializedVersion: 3
        time: 0.4888889
        value: 1
        inSlope: Infinity
        outSlope: Infinity
        tangentMode: 103
        weightedMode: 0
        inWeight: 0
        outWeight: 0
      m_PreInfinity: 2
      m_PostInfinity: 2
      m_RotationOrder: 4
    attribute: m_IsActive
    path: IsiKartu
    classID: 1
    script: {fileID: 0}
  m_EulerEditorCurves: []
  m_HasGenericRootTransform: 0
  m_HasMotionFloatCurves: 0
  m_Events: []
