{
"skeleton": {
	"hash": "KI/oOcKpoj+iGCGhg9qBCcajF9w",
	"spine": "3.8.75",
	"x": -898.48,
	"y": -1438.33,
	"width": 2124.15,
	"height": 2037.23,
	"images": "../Greg/",
	"audio": "C:/Users/ASUS/Downloads/Work/Day 31/anim"
},
"bones": [
	{ "name": "root" }
],
"slots": [
	{ "name": "shadow", "bone": "root", "attachment": "shadow" },
	{ "name": "p1", "bone": "root", "attachment": "p1" },
	{ "name": "p2", "bone": "root", "attachment": "p2" },
	{ "name": "p3", "bone": "root", "attachment": "p3" },
	{ "name": "l1", "bone": "root", "attachment": "l1" },
	{ "name": "l2", "bone": "root", "attachment": "l2" },
	{ "name": "body", "bone": "root", "attachment": "body" },
	{ "name": "head", "bone": "root", "attachment": "head" },
	{ "name": "leg", "bone": "root", "attachment": "leg" },
	{ "name": "r1", "bone": "root", "attachment": "r1" },
	{ "name": "r2", "bone": "root", "attachment": "r2" },
	{ "name": "p4", "bone": "root", "attachment": "p1" },
	{ "name": "p5", "bone": "root", "attachment": "p2" },
	{ "name": "p6", "bone": "root", "attachment": "p3" }
],
"skins": [
	{
		"name": "default",
		"attachments": {
			"r2": {
				"r2": {
					"type": "mesh",
					"uvs": [ 1, 1, 0, 1, 0, 0, 1, 0 ],
					"triangles": [ 1, 2, 3, 1, 3, 0 ],
					"vertices": [ 537, -475, -511, -475, -511, 573, 537, 573 ],
					"hull": 4,
					"edges": [ 0, 2, 2, 4, 4, 6, 0, 6 ],
					"width": 1048,
					"height": 1048
				}
			},
			"p1": {
				"p1": {
					"type": "mesh",
					"uvs": [ 1, 1, 0, 1, 0, 0, 1, 0 ],
					"triangles": [ 1, 2, 3, 1, 3, 0 ],
					"vertices": [ 1225.67, -486.68, 177.67, -486.68, 177.67, 561.32, 1225.67, 561.32 ],
					"hull": 4,
					"edges": [ 0, 2, 2, 4, 4, 6, 0, 6 ],
					"width": 1048,
					"height": 1048
				}
			},
			"p2": {
				"p2": {
					"type": "mesh",
					"uvs": [ 1, 1, 0, 1, 0, 0, 1, 0 ],
					"triangles": [ 1, 2, 3, 1, 3, 0 ],
					"vertices": [ 1213.63, -705.48, 165.63, -705.48, 165.63, 342.52, 1213.63, 342.52 ],
					"hull": 4,
					"edges": [ 0, 2, 2, 4, 4, 6, 0, 6 ],
					"width": 1048,
					"height": 1048
				}
			},
			"p3": {
				"p3": {
					"type": "mesh",
					"uvs": [ 1, 1, 0, 1, 0, 0, 1, 0 ],
					"triangles": [ 1, 2, 3, 1, 3, 0 ],
					"vertices": [ 1122.83, -950.54, 74.83, -950.54, 74.83, 97.46, 1122.83, 97.46 ],
					"hull": 4,
					"edges": [ 0, 2, 2, 4, 4, 6, 0, 6 ],
					"width": 1048,
					"height": 1048
				}
			},
			"head": {
				"head": {
					"type": "mesh",
					"uvs": [ 1, 1, 0, 1, 0, 0, 1, 0 ],
					"triangles": [ 1, 2, 3, 1, 3, 0 ],
					"vertices": [ 543, -476, -505, -476, -505, 572, 543, 572 ],
					"hull": 4,
					"edges": [ 0, 2, 2, 4, 4, 6, 0, 6 ],
					"width": 1048,
					"height": 1048
				}
			},
			"l1": {
				"l1": {
					"type": "mesh",
					"uvs": [ 1, 1, 0, 1, 0, 0, 1, 0 ],
					"triangles": [ 1, 2, 3, 1, 3, 0 ],
					"vertices": [ 529, -459, -519, -459, -519, 589, 529, 589 ],
					"hull": 4,
					"edges": [ 0, 2, 2, 4, 4, 6, 0, 6 ],
					"width": 1048,
					"height": 1048
				}
			},
			"l2": {
				"l2": {
					"type": "mesh",
					"uvs": [ 1, 1, 0, 1, 0, 0, 1, 0 ],
					"triangles": [ 1, 2, 3, 1, 3, 0 ],
					"vertices": [ 523.9, -449.09, -524.09, -452.9, -527.9, 595.09, 520.09, 598.9 ],
					"hull": 4,
					"edges": [ 0, 2, 2, 4, 4, 6, 0, 6 ],
					"width": 1048,
					"height": 1048
				}
			},
			"p6": {
				"p3": {
					"type": "mesh",
					"uvs": [ 1, 1, 0, 1, 0, 0, 1, 0 ],
					"triangles": [ 1, 2, 3, 1, 3, 0 ],
					"vertices": [ 149.52, -1438.33, -898.48, -1438.33, -898.48, -390.33, 149.52, -390.33 ],
					"hull": 4,
					"edges": [ 0, 2, 2, 4, 4, 6, 0, 6 ],
					"width": 1048,
					"height": 1048
				}
			},
			"leg": {
				"leg": {
					"type": "mesh",
					"uvs": [ 1, 1, 0, 1, 0, 0, 1, 0 ],
					"triangles": [ 1, 2, 3, 1, 3, 0 ],
					"vertices": [ 542.96, -486.96, -505.04, -486.96, -505.04, 561.04, 542.96, 561.04 ],
					"hull": 4,
					"edges": [ 0, 2, 2, 4, 4, 6, 0, 6 ],
					"width": 1048,
					"height": 1048
				}
			},
			"shadow": {
				"shadow": { "x": 16.79, "y": -424.91, "scaleX": 1.2994, "scaleY": 1.1719, "width": 273, "height": 67 }
			},
			"body": {
				"body": {
					"type": "mesh",
					"uvs": [ 1, 1, 0, 1, 0, 0, 1, 0 ],
					"triangles": [ 1, 2, 3, 1, 3, 0 ],
					"vertices": [ 540, -477, -508, -477, -508, 571, 540, 571 ],
					"hull": 4,
					"edges": [ 0, 2, 2, 4, 4, 6, 0, 6 ],
					"width": 1048,
					"height": 1048
				}
			},
			"p5": {
				"p2": {
					"type": "mesh",
					"uvs": [ 1, 1, 0, 1, 0, 0, 1, 0 ],
					"triangles": [ 1, 2, 3, 1, 3, 0 ],
					"vertices": [ 172.38, -1249.47, -875.62, -1249.47, -875.62, -201.47, 172.38, -201.47 ],
					"hull": 4,
					"edges": [ 0, 2, 2, 4, 4, 6, 0, 6 ],
					"width": 1048,
					"height": 1048
				}
			},
			"p4": {
				"p1": {
					"type": "mesh",
					"uvs": [ 1, 1, 0, 1, 0, 0, 1, 0 ],
					"triangles": [ 1, 2, 3, 1, 3, 0 ],
					"vertices": [ 168.8, -1079.71, -879.2, -1079.71, -879.2, -31.71, 168.8, -31.71 ],
					"hull": 4,
					"edges": [ 0, 2, 2, 4, 4, 6, 0, 6 ],
					"width": 1048,
					"height": 1048
				}
			},
			"r1": {
				"r1": {
					"type": "mesh",
					"uvs": [ 1, 1, 0, 1, 0, 0, 1, 0 ],
					"triangles": [ 1, 2, 3, 1, 3, 0 ],
					"vertices": [ 535, -466, -513, -466, -513, 582, 535, 582 ],
					"hull": 4,
					"edges": [ 0, 2, 2, 4, 4, 6, 0, 6 ],
					"width": 1048,
					"height": 1048
				}
			}
		}
	}
],
"animations": {
	"animation": {
		"slots": {
			"p2": {
				"attachment": [
					{ "name": null },
					{ "time": 0.2667, "name": "p2" },
					{ "time": 0.3, "name": null }
				]
			},
			"p1": {
				"attachment": [
					{ "name": null },
					{ "time": 0.2333, "name": "p1" },
					{ "time": 0.2667, "name": null }
				]
			},
			"p6": {
				"attachment": [
					{ "name": null },
					{ "time": 0.6333, "name": "p3" },
					{ "time": 0.6667, "name": null }
				]
			},
			"p4": {
				"attachment": [
					{ "name": null },
					{ "time": 0.5, "name": "p1" },
					{ "time": 0.5667, "name": null }
				]
			},
			"p3": {
				"attachment": [
					{ "name": null },
					{ "time": 0.3, "name": "p3" },
					{ "time": 0.3333, "name": null }
				]
			},
			"p5": {
				"attachment": [
					{ "name": null },
					{ "time": 0.5667, "name": "p2" },
					{ "time": 0.6333, "name": null }
				]
			}
		},
		"deform": {
			"default": {
				"p2": {
					"p2": [
						{},
						{
							"time": 0.2667,
							"vertices": [ -594.84607, 416.65195, -374.6759, 416.65195, -374.6759, 235.08575, -594.84607, 235.08575 ]
						}
					]
				},
				"p1": {
					"p1": [
						{},
						{
							"time": 0.2333,
							"vertices": [ -444.48004, 120.84302, -444.48004, 120.84302, -444.48004, 120.84302, -444.48004, 120.84302 ]
						}
					]
				},
				"l2": {
					"l2": [
						{},
						{
							"time": 0.1667,
							"vertices": [ -334.98907, -130.90085, -204.748, 378.9059, 305.05853, 248.66504, 174.81767, -261.14163 ]
						},
						{
							"time": 0.2333,
							"vertices": [ -231.98819, 28.33459, 40.00693, 687.6455, 699.3175, 415.6489, 427.32178, -243.66129 ]
						},
						{
							"time": 0.3333,
							"vertices": [ 2.72702, 0, 2.72702, 0, 2.72702, 0, 2.72702 ]
						},
						{
							"time": 0.6667,
							"vertices": [ -0.80699, 0, -0.80699, 0, -0.80699, 0, -0.80699 ]
						}
					]
				},
				"body": {
					"body": [
						{},
						{
							"time": 0.3333,
							"vertices": [ 9.52612, -11.56262, -9.52612, -11.56262, -9.52612, 17.01663, 9.52612, 17.01663 ]
						},
						{
							"time": 0.6667,
							"vertices": [ 0.09888, 0.16703, -0.09888, 0.16703, -0.09888, -2.95894, 0.09888, -2.95894 ]
						}
					]
				},
				"p6": {
					"p3": [
						{
							"time": 0.5667,
							"vertices": [ 423.05014, 912.9117, 423.05014, 912.9117, 423.05014, 912.9117, 423.05014, 912.9117 ]
						}
					]
				},
				"r2": {
					"r2": [
						{},
						{
							"time": 0.1667,
							"vertices": [ 180.822, 260.51352, 243.99756, -97.85139, -114.3669, -161.02724, -177.54268, 197.33788 ]
						},
						{
							"time": 0.3333,
							"vertices": [ -5.86203, 0, -5.86203, 0, -5.86203, 0, -5.86203 ]
						},
						{
							"time": 0.4,
							"vertices": [ 121.10158, 322.95844, 205.45737, -88.98071, -206.4818, -173.33649, -290.83755, 238.60266 ]
						},
						{
							"time": 0.5,
							"vertices": [ 348.69882, 306.18408, 401.42117, 48.72209, 143.95918, -4.00027, 91.23683, 253.46173 ]
						},
						{
							"time": 0.6667,
							"vertices": [ 2.69199, 0, 2.69199, 0, 2.69199, 0, 2.69199 ]
						}
					]
				},
				"l1": {
					"l1": [
						{},
						{
							"time": 0.1667,
							"vertices": [ -340.44684, -132.1305, -208.35469, 377.19974, 300.97568, 245.10736, 168.88322, -264.2228 ]
						},
						{
							"time": 0.2333,
							"vertices": [ 299.02713, 810.4664, 1069.605, -166.71973, 92.4192, -937.29706, -678.1582, 39.88922 ]
						},
						{
							"time": 0.3333,
							"vertices": [ 2.72702, 0, 2.72702, 0, 2.72702, 0, 2.72702 ]
						},
						{
							"time": 0.6667,
							"vertices": [ -0.80699, 0, -0.80699, 0, -0.80699, 0, -0.80699 ]
						}
					]
				},
				"p4": {
					"p1": [
						{
							"time": 0.5,
							"vertices": [ 551.819, 599.89307, 551.819, 599.89307, 551.819, 599.89307, 551.819, 599.89307 ]
						},
						{
							"time": 0.5333,
							"vertices": [ 498.35907, 599.89307, 498.35907, 599.89307, 498.35907, 599.89307, 498.35907, 599.89307 ]
						}
					]
				},
				"head": {
					"head": [
						{},
						{
							"time": 0.1667,
							"vertices": [ -136.95709, -87.35854, -117.39551, 114.18004, 84.1431, 94.61855, 64.58154, -106.91997 ]
						},
						{
							"time": 0.3667,
							"offset": 1,
							"vertices": [ 7.98605, 0, 7.98605, 0, 7.98605, 0, 7.98605 ]
						},
						{ "time": 0.6667 }
					]
				},
				"r1": {
					"r1": [
						{},
						{
							"time": 0.1667,
							"vertices": [ 177.86504, 259.28717, 241.0406, -99.0779, -117.32399, -162.25356, -180.49965, 196.1115 ]
						},
						{
							"time": 0.3333,
							"vertices": [ -5.86203, 0, -5.86203, 0, -5.86203, 0, -5.86203 ]
						},
						{
							"time": 0.4,
							"vertices": [ -4.15123, 0, -4.15123, 0, -4.15123, 0, -4.15123 ]
						},
						{
							"time": 0.4333,
							"vertices": [ 178.74698, 411.759, 329.8815, 7.10206, -126.62999, -245.90729, -277.76462, 158.74918 ]
						},
						{
							"time": 0.4667,
							"vertices": [ 157.58507, 905.72986, 717.1951, 79.62012, -138.41678, -537.95276, -698.0268, 288.15637 ]
						},
						{
							"time": 0.5,
							"vertices": [ -60.43671, 1315.6655, 1026.0452, 268.3714, -21.24762, -818.1105, -1107.7297, 229.18259 ]
						},
						{
							"time": 0.5333,
							"vertices": [ 44.68298, 1134.5364, 887.44324, 145.3606, -74.20568, -691.52484, -916.96594, 297.65024 ]
						},
						{
							"time": 0.6,
							"vertices": [ 209.26155, 560.0801, 461.1159, 12.81158, -149.79094, -338.57434, -401.64514, 208.69377 ]
						},
						{
							"time": 0.6667,
							"vertices": [ 2.69199, 0, 2.69199, 0, 2.69199, 0, 2.69199 ]
						}
					]
				},
				"p3": {
					"p3": [
						{},
						{
							"time": 0.3,
							"vertices": [ -483.13998, 552.1598, -483.13998, 552.1598, -483.13998, 552.1598, -483.13998, 552.1598 ]
						}
					]
				},
				"p5": {
					"p2": [
						{
							"time": 0.5333,
							"vertices": [ 378.9033, 778.39886, 584.1426, 778.39886, 584.1426, 709.98474, 378.9033, 709.98474 ]
						},
						{
							"time": 0.5667,
							"vertices": [ 256.21957, 776.6322, 381.54013, 776.6322, 381.54013, 630.4258, 256.21957, 630.4258 ]
						},
						{
							"time": 0.6,
							"vertices": [ 300.70358, 776.6322, 426.02414, 776.6322, 426.02414, 630.4258, 300.70358, 630.4258 ]
						}
					]
				}
			}
		}
	}
}
}