%YAML 1.1
%TAG !u! tag:unity3d.com,2011:
--- !u!21 &-5098829291167199777
Material:
  serializedVersion: 6
  m_ObjectHideFlags: 1
  m_CorrespondingSourceObject: {fileID: 0}
  m_PrefabInstance: {fileID: 0}
  m_PrefabAsset: {fileID: 0}
  m_Name: TextMeshPro/Sprite
  m_Shader: {fileID: 4800000, guid: cf81c85f95fe47e1a27f6ae460cf182c, type: 3}
  m_ShaderKeywords: 
  m_LightmapFlags: 4
  m_EnableInstancingVariants: 0
  m_DoubleSidedGI: 0
  m_CustomRenderQueue: -1
  stringTagMap: {}
  disabledShaderPasses: []
  m_SavedProperties:
    serializedVersion: 3
    m_TexEnvs:
    - _MainTex:
        m_Texture: {fileID: 2800000, guid: 315e11284fe1dee4b9aca57bd33a4255, type: 3}
        m_Scale: {x: 1, y: 1}
        m_Offset: {x: 0, y: 0}
    m_Floats:
    - _ColorMask: 15
    - _CullMode: 0
    - _Stencil: 0
    - _StencilComp: 8
    - _StencilOp: 0
    - _StencilReadMask: 255
    - _StencilWriteMask: 255
    - _UseUIAlphaClip: 0
    m_Colors:
    - _ClipRect: {r: -32767, g: -32767, b: 32767, a: 32767}
    - _Color: {r: 1, g: 1, b: 1, a: 1}
  m_BuildTextureStacks: []
--- !u!114 &11400000
MonoBehaviour:
  m_ObjectHideFlags: 0
  m_CorrespondingSourceObject: {fileID: 0}
  m_PrefabInstance: {fileID: 0}
  m_PrefabAsset: {fileID: 0}
  m_GameObject: {fileID: 0}
  m_Enabled: 1
  m_EditorHideFlags: 0
  m_Script: {fileID: 11500000, guid: 84a92b25f83d49b9bc132d206b370281, type: 3}
  m_Name: EmoteAll
  m_EditorClassIdentifier: 
  hashCode: -1824664841
  material: {fileID: -5098829291167199777}
  materialHashCode: 0
  m_Version: 1.1.0
  m_FaceInfo:
    m_FaceIndex: 0
    m_FamilyName: 
    m_StyleName: 
    m_PointSize: 0
    m_Scale: 0
    m_LineHeight: 0
    m_AscentLine: 0
    m_CapLine: 0
    m_MeanLine: 0
    m_Baseline: 0
    m_DescentLine: 0
    m_SuperscriptOffset: 0
    m_SuperscriptSize: 0
    m_SubscriptOffset: 0
    m_SubscriptSize: 0
    m_UnderlineOffset: 0
    m_UnderlineThickness: 0
    m_StrikethroughOffset: 0
    m_StrikethroughThickness: 0
    m_TabWidth: 0
  spriteSheet: {fileID: 2800000, guid: 315e11284fe1dee4b9aca57bd33a4255, type: 3}
  m_SpriteCharacterTable:
  - m_ElementType: 2
    m_Unicode: 65534
    m_GlyphIndex: 0
    m_Scale: 1
    m_Name: EmoteAll_0
    m_HashCode: 1509843640
  - m_ElementType: 2
    m_Unicode: 65534
    m_GlyphIndex: 1
    m_Scale: 1
    m_Name: EmoteAll_1
    m_HashCode: 1509843641
  - m_ElementType: 2
    m_Unicode: 65534
    m_GlyphIndex: 2
    m_Scale: 1
    m_Name: EmoteAll_2
    m_HashCode: 1509843642
  - m_ElementType: 2
    m_Unicode: 65534
    m_GlyphIndex: 3
    m_Scale: 1
    m_Name: EmoteAll_3
    m_HashCode: 1509843643
  - m_ElementType: 2
    m_Unicode: 65534
    m_GlyphIndex: 4
    m_Scale: 1
    m_Name: EmoteAll_4
    m_HashCode: 1509843644
  - m_ElementType: 2
    m_Unicode: 65534
    m_GlyphIndex: 5
    m_Scale: 1
    m_Name: EmoteAll_5
    m_HashCode: 1509843645
  - m_ElementType: 2
    m_Unicode: 65534
    m_GlyphIndex: 6
    m_Scale: 1
    m_Name: EmoteAll_6
    m_HashCode: 1509843646
  - m_ElementType: 2
    m_Unicode: 65534
    m_GlyphIndex: 7
    m_Scale: 1
    m_Name: EmoteAll_7
    m_HashCode: 1509843647
  - m_ElementType: 2
    m_Unicode: 65534
    m_GlyphIndex: 8
    m_Scale: 1
    m_Name: EmoteAll_8
    m_HashCode: 1509843632
  - m_ElementType: 2
    m_Unicode: 65534
    m_GlyphIndex: 9
    m_Scale: 1
    m_Name: EmoteAll_9
    m_HashCode: 1509843633
  - m_ElementType: 2
    m_Unicode: 65534
    m_GlyphIndex: 10
    m_Scale: 1
    m_Name: EmoteAll_10
    m_HashCode: -1714767383
  - m_ElementType: 2
    m_Unicode: 65534
    m_GlyphIndex: 11
    m_Scale: 1
    m_Name: EmoteAll_11
    m_HashCode: -1714767384
  - m_ElementType: 2
    m_Unicode: 65534
    m_GlyphIndex: 12
    m_Scale: 1
    m_Name: EmoteAll_12
    m_HashCode: -1714767381
  - m_ElementType: 2
    m_Unicode: 65534
    m_GlyphIndex: 13
    m_Scale: 1
    m_Name: EmoteAll_13
    m_HashCode: -1714767382
  - m_ElementType: 2
    m_Unicode: 65534
    m_GlyphIndex: 14
    m_Scale: 1
    m_Name: EmoteAll_14
    m_HashCode: -1714767379
  - m_ElementType: 2
    m_Unicode: 65534
    m_GlyphIndex: 15
    m_Scale: 1
    m_Name: EmoteAll_15
    m_HashCode: -1714767380
  - m_ElementType: 2
    m_Unicode: 65534
    m_GlyphIndex: 16
    m_Scale: 1
    m_Name: EmoteAll_16
    m_HashCode: -1714767377
  - m_ElementType: 2
    m_Unicode: 65534
    m_GlyphIndex: 17
    m_Scale: 1
    m_Name: EmoteAll_17
    m_HashCode: -1714767378
  - m_ElementType: 2
    m_Unicode: 65534
    m_GlyphIndex: 18
    m_Scale: 1
    m_Name: EmoteAll_18
    m_HashCode: -1714767391
  m_SpriteGlyphTable:
  - m_Index: 0
    m_Metrics:
      m_Width: 256
      m_Height: 256
      m_HorizontalBearingX: -5
      m_HorizontalBearingY: 265
      m_HorizontalAdvance: 256
    m_GlyphRect:
      m_X: 0
      m_Y: 1024
      m_Width: 256
      m_Height: 256
    m_Scale: 1
    m_AtlasIndex: 0
    sprite: {fileID: -7266795651853546071, guid: 315e11284fe1dee4b9aca57bd33a4255, type: 3}
  - m_Index: 1
    m_Metrics:
      m_Width: 256
      m_Height: 256
      m_HorizontalBearingX: -5
      m_HorizontalBearingY: 265
      m_HorizontalAdvance: 256
    m_GlyphRect:
      m_X: 256
      m_Y: 1024
      m_Width: 256
      m_Height: 256
    m_Scale: 1
    m_AtlasIndex: 0
    sprite: {fileID: -2380747016196987928, guid: 315e11284fe1dee4b9aca57bd33a4255, type: 3}
  - m_Index: 2
    m_Metrics:
      m_Width: 256
      m_Height: 256
      m_HorizontalBearingX: -5
      m_HorizontalBearingY: 265
      m_HorizontalAdvance: 256
    m_GlyphRect:
      m_X: 512
      m_Y: 1024
      m_Width: 256
      m_Height: 256
    m_Scale: 1
    m_AtlasIndex: 0
    sprite: {fileID: -5233473073195009514, guid: 315e11284fe1dee4b9aca57bd33a4255, type: 3}
  - m_Index: 3
    m_Metrics:
      m_Width: 256
      m_Height: 256
      m_HorizontalBearingX: -5
      m_HorizontalBearingY: 265
      m_HorizontalAdvance: 256
    m_GlyphRect:
      m_X: 768
      m_Y: 1024
      m_Width: 256
      m_Height: 256
    m_Scale: 1
    m_AtlasIndex: 0
    sprite: {fileID: 6368785700734166926, guid: 315e11284fe1dee4b9aca57bd33a4255, type: 3}
  - m_Index: 4
    m_Metrics:
      m_Width: 256
      m_Height: 256
      m_HorizontalBearingX: -5
      m_HorizontalBearingY: 265
      m_HorizontalAdvance: 256
    m_GlyphRect:
      m_X: 0
      m_Y: 768
      m_Width: 256
      m_Height: 256
    m_Scale: 1
    m_AtlasIndex: 0
    sprite: {fileID: -139695973067309323, guid: 315e11284fe1dee4b9aca57bd33a4255, type: 3}
  - m_Index: 5
    m_Metrics:
      m_Width: 256
      m_Height: 256
      m_HorizontalBearingX: -5
      m_HorizontalBearingY: 265
      m_HorizontalAdvance: 256
    m_GlyphRect:
      m_X: 256
      m_Y: 768
      m_Width: 256
      m_Height: 256
    m_Scale: 1
    m_AtlasIndex: 0
    sprite: {fileID: -4432472610017962751, guid: 315e11284fe1dee4b9aca57bd33a4255, type: 3}
  - m_Index: 6
    m_Metrics:
      m_Width: 256
      m_Height: 256
      m_HorizontalBearingX: -5
      m_HorizontalBearingY: 265
      m_HorizontalAdvance: 256
    m_GlyphRect:
      m_X: 512
      m_Y: 768
      m_Width: 256
      m_Height: 256
    m_Scale: 1
    m_AtlasIndex: 0
    sprite: {fileID: -2497031051543045984, guid: 315e11284fe1dee4b9aca57bd33a4255, type: 3}
  - m_Index: 7
    m_Metrics:
      m_Width: 256
      m_Height: 256
      m_HorizontalBearingX: -5
      m_HorizontalBearingY: 265
      m_HorizontalAdvance: 256
    m_GlyphRect:
      m_X: 768
      m_Y: 768
      m_Width: 256
      m_Height: 256
    m_Scale: 1
    m_AtlasIndex: 0
    sprite: {fileID: 6040931458187678360, guid: 315e11284fe1dee4b9aca57bd33a4255, type: 3}
  - m_Index: 8
    m_Metrics:
      m_Width: 256
      m_Height: 256
      m_HorizontalBearingX: -5
      m_HorizontalBearingY: 265
      m_HorizontalAdvance: 256
    m_GlyphRect:
      m_X: 0
      m_Y: 512
      m_Width: 256
      m_Height: 256
    m_Scale: 1
    m_AtlasIndex: 0
    sprite: {fileID: -2621382715688937129, guid: 315e11284fe1dee4b9aca57bd33a4255, type: 3}
  - m_Index: 9
    m_Metrics:
      m_Width: 256
      m_Height: 256
      m_HorizontalBearingX: -5
      m_HorizontalBearingY: 265
      m_HorizontalAdvance: 256
    m_GlyphRect:
      m_X: 256
      m_Y: 512
      m_Width: 256
      m_Height: 256
    m_Scale: 1
    m_AtlasIndex: 0
    sprite: {fileID: -998742700279976247, guid: 315e11284fe1dee4b9aca57bd33a4255, type: 3}
  - m_Index: 10
    m_Metrics:
      m_Width: 256
      m_Height: 256
      m_HorizontalBearingX: -5
      m_HorizontalBearingY: 265
      m_HorizontalAdvance: 256
    m_GlyphRect:
      m_X: 512
      m_Y: 512
      m_Width: 256
      m_Height: 256
    m_Scale: 1
    m_AtlasIndex: 0
    sprite: {fileID: 5344786939450197693, guid: 315e11284fe1dee4b9aca57bd33a4255, type: 3}
  - m_Index: 11
    m_Metrics:
      m_Width: 256
      m_Height: 256
      m_HorizontalBearingX: -5
      m_HorizontalBearingY: 265
      m_HorizontalAdvance: 256
    m_GlyphRect:
      m_X: 768
      m_Y: 512
      m_Width: 256
      m_Height: 256
    m_Scale: 1
    m_AtlasIndex: 0
    sprite: {fileID: 4438537172852144152, guid: 315e11284fe1dee4b9aca57bd33a4255, type: 3}
  - m_Index: 12
    m_Metrics:
      m_Width: 256
      m_Height: 256
      m_HorizontalBearingX: -5
      m_HorizontalBearingY: 265
      m_HorizontalAdvance: 256
    m_GlyphRect:
      m_X: 0
      m_Y: 256
      m_Width: 256
      m_Height: 256
    m_Scale: 1
    m_AtlasIndex: 0
    sprite: {fileID: -639800427613219766, guid: 315e11284fe1dee4b9aca57bd33a4255, type: 3}
  - m_Index: 13
    m_Metrics:
      m_Width: 256
      m_Height: 256
      m_HorizontalBearingX: -5
      m_HorizontalBearingY: 265
      m_HorizontalAdvance: 256
    m_GlyphRect:
      m_X: 256
      m_Y: 256
      m_Width: 256
      m_Height: 256
    m_Scale: 1
    m_AtlasIndex: 0
    sprite: {fileID: 3527555712881486224, guid: 315e11284fe1dee4b9aca57bd33a4255, type: 3}
  - m_Index: 14
    m_Metrics:
      m_Width: 256
      m_Height: 256
      m_HorizontalBearingX: -5
      m_HorizontalBearingY: 265
      m_HorizontalAdvance: 256
    m_GlyphRect:
      m_X: 512
      m_Y: 256
      m_Width: 256
      m_Height: 256
    m_Scale: 1
    m_AtlasIndex: 0
    sprite: {fileID: -6731386947649857805, guid: 315e11284fe1dee4b9aca57bd33a4255, type: 3}
  - m_Index: 15
    m_Metrics:
      m_Width: 256
      m_Height: 256
      m_HorizontalBearingX: -5
      m_HorizontalBearingY: 265
      m_HorizontalAdvance: 256
    m_GlyphRect:
      m_X: 768
      m_Y: 256
      m_Width: 256
      m_Height: 256
    m_Scale: 1
    m_AtlasIndex: 0
    sprite: {fileID: 9181623588643376386, guid: 315e11284fe1dee4b9aca57bd33a4255, type: 3}
  - m_Index: 16
    m_Metrics:
      m_Width: 256
      m_Height: 256
      m_HorizontalBearingX: -5
      m_HorizontalBearingY: 265
      m_HorizontalAdvance: 256
    m_GlyphRect:
      m_X: 0
      m_Y: 0
      m_Width: 256
      m_Height: 256
    m_Scale: 1
    m_AtlasIndex: 0
    sprite: {fileID: -3665279750477741136, guid: 315e11284fe1dee4b9aca57bd33a4255, type: 3}
  - m_Index: 17
    m_Metrics:
      m_Width: 256
      m_Height: 256
      m_HorizontalBearingX: -5
      m_HorizontalBearingY: 265
      m_HorizontalAdvance: 256
    m_GlyphRect:
      m_X: 256
      m_Y: 0
      m_Width: 256
      m_Height: 256
    m_Scale: 1
    m_AtlasIndex: 0
    sprite: {fileID: -344707113263355773, guid: 315e11284fe1dee4b9aca57bd33a4255, type: 3}
  - m_Index: 18
    m_Metrics:
      m_Width: 256
      m_Height: 256
      m_HorizontalBearingX: -5
      m_HorizontalBearingY: 265
      m_HorizontalAdvance: 256
    m_GlyphRect:
      m_X: 512
      m_Y: 0
      m_Width: 256
      m_Height: 256
    m_Scale: 1
    m_AtlasIndex: 0
    sprite: {fileID: 8104854530564348468, guid: 315e11284fe1dee4b9aca57bd33a4255, type: 3}
  spriteInfoList: []
  fallbackSpriteAssets: []
