
skeleton.png
size: 1052,1224
format: RGBA8888
filter: Linear,Linear
repeat: none
Body
  rotate: false
  xy: 2, 174
  size: 1048, 1048
  orig: 1048, 1048
  offset: 0, 0
  index: -1
tail
  rotate: true
  xy: 2, 2
  size: 170, 199
  orig: 1048, 1048
  offset: 246, 457
  index: -1
top
  rotate: false
  xy: 203, 42
  size: 143, 130
  orig: 1048, 1048
  offset: 663, 663
  index: -1

skeleton2.png
size: 1052,1052
format: RGBA8888
filter: Linear,Linear
repeat: none
Head
  rotate: false
  xy: 2, 2
  size: 1048, 1048
  orig: 1048, 1048
  offset: 0, 0
  index: -1

skeleton3.png
size: 1052,1052
format: RGBA8888
filter: Linear,Linear
repeat: none
Leg1
  rotate: false
  xy: 2, 2
  size: 1048, 1048
  orig: 1048, 1048
  offset: 0, 0
  index: -1

skeleton4.png
size: 1052,1052
format: RGBA8888
filter: Linear,Linear
repeat: none
Leg2
  rotate: false
  xy: 2, 2
  size: 1048, 1048
  orig: 1048, 1048
  offset: 0, 0
  index: -1

skeleton5.png
size: 1052,1052
format: RGBA8888
filter: Linear,Linear
repeat: none
effect2
  rotate: false
  xy: 2, 2
  size: 1048, 1048
  orig: 1048, 1048
  offset: 0, 0
  index: -1

skeleton6.png
size: 1052,1052
format: RGBA8888
filter: Linear,Linear
repeat: none
effect
  rotate: false
  xy: 2, 2
  size: 1048, 1048
  orig: 1048, 1048
  offset: 0, 0
  index: -1

skeleton7.png
size: 1052,1052
format: RGBA8888
filter: Linear,Linear
repeat: none
wing
  rotate: false
  xy: 2, 2
  size: 1048, 1048
  orig: 1048, 1048
  offset: 0, 0
  index: -1

skeleton8.png
size: 1052,1052
format: RGBA8888
filter: Linear,Linear
repeat: none
wing2
  rotate: false
  xy: 2, 2
  size: 1048, 1048
  orig: 1048, 1048
  offset: 0, 0
  index: -1
