{
  "project_info": {
    "project_number": "799928707175",
    "project_id": "the-gambler-a6657",
    "storage_bucket": "the-gambler-a6657.appspot.com"
  },
  "client": [
    {
      "client_info": {
        "mobilesdk_app_id": "1:799928707175:android:9e256d3d54398fee5a8cc2",
        "android_client_info": {
          "package_name": "com.Activseed.TheGambler"
        }
      },
      "oauth_client": [
        {
          "client_id": "799928707175-1vb7u3ant0ikpou3urj162fo0gqbrr96.apps.googleusercontent.com",
          "client_type": 1,
          "android_info": {
            "package_name": "com.Activseed.TheGambler",
            "certificate_hash": "2d38892162b3fab73654304ca90e47572a8ab6ec"
          }
        },
        {
          "client_id": "799928707175-k7bpaq0c5r87c2e5dkkhhgeqnhlkm3ak.apps.googleusercontent.com",
          "client_type": 1,
          "android_info": {
            "package_name": "com.Activseed.TheGambler",
            "certificate_hash": "a8cb3c19a4a343401e542c2f0e8fe61dda2f4868"
          }
        },
        {
          "client_id": "799928707175-2d0q0ptrn54se4rl3n8caiak3ak21gcl.apps.googleusercontent.com",
          "client_type": 3
        }
      ],
      "api_key": [
        {
          "current_key": "AIzaSyBEcoCIH6246HjctT5RNZ0UVqRNR_whSrI"
        }
      ],
      "services": {
        "appinvite_service": {
          "other_platform_oauth_client": [
            {
              "client_id": "799928707175-2d0q0ptrn54se4rl3n8caiak3ak21gcl.apps.googleusercontent.com",
              "client_type": 3
            }
          ]
        }
      }
    }
  ],
  "configuration_version": "1"
}