%YAML 1.1
%TAG !u! tag:unity3d.com,2011:
--- !u!74 &7400000
AnimationClip:
  m_ObjectHideFlags: 0
  m_CorrespondingSourceObject: {fileID: 0}
  m_PrefabInstance: {fileID: 0}
  m_PrefabAsset: {fileID: 0}
  m_Name: Walk
  serializedVersion: 6
  m_Legacy: 0
  m_Compressed: 0
  m_UseHighQualityCurve: 1
  m_RotationCurves: []
  m_CompressedRotationCurves: []
  m_EulerCurves: []
  m_PositionCurves: []
  m_ScaleCurves: []
  m_FloatCurves:
  - curve:
      serializedVersion: 2
      m_Curve:
      - serializedVersion: 3
        time: 0
        value: 1.0399933
        inSlope: 0
        outSlope: 0
        tangentMode: 136
        weightedMode: 0
        inWeight: 0
        outWeight: 0
      m_PreInfinity: 2
      m_PostInfinity: 2
      m_RotationOrder: 4
    attribute: m_AnchoredPosition.x
    path: Cock
    classID: 224
    script: {fileID: 0}
  - curve:
      serializedVersion: 2
      m_Curve:
      - serializedVersion: 3
        time: 0
        value: 1.0357056
        inSlope: 0
        outSlope: 0
        tangentMode: 136
        weightedMode: 0
        inWeight: 0
        outWeight: 0
      m_PreInfinity: 2
      m_PostInfinity: 2
      m_RotationOrder: 4
    attribute: m_AnchoredPosition.y
    path: Cock
    classID: 224
    script: {fileID: 0}
  - curve:
      serializedVersion: 2
      m_Curve:
      - serializedVersion: 3
        time: 0
        value: -317.03
        inSlope: 0
        outSlope: 0
        tangentMode: 136
        weightedMode: 0
        inWeight: 0
        outWeight: 0
      m_PreInfinity: 2
      m_PostInfinity: 2
      m_RotationOrder: 4
    attribute: m_SizeDelta.x
    path: Cock
    classID: 224
    script: {fileID: 0}
  - curve:
      serializedVersion: 2
      m_Curve:
      - serializedVersion: 3
        time: 0
        value: -317.03
        inSlope: 0
        outSlope: 0
        tangentMode: 136
        weightedMode: 0
        inWeight: 0
        outWeight: 0
      m_PreInfinity: 2
      m_PostInfinity: 2
      m_RotationOrder: 4
    attribute: m_SizeDelta.y
    path: Cock
    classID: 224
    script: {fileID: 0}
  m_PPtrCurves:
  - curve:
    - time: 0
      value: {fileID: -3017943247133766418, guid: ebe8eb67231e750449775a04ff836d09, type: 3}
    - time: 0.022222223
      value: {fileID: 685524037757356972, guid: ebe8eb67231e750449775a04ff836d09, type: 3}
    - time: 0.044444446
      value: {fileID: 6320260845207927244, guid: ebe8eb67231e750449775a04ff836d09, type: 3}
    - time: 0.06666667
      value: {fileID: 9135591645731861493, guid: ebe8eb67231e750449775a04ff836d09, type: 3}
    - time: 0.08888889
      value: {fileID: -424248165754393001, guid: ebe8eb67231e750449775a04ff836d09, type: 3}
    - time: 0.11111111
      value: {fileID: 3649306631708494878, guid: ebe8eb67231e750449775a04ff836d09, type: 3}
    - time: 0.13333334
      value: {fileID: -6118727369321988147, guid: ebe8eb67231e750449775a04ff836d09, type: 3}
    - time: 0.15555556
      value: {fileID: -1687840340234254562, guid: ebe8eb67231e750449775a04ff836d09, type: 3}
    - time: 0.17777778
      value: {fileID: 7742211598623154699, guid: ebe8eb67231e750449775a04ff836d09, type: 3}
    - time: 0.2
      value: {fileID: 1645609916021939192, guid: ebe8eb67231e750449775a04ff836d09, type: 3}
    - time: 0.22222222
      value: {fileID: -8983318667289996624, guid: ebe8eb67231e750449775a04ff836d09, type: 3}
    - time: 0.24444444
      value: {fileID: 2946536622179642307, guid: ebe8eb67231e750449775a04ff836d09, type: 3}
    attribute: m_Sprite
    path: Cock
    classID: 114
    script: {fileID: 11500000, guid: fe87c0e1cc204ed48ad3b37840f39efc, type: 3}
  m_SampleRate: 45
  m_WrapMode: 0
  m_Bounds:
    m_Center: {x: 0, y: 0, z: 0}
    m_Extent: {x: 0, y: 0, z: 0}
  m_ClipBindingConstant:
    genericBindings:
    - serializedVersion: 2
      path: 2145264742
      attribute: 2015549526
      script: {fileID: 11500000, guid: fe87c0e1cc204ed48ad3b37840f39efc, type: 3}
      typeID: 114
      customType: 0
      isPPtrCurve: 1
    - serializedVersion: 2
      path: 2145264742
      attribute: 1460864421
      script: {fileID: 0}
      typeID: 224
      customType: 28
      isPPtrCurve: 0
    - serializedVersion: 2
      path: 2145264742
      attribute: 538195251
      script: {fileID: 0}
      typeID: 224
      customType: 28
      isPPtrCurve: 0
    - serializedVersion: 2
      path: 2145264742
      attribute: 1967290853
      script: {fileID: 0}
      typeID: 224
      customType: 28
      isPPtrCurve: 0
    - serializedVersion: 2
      path: 2145264742
      attribute: 38095219
      script: {fileID: 0}
      typeID: 224
      customType: 28
      isPPtrCurve: 0
    pptrCurveMapping:
    - {fileID: -3017943247133766418, guid: ebe8eb67231e750449775a04ff836d09, type: 3}
    - {fileID: 685524037757356972, guid: ebe8eb67231e750449775a04ff836d09, type: 3}
    - {fileID: 6320260845207927244, guid: ebe8eb67231e750449775a04ff836d09, type: 3}
    - {fileID: 9135591645731861493, guid: ebe8eb67231e750449775a04ff836d09, type: 3}
    - {fileID: -424248165754393001, guid: ebe8eb67231e750449775a04ff836d09, type: 3}
    - {fileID: 3649306631708494878, guid: ebe8eb67231e750449775a04ff836d09, type: 3}
    - {fileID: -6118727369321988147, guid: ebe8eb67231e750449775a04ff836d09, type: 3}
    - {fileID: -1687840340234254562, guid: ebe8eb67231e750449775a04ff836d09, type: 3}
    - {fileID: 7742211598623154699, guid: ebe8eb67231e750449775a04ff836d09, type: 3}
    - {fileID: 1645609916021939192, guid: ebe8eb67231e750449775a04ff836d09, type: 3}
    - {fileID: -8983318667289996624, guid: ebe8eb67231e750449775a04ff836d09, type: 3}
    - {fileID: 2946536622179642307, guid: ebe8eb67231e750449775a04ff836d09, type: 3}
  m_AnimationClipSettings:
    serializedVersion: 2
    m_AdditiveReferencePoseClip: {fileID: 0}
    m_AdditiveReferencePoseTime: 0
    m_StartTime: 0
    m_StopTime: 0.26666668
    m_OrientationOffsetY: 0
    m_Level: 0
    m_CycleOffset: 0
    m_HasAdditiveReferencePose: 0
    m_LoopTime: 1
    m_LoopBlend: 0
    m_LoopBlendOrientation: 0
    m_LoopBlendPositionY: 0
    m_LoopBlendPositionXZ: 0
    m_KeepOriginalOrientation: 0
    m_KeepOriginalPositionY: 1
    m_KeepOriginalPositionXZ: 0
    m_HeightFromFeet: 0
    m_Mirror: 0
  m_EditorCurves:
  - curve:
      serializedVersion: 2
      m_Curve:
      - serializedVersion: 3
        time: 0
        value: 1.0399933
        inSlope: 0
        outSlope: 0
        tangentMode: 136
        weightedMode: 0
        inWeight: 0
        outWeight: 0
      m_PreInfinity: 2
      m_PostInfinity: 2
      m_RotationOrder: 4
    attribute: m_AnchoredPosition.x
    path: Cock
    classID: 224
    script: {fileID: 0}
  - curve:
      serializedVersion: 2
      m_Curve:
      - serializedVersion: 3
        time: 0
        value: 1.0357056
        inSlope: 0
        outSlope: 0
        tangentMode: 136
        weightedMode: 0
        inWeight: 0
        outWeight: 0
      m_PreInfinity: 2
      m_PostInfinity: 2
      m_RotationOrder: 4
    attribute: m_AnchoredPosition.y
    path: Cock
    classID: 224
    script: {fileID: 0}
  - curve:
      serializedVersion: 2
      m_Curve:
      - serializedVersion: 3
        time: 0
        value: -317.03
        inSlope: 0
        outSlope: 0
        tangentMode: 136
        weightedMode: 0
        inWeight: 0
        outWeight: 0
      m_PreInfinity: 2
      m_PostInfinity: 2
      m_RotationOrder: 4
    attribute: m_SizeDelta.x
    path: Cock
    classID: 224
    script: {fileID: 0}
  - curve:
      serializedVersion: 2
      m_Curve:
      - serializedVersion: 3
        time: 0
        value: -317.03
        inSlope: 0
        outSlope: 0
        tangentMode: 136
        weightedMode: 0
        inWeight: 0
        outWeight: 0
      m_PreInfinity: 2
      m_PostInfinity: 2
      m_RotationOrder: 4
    attribute: m_SizeDelta.y
    path: Cock
    classID: 224
    script: {fileID: 0}
  m_EulerEditorCurves: []
  m_HasGenericRootTransform: 0
  m_HasMotionFloatCurves: 0
  m_Events: []
