%YAML 1.1
%TAG !u! tag:unity3d.com,2011:
--- !u!74 &7400000
AnimationClip:
  m_ObjectHideFlags: 0
  m_CorrespondingSourceObject: {fileID: 0}
  m_PrefabInstance: {fileID: 0}
  m_PrefabAsset: {fileID: 0}
  m_Name: purple
  serializedVersion: 6
  m_Legacy: 0
  m_Compressed: 0
  m_UseHighQualityCurve: 1
  m_RotationCurves: []
  m_CompressedRotationCurves: []
  m_EulerCurves: []
  m_PositionCurves: []
  m_ScaleCurves: []
  m_FloatCurves: []
  m_PPtrCurves:
  - curve:
    - time: 0
      value: {fileID: 21300000, guid: 43e19bca676afbf4690b85a982c2210d, type: 3}
    - time: 0.8833333
      value: {fileID: -8083683128934130250, guid: 46e2609e438d0674d8b23c8dd970e66f, type: 3}
    - time: 0.93333334
      value: {fileID: 8538473201274989407, guid: 46e2609e438d0674d8b23c8dd970e66f, type: 3}
    - time: 0.98333335
      value: {fileID: -5622303848854217460, guid: 46e2609e438d0674d8b23c8dd970e66f, type: 3}
    - time: 1.0333333
      value: {fileID: -8488886100056575130, guid: 46e2609e438d0674d8b23c8dd970e66f, type: 3}
    - time: 1.0833334
      value: {fileID: -5045548807157638567, guid: 46e2609e438d0674d8b23c8dd970e66f, type: 3}
    - time: 1.1333333
      value: {fileID: -8083683128934130250, guid: 46e2609e438d0674d8b23c8dd970e66f, type: 3}
    - time: 1.1833333
      value: {fileID: 8538473201274989407, guid: 46e2609e438d0674d8b23c8dd970e66f, type: 3}
    - time: 1.2333333
      value: {fileID: -5622303848854217460, guid: 46e2609e438d0674d8b23c8dd970e66f, type: 3}
    - time: 1.2833333
      value: {fileID: -8488886100056575130, guid: 46e2609e438d0674d8b23c8dd970e66f, type: 3}
    - time: 1.3333334
      value: {fileID: -5045548807157638567, guid: 46e2609e438d0674d8b23c8dd970e66f, type: 3}
    - time: 1.3833333
      value: {fileID: -8083683128934130250, guid: 46e2609e438d0674d8b23c8dd970e66f, type: 3}
    - time: 1.4333333
      value: {fileID: 8538473201274989407, guid: 46e2609e438d0674d8b23c8dd970e66f, type: 3}
    - time: 1.4833333
      value: {fileID: -5622303848854217460, guid: 46e2609e438d0674d8b23c8dd970e66f, type: 3}
    - time: 1.5333333
      value: {fileID: -8488886100056575130, guid: 46e2609e438d0674d8b23c8dd970e66f, type: 3}
    - time: 1.5833334
      value: {fileID: -5045548807157638567, guid: 46e2609e438d0674d8b23c8dd970e66f, type: 3}
    - time: 1.6333333
      value: {fileID: -8083683128934130250, guid: 46e2609e438d0674d8b23c8dd970e66f, type: 3}
    - time: 1.6833333
      value: {fileID: 8538473201274989407, guid: 46e2609e438d0674d8b23c8dd970e66f, type: 3}
    - time: 1.7333333
      value: {fileID: -5622303848854217460, guid: 46e2609e438d0674d8b23c8dd970e66f, type: 3}
    - time: 1.7833333
      value: {fileID: -8488886100056575130, guid: 46e2609e438d0674d8b23c8dd970e66f, type: 3}
    - time: 1.8333334
      value: {fileID: -5045548807157638567, guid: 46e2609e438d0674d8b23c8dd970e66f, type: 3}
    - time: 1.8833333
      value: {fileID: -8083683128934130250, guid: 46e2609e438d0674d8b23c8dd970e66f, type: 3}
    - time: 1.9333333
      value: {fileID: 8538473201274989407, guid: 46e2609e438d0674d8b23c8dd970e66f, type: 3}
    - time: 1.9833333
      value: {fileID: -5622303848854217460, guid: 46e2609e438d0674d8b23c8dd970e66f, type: 3}
    - time: 2.0333333
      value: {fileID: -8488886100056575130, guid: 46e2609e438d0674d8b23c8dd970e66f, type: 3}
    - time: 2.0833333
      value: {fileID: -5045548807157638567, guid: 46e2609e438d0674d8b23c8dd970e66f, type: 3}
    - time: 2.1333334
      value: {fileID: -8083683128934130250, guid: 46e2609e438d0674d8b23c8dd970e66f, type: 3}
    - time: 2.1833334
      value: {fileID: 8538473201274989407, guid: 46e2609e438d0674d8b23c8dd970e66f, type: 3}
    - time: 2.2333333
      value: {fileID: -5622303848854217460, guid: 46e2609e438d0674d8b23c8dd970e66f, type: 3}
    - time: 2.2833333
      value: {fileID: -8488886100056575130, guid: 46e2609e438d0674d8b23c8dd970e66f, type: 3}
    - time: 2.3333333
      value: {fileID: -5045548807157638567, guid: 46e2609e438d0674d8b23c8dd970e66f, type: 3}
    - time: 2.3833334
      value: {fileID: -8083683128934130250, guid: 46e2609e438d0674d8b23c8dd970e66f, type: 3}
    - time: 2.4333334
      value: {fileID: 8538473201274989407, guid: 46e2609e438d0674d8b23c8dd970e66f, type: 3}
    - time: 2.4833333
      value: {fileID: -5622303848854217460, guid: 46e2609e438d0674d8b23c8dd970e66f, type: 3}
    - time: 2.5333333
      value: {fileID: -8488886100056575130, guid: 46e2609e438d0674d8b23c8dd970e66f, type: 3}
    - time: 2.5833333
      value: {fileID: -5045548807157638567, guid: 46e2609e438d0674d8b23c8dd970e66f, type: 3}
    - time: 2.65
      value: {fileID: -4949998835061453786, guid: ab6b1c66bbbc86449ac674f0149f404a, type: 3}
    - time: 2.7333333
      value: {fileID: -2868400911224646122, guid: ab6b1c66bbbc86449ac674f0149f404a, type: 3}
    - time: 2.8333333
      value: {fileID: 8865900485341630671, guid: ab6b1c66bbbc86449ac674f0149f404a, type: 3}
    - time: 2.9333334
      value: {fileID: 8821950762296116268, guid: ab6b1c66bbbc86449ac674f0149f404a, type: 3}
    - time: 3.0333333
      value: {fileID: -21682211911080619, guid: ab6b1c66bbbc86449ac674f0149f404a, type: 3}
    - time: 3.1333334
      value: {fileID: -21682211911080619, guid: ab6b1c66bbbc86449ac674f0149f404a, type: 3}
    - time: 3.3333333
      value: {fileID: 8821950762296116268, guid: ab6b1c66bbbc86449ac674f0149f404a, type: 3}
    - time: 3.4333334
      value: {fileID: 8865900485341630671, guid: ab6b1c66bbbc86449ac674f0149f404a, type: 3}
    - time: 4.4333334
      value: {fileID: 8865900485341630671, guid: ab6b1c66bbbc86449ac674f0149f404a, type: 3}
    attribute: m_Sprite
    path: Image
    classID: 114
    script: {fileID: 11500000, guid: fe87c0e1cc204ed48ad3b37840f39efc, type: 3}
  m_SampleRate: 60
  m_WrapMode: 0
  m_Bounds:
    m_Center: {x: 0, y: 0, z: 0}
    m_Extent: {x: 0, y: 0, z: 0}
  m_ClipBindingConstant:
    genericBindings:
    - serializedVersion: 2
      path: 83635035
      attribute: 2015549526
      script: {fileID: 11500000, guid: fe87c0e1cc204ed48ad3b37840f39efc, type: 3}
      typeID: 114
      customType: 0
      isPPtrCurve: 1
    pptrCurveMapping:
    - {fileID: 21300000, guid: 43e19bca676afbf4690b85a982c2210d, type: 3}
    - {fileID: -8083683128934130250, guid: 46e2609e438d0674d8b23c8dd970e66f, type: 3}
    - {fileID: 8538473201274989407, guid: 46e2609e438d0674d8b23c8dd970e66f, type: 3}
    - {fileID: -5622303848854217460, guid: 46e2609e438d0674d8b23c8dd970e66f, type: 3}
    - {fileID: -8488886100056575130, guid: 46e2609e438d0674d8b23c8dd970e66f, type: 3}
    - {fileID: -5045548807157638567, guid: 46e2609e438d0674d8b23c8dd970e66f, type: 3}
    - {fileID: -8083683128934130250, guid: 46e2609e438d0674d8b23c8dd970e66f, type: 3}
    - {fileID: 8538473201274989407, guid: 46e2609e438d0674d8b23c8dd970e66f, type: 3}
    - {fileID: -5622303848854217460, guid: 46e2609e438d0674d8b23c8dd970e66f, type: 3}
    - {fileID: -8488886100056575130, guid: 46e2609e438d0674d8b23c8dd970e66f, type: 3}
    - {fileID: -5045548807157638567, guid: 46e2609e438d0674d8b23c8dd970e66f, type: 3}
    - {fileID: -8083683128934130250, guid: 46e2609e438d0674d8b23c8dd970e66f, type: 3}
    - {fileID: 8538473201274989407, guid: 46e2609e438d0674d8b23c8dd970e66f, type: 3}
    - {fileID: -5622303848854217460, guid: 46e2609e438d0674d8b23c8dd970e66f, type: 3}
    - {fileID: -8488886100056575130, guid: 46e2609e438d0674d8b23c8dd970e66f, type: 3}
    - {fileID: -5045548807157638567, guid: 46e2609e438d0674d8b23c8dd970e66f, type: 3}
    - {fileID: -8083683128934130250, guid: 46e2609e438d0674d8b23c8dd970e66f, type: 3}
    - {fileID: 8538473201274989407, guid: 46e2609e438d0674d8b23c8dd970e66f, type: 3}
    - {fileID: -5622303848854217460, guid: 46e2609e438d0674d8b23c8dd970e66f, type: 3}
    - {fileID: -8488886100056575130, guid: 46e2609e438d0674d8b23c8dd970e66f, type: 3}
    - {fileID: -5045548807157638567, guid: 46e2609e438d0674d8b23c8dd970e66f, type: 3}
    - {fileID: -8083683128934130250, guid: 46e2609e438d0674d8b23c8dd970e66f, type: 3}
    - {fileID: 8538473201274989407, guid: 46e2609e438d0674d8b23c8dd970e66f, type: 3}
    - {fileID: -5622303848854217460, guid: 46e2609e438d0674d8b23c8dd970e66f, type: 3}
    - {fileID: -8488886100056575130, guid: 46e2609e438d0674d8b23c8dd970e66f, type: 3}
    - {fileID: -5045548807157638567, guid: 46e2609e438d0674d8b23c8dd970e66f, type: 3}
    - {fileID: -8083683128934130250, guid: 46e2609e438d0674d8b23c8dd970e66f, type: 3}
    - {fileID: 8538473201274989407, guid: 46e2609e438d0674d8b23c8dd970e66f, type: 3}
    - {fileID: -5622303848854217460, guid: 46e2609e438d0674d8b23c8dd970e66f, type: 3}
    - {fileID: -8488886100056575130, guid: 46e2609e438d0674d8b23c8dd970e66f, type: 3}
    - {fileID: -5045548807157638567, guid: 46e2609e438d0674d8b23c8dd970e66f, type: 3}
    - {fileID: -8083683128934130250, guid: 46e2609e438d0674d8b23c8dd970e66f, type: 3}
    - {fileID: 8538473201274989407, guid: 46e2609e438d0674d8b23c8dd970e66f, type: 3}
    - {fileID: -5622303848854217460, guid: 46e2609e438d0674d8b23c8dd970e66f, type: 3}
    - {fileID: -8488886100056575130, guid: 46e2609e438d0674d8b23c8dd970e66f, type: 3}
    - {fileID: -5045548807157638567, guid: 46e2609e438d0674d8b23c8dd970e66f, type: 3}
    - {fileID: -4949998835061453786, guid: ab6b1c66bbbc86449ac674f0149f404a, type: 3}
    - {fileID: -2868400911224646122, guid: ab6b1c66bbbc86449ac674f0149f404a, type: 3}
    - {fileID: 8865900485341630671, guid: ab6b1c66bbbc86449ac674f0149f404a, type: 3}
    - {fileID: 8821950762296116268, guid: ab6b1c66bbbc86449ac674f0149f404a, type: 3}
    - {fileID: -21682211911080619, guid: ab6b1c66bbbc86449ac674f0149f404a, type: 3}
    - {fileID: -21682211911080619, guid: ab6b1c66bbbc86449ac674f0149f404a, type: 3}
    - {fileID: 8821950762296116268, guid: ab6b1c66bbbc86449ac674f0149f404a, type: 3}
    - {fileID: 8865900485341630671, guid: ab6b1c66bbbc86449ac674f0149f404a, type: 3}
    - {fileID: 8865900485341630671, guid: ab6b1c66bbbc86449ac674f0149f404a, type: 3}
  m_AnimationClipSettings:
    serializedVersion: 2
    m_AdditiveReferencePoseClip: {fileID: 0}
    m_AdditiveReferencePoseTime: 0
    m_StartTime: 0
    m_StopTime: 5
    m_OrientationOffsetY: 0
    m_Level: 0
    m_CycleOffset: 0
    m_HasAdditiveReferencePose: 0
    m_LoopTime: 0
    m_LoopBlend: 0
    m_LoopBlendOrientation: 0
    m_LoopBlendPositionY: 0
    m_LoopBlendPositionXZ: 0
    m_KeepOriginalOrientation: 0
    m_KeepOriginalPositionY: 1
    m_KeepOriginalPositionXZ: 0
    m_HeightFromFeet: 0
    m_Mirror: 0
  m_EditorCurves: []
  m_EulerEditorCurves: []
  m_HasGenericRootTransform: 0
  m_HasMotionFloatCurves: 0
  m_Events:
  - time: 5
    functionName: f_OnAnimationDone
    data: 
    objectReferenceParameter: {fileID: 0}
    floatParameter: 0
    intParameter: 0
    messageOptions: 0
