%YAML 1.1
%TAG !u! tag:unity3d.com,2011:
--- !u!74 &7400000
AnimationClip:
  m_ObjectHideFlags: 0
  m_CorrespondingSourceObject: {fileID: 0}
  m_PrefabInstance: {fileID: 0}
  m_PrefabAsset: {fileID: 0}
  m_Name: Walk
  serializedVersion: 6
  m_Legacy: 0
  m_Compressed: 0
  m_UseHighQualityCurve: 1
  m_RotationCurves: []
  m_CompressedRotationCurves: []
  m_EulerCurves: []
  m_PositionCurves: []
  m_ScaleCurves: []
  m_FloatCurves:
  - curve:
      serializedVersion: 2
      m_Curve:
      - serializedVersion: 3
        time: 0
        value: 0.9000015
        inSlope: 0
        outSlope: 0
        tangentMode: 136
        weightedMode: 0
        inWeight: 0
        outWeight: 0
      m_PreInfinity: 2
      m_PostInfinity: 2
      m_RotationOrder: 4
    attribute: m_AnchoredPosition.x
    path: Dwarf
    classID: 224
    script: {fileID: 0}
  - curve:
      serializedVersion: 2
      m_Curve:
      - serializedVersion: 3
        time: 0
        value: 0.0000030398369
        inSlope: 0
        outSlope: 0
        tangentMode: 136
        weightedMode: 0
        inWeight: 0
        outWeight: 0
      m_PreInfinity: 2
      m_PostInfinity: 2
      m_RotationOrder: 4
    attribute: m_SizeDelta.x
    path: Dwarf
    classID: 224
    script: {fileID: 0}
  m_PPtrCurves:
  - curve:
    - time: 0
      value: {fileID: 2122728243626503656, guid: dfb57e5153fed7445bd9521dcdc7f1a0, type: 3}
    - time: 0.022222223
      value: {fileID: -297563115049016357, guid: dfb57e5153fed7445bd9521dcdc7f1a0, type: 3}
    - time: 0.044444446
      value: {fileID: 4314334407848623228, guid: dfb57e5153fed7445bd9521dcdc7f1a0, type: 3}
    - time: 0.06666667
      value: {fileID: -6342452337643415827, guid: dfb57e5153fed7445bd9521dcdc7f1a0, type: 3}
    - time: 0.08888889
      value: {fileID: -327995914099337883, guid: dfb57e5153fed7445bd9521dcdc7f1a0, type: 3}
    - time: 0.11111111
      value: {fileID: 7532560715878004847, guid: dfb57e5153fed7445bd9521dcdc7f1a0, type: 3}
    - time: 0.13333334
      value: {fileID: -2492952166340701484, guid: dfb57e5153fed7445bd9521dcdc7f1a0, type: 3}
    - time: 0.15555556
      value: {fileID: -6087145127886235238, guid: dfb57e5153fed7445bd9521dcdc7f1a0, type: 3}
    - time: 0.17777778
      value: {fileID: -7864770673322291292, guid: dfb57e5153fed7445bd9521dcdc7f1a0, type: 3}
    - time: 0.2
      value: {fileID: 5436624496311238010, guid: dfb57e5153fed7445bd9521dcdc7f1a0, type: 3}
    - time: 0.22222222
      value: {fileID: -33794558246528548, guid: dfb57e5153fed7445bd9521dcdc7f1a0, type: 3}
    - time: 0.24444444
      value: {fileID: -6764863666123749366, guid: dfb57e5153fed7445bd9521dcdc7f1a0, type: 3}
    - time: 0.26666668
      value: {fileID: -538361759756556138, guid: dfb57e5153fed7445bd9521dcdc7f1a0, type: 3}
    - time: 0.2888889
      value: {fileID: -6855647695880446536, guid: dfb57e5153fed7445bd9521dcdc7f1a0, type: 3}
    - time: 0.31111112
      value: {fileID: -5912345703554753979, guid: dfb57e5153fed7445bd9521dcdc7f1a0, type: 3}
    - time: 0.33333334
      value: {fileID: -688729354061107734, guid: dfb57e5153fed7445bd9521dcdc7f1a0, type: 3}
    - time: 0.35555556
      value: {fileID: -6769455612487452142, guid: dfb57e5153fed7445bd9521dcdc7f1a0, type: 3}
    attribute: m_Sprite
    path: Dwarf
    classID: 114
    script: {fileID: 11500000, guid: fe87c0e1cc204ed48ad3b37840f39efc, type: 3}
  m_SampleRate: 45
  m_WrapMode: 0
  m_Bounds:
    m_Center: {x: 0, y: 0, z: 0}
    m_Extent: {x: 0, y: 0, z: 0}
  m_ClipBindingConstant:
    genericBindings:
    - serializedVersion: 2
      path: 1836380095
      attribute: 2015549526
      script: {fileID: 11500000, guid: fe87c0e1cc204ed48ad3b37840f39efc, type: 3}
      typeID: 114
      customType: 0
      isPPtrCurve: 1
    - serializedVersion: 2
      path: 1836380095
      attribute: 1460864421
      script: {fileID: 0}
      typeID: 224
      customType: 28
      isPPtrCurve: 0
    - serializedVersion: 2
      path: 1836380095
      attribute: 1967290853
      script: {fileID: 0}
      typeID: 224
      customType: 28
      isPPtrCurve: 0
    pptrCurveMapping:
    - {fileID: 2122728243626503656, guid: dfb57e5153fed7445bd9521dcdc7f1a0, type: 3}
    - {fileID: -297563115049016357, guid: dfb57e5153fed7445bd9521dcdc7f1a0, type: 3}
    - {fileID: 4314334407848623228, guid: dfb57e5153fed7445bd9521dcdc7f1a0, type: 3}
    - {fileID: -6342452337643415827, guid: dfb57e5153fed7445bd9521dcdc7f1a0, type: 3}
    - {fileID: -327995914099337883, guid: dfb57e5153fed7445bd9521dcdc7f1a0, type: 3}
    - {fileID: 7532560715878004847, guid: dfb57e5153fed7445bd9521dcdc7f1a0, type: 3}
    - {fileID: -2492952166340701484, guid: dfb57e5153fed7445bd9521dcdc7f1a0, type: 3}
    - {fileID: -6087145127886235238, guid: dfb57e5153fed7445bd9521dcdc7f1a0, type: 3}
    - {fileID: -7864770673322291292, guid: dfb57e5153fed7445bd9521dcdc7f1a0, type: 3}
    - {fileID: 5436624496311238010, guid: dfb57e5153fed7445bd9521dcdc7f1a0, type: 3}
    - {fileID: -33794558246528548, guid: dfb57e5153fed7445bd9521dcdc7f1a0, type: 3}
    - {fileID: -6764863666123749366, guid: dfb57e5153fed7445bd9521dcdc7f1a0, type: 3}
    - {fileID: -538361759756556138, guid: dfb57e5153fed7445bd9521dcdc7f1a0, type: 3}
    - {fileID: -6855647695880446536, guid: dfb57e5153fed7445bd9521dcdc7f1a0, type: 3}
    - {fileID: -5912345703554753979, guid: dfb57e5153fed7445bd9521dcdc7f1a0, type: 3}
    - {fileID: -688729354061107734, guid: dfb57e5153fed7445bd9521dcdc7f1a0, type: 3}
    - {fileID: -6769455612487452142, guid: dfb57e5153fed7445bd9521dcdc7f1a0, type: 3}
  m_AnimationClipSettings:
    serializedVersion: 2
    m_AdditiveReferencePoseClip: {fileID: 0}
    m_AdditiveReferencePoseTime: 0
    m_StartTime: 0
    m_StopTime: 0.37777779
    m_OrientationOffsetY: 0
    m_Level: 0
    m_CycleOffset: 0
    m_HasAdditiveReferencePose: 0
    m_LoopTime: 1
    m_LoopBlend: 0
    m_LoopBlendOrientation: 0
    m_LoopBlendPositionY: 0
    m_LoopBlendPositionXZ: 0
    m_KeepOriginalOrientation: 0
    m_KeepOriginalPositionY: 1
    m_KeepOriginalPositionXZ: 0
    m_HeightFromFeet: 0
    m_Mirror: 0
  m_EditorCurves:
  - curve:
      serializedVersion: 2
      m_Curve:
      - serializedVersion: 3
        time: 0
        value: 0.9000015
        inSlope: 0
        outSlope: 0
        tangentMode: 136
        weightedMode: 0
        inWeight: 0
        outWeight: 0
      m_PreInfinity: 2
      m_PostInfinity: 2
      m_RotationOrder: 4
    attribute: m_AnchoredPosition.x
    path: Dwarf
    classID: 224
    script: {fileID: 0}
  - curve:
      serializedVersion: 2
      m_Curve:
      - serializedVersion: 3
        time: 0
        value: 0.0000030398369
        inSlope: 0
        outSlope: 0
        tangentMode: 136
        weightedMode: 0
        inWeight: 0
        outWeight: 0
      m_PreInfinity: 2
      m_PostInfinity: 2
      m_RotationOrder: 4
    attribute: m_SizeDelta.x
    path: Dwarf
    classID: 224
    script: {fileID: 0}
  m_EulerEditorCurves: []
  m_HasGenericRootTransform: 0
  m_HasMotionFloatCurves: 0
  m_Events: []
