%YAML 1.1
%TAG !u! tag:unity3d.com,2011:
--- !u!114 &11400000
MonoBehaviour:
  m_ObjectHideFlags: 0
  m_CorrespondingSourceObject: {fileID: 0}
  m_PrefabInstance: {fileID: 0}
  m_PrefabAsset: {fileID: 0}
  m_GameObject: {fileID: 0}
  m_Enabled: 1
  m_EditorHideFlags: 0
  m_Script: {fileID: 11500000, guid: 15dde2f04e5b6b846b0ed974f46e0a75, type: 3}
  m_Name: Cewe_Clothes_5
  m_EditorClassIdentifier: 
  m_ID: 4
  m_ClothesDetail:
    m_Names: []
    m_IsUnlock: 0
    m_PriceType: 0
    m_Price: 0
  m_Icon: {fileID: 21300000, guid: 3daffefe947bdb44ea5344f5b19c38cb, type: 3}
