{
"skeleton": {
	"hash": "8VwJI73xzlRQYornfrF+jNEU99M",
	"spine": "3.8.0",
	"x": -145.09,
	"y": -238.54,
	"width": 291,
	"height": 617,
	"images": "../Image/",
	"audio": "C:/Users/Legion/Desktop/redrain_atlas/Casino/Character/MC_female"
},
"bones": [
	{ "name": "root" },
	{ "name": "bone", "parent": "root", "length": 86.22, "rotation": 89.62, "x": -0.16, "y": 20.32 },
	{ "name": "bone2", "parent": "bone", "length": 70.1, "rotation": 157.36, "x": 84.78, "y": 45.67 },
	{ "name": "bone3", "parent": "bone2", "length": 80.2, "rotation": -131.7, "x": 70.1 },
	{ "name": "bone4", "parent": "bone", "length": 78.58, "rotation": -156.97, "x": 92.23, "y": -44.5 },
	{ "name": "bone5", "parent": "bone4", "length": 63.84, "rotation": 130.78, "x": 78.58 }
],
"slots": [
	{ "name": "tangan_1_NPC_RPS_M_right", "bone": "root", "attachment": "NPC_RPS_M/tangan_1_NPC_RPS_M_right" },
	{ "name": "tangan_1_NPC_RPS_M_left", "bone": "root", "attachment": "NPC_RPS_M/tangan_1_NPC_RPS_M_left" },
	{ "name": "badan_NPC_RPS_M", "bone": "root", "attachment": "NPC_RPS_M/badan_NPC_RPS_M" },
	{ "name": "tangan_smudge_2_NPC_RPS_M_right", "bone": "root" },
	{ "name": "tangan_smudge_2_NPC_RPS_M_left", "bone": "root" },
	{ "name": "tangan_smudge_1_NPC_RPS_M_right", "bone": "root" },
	{ "name": "tangan_smudge_1_NPC_RPS_M_left", "bone": "root" },
	{ "name": "tangan_S_NPC_RPS_M_right", "bone": "root" },
	{ "name": "tangan_S_NPC_RPS_M_left", "bone": "root" },
	{ "name": "tangan_R_NPC_RPS_M_right", "bone": "root" },
	{ "name": "tangan_R_NPC_RPS_M_left", "bone": "root" },
	{ "name": "tangan_P_NPC_RPS_M_right", "bone": "root", "attachment": "NPC_RPS_M/tangan_P_NPC_RPS_M_right" },
	{ "name": "tangan_P_NPC_RPS_M_left", "bone": "root", "attachment": "NPC_RPS_M/tangan_P_NPC_RPS_M_left" }
],
"skins": [
	{
		"name": "default",
		"attachments": {
			"tangan_1_NPC_RPS_M_right": {
				"NPC_RPS_M/tangan_1_NPC_RPS_M_right": {
					"type": "mesh",
					"uvs": [ 1, 1, 0, 1, 0, 0, 1, 0 ],
					"triangles": [ 1, 2, 3, 1, 3, 0 ],
					"vertices": [ 1, 2, 62.14, 50.49, 1, 2, 2, 87.55, -9.33, 0.18839, 3, -4.64, 19.24, 0.81161, 2, 2, -3.57, -48.04, 0.62893, 3, 84.87, -23.05, 0.37107, 1, 2, -28.98, 11.79, 1 ],
					"hull": 4,
					"edges": [ 0, 2, 2, 4, 4, 6, 0, 6 ],
					"width": 65,
					"height": 99
				}
			},
			"badan_NPC_RPS_M": {
				"NPC_RPS_M/badan_NPC_RPS_M": {
					"type": "mesh",
					"uvs": [ 1, 1, 0, 1, 0, 0, 1, 0 ],
					"triangles": [ 1, 2, 3, 1, 3, 0 ],
					"vertices": [ 1, 1, -258.17, -104.73, 1, 1, 1, -259.43, 86.26, 1, 1, 1, 357.55, 90.35, 1, 1, 1, 358.82, -100.65, 1 ],
					"hull": 4,
					"edges": [ 0, 2, 2, 4, 4, 6, 0, 6 ],
					"width": 191,
					"height": 617
				}
			},
			"tangan_smudge_2_NPC_RPS_M_left": {
				"NPC_RPS_M/tangan_smudge_2_NPC_RPS_M_left": {
					"type": "mesh",
					"uvs": [ 1, 1, 0, 1, 0, 0, 1, 0 ],
					"triangles": [ 1, 2, 3, 1, 3, 0 ],
					"vertices": [ 1, 5, 9.91, -62.91, 1, 1, 5, -25.42, 7.75, 1, 1, 5, 117.69, 79.31, 1, 1, 5, 153.02, 8.65, 1 ],
					"hull": 4,
					"edges": [ 0, 2, 2, 4, 4, 6, 0, 6 ],
					"width": 79,
					"height": 160
				}
			},
			"tangan_1_NPC_RPS_M_left": {
				"NPC_RPS_M/tangan_1_NPC_RPS_M_left": {
					"type": "mesh",
					"uvs": [ 1, 1, 0, 1, 0, 0, 1, 0 ],
					"triangles": [ 1, 2, 3, 1, 3, 0 ],
					"vertices": [ 1, 5, -1.72, -15.06, 1, 1, 4, 66.45, -50.53, 1, 1, 4, -22.14, -13.56, 1, 2, 4, 2.51, 45.51, 0.85309, 5, 84.15, 27.88, 0.14691 ],
					"hull": 4,
					"edges": [ 0, 2, 2, 4, 4, 6, 0, 6 ],
					"width": 64,
					"height": 96
				}
			},
			"tangan_P_NPC_RPS_M_left": {
				"NPC_RPS_M/tangan_P_NPC_RPS_M_left": {
					"type": "mesh",
					"uvs": [ 1, 1, 0, 1, 0, 0, 1, 0 ],
					"triangles": [ 1, 2, 3, 1, 3, 0 ],
					"vertices": [ 1, 5, 18.85, -69.62, 1, 1, 5, -18.71, 5.52, 1, 1, 5, 114.56, 72.15, 1, 1, 5, 152.12, -2.98, 1 ],
					"hull": 4,
					"edges": [ 0, 2, 2, 4, 4, 6, 0, 6 ],
					"width": 84,
					"height": 149
				}
			},
			"tangan_R_NPC_RPS_M_left": {
				"NPC_RPS_M/tangan_R_NPC_RPS_M_left": {
					"type": "mesh",
					"uvs": [ 1, 1, 0, 1, 0, 0, 1, 0 ],
					"triangles": [ 1, 2, 3, 1, 3, 0 ],
					"vertices": [ 1, 5, 12.15, -56.2, 1, 1, 5, -19.16, 6.41, 1, 1, 5, 114.11, 73.04, 1, 1, 5, 145.41, 10.43, 1 ],
					"hull": 4,
					"edges": [ 0, 2, 2, 4, 4, 6, 0, 6 ],
					"width": 70,
					"height": 149
				}
			},
			"tangan_P_NPC_RPS_M_right": {
				"NPC_RPS_M/tangan_P_NPC_RPS_M_right": {
					"type": "mesh",
					"uvs": [ 1, 1, 0, 1, 0, 0, 1, 0 ],
					"triangles": [ 1, 2, 3, 1, 3, 0 ],
					"vertices": [ 1, 3, -18.89, -3.89, 1, 1, 3, 17, 72.06, 1, 1, 3, 151.72, 8.41, 1, 1, 3, 115.84, -67.54, 1 ],
					"hull": 4,
					"edges": [ 0, 2, 2, 4, 4, 6, 0, 6 ],
					"width": 84,
					"height": 149
				}
			},
			"tangan_smudge_1_NPC_RPS_M_right": {
				"NPC_RPS_M/tangan_smudge_1_NPC_RPS_M_right": {
					"type": "mesh",
					"uvs": [ 1, 1, 0, 1, 0, 0, 1, 0 ],
					"triangles": [ 1, 2, 3, 1, 3, 0 ],
					"vertices": [ 1, 3, -19.21, -9.27, 1, 1, 3, 21.37, 76.63, 1, 1, 3, 158.8, 11.7, 1, 1, 3, 118.22, -74.2, 1 ],
					"hull": 4,
					"edges": [ 0, 2, 2, 4, 4, 6, 0, 6 ],
					"width": 95,
					"height": 152
				}
			},
			"tangan_smudge_2_NPC_RPS_M_right": {
				"NPC_RPS_M/tangan_smudge_2_NPC_RPS_M_right": {
					"type": "mesh",
					"uvs": [ 1, 1, 0, 1, 0, 0, 1, 0 ],
					"triangles": [ 1, 2, 3, 1, 3, 0 ],
					"vertices": [ 1, 3, -23.78, -4.9, 1, 1, 3, 9.96, 66.53, 1, 1, 3, 154.63, -1.81, 1, 1, 3, 120.88, -73.24, 1 ],
					"hull": 4,
					"edges": [ 0, 2, 2, 4, 4, 6, 0, 6 ],
					"width": 79,
					"height": 160
				}
			},
			"tangan_S_NPC_RPS_M_right": {
				"NPC_RPS_M/tangan_S_NPC_RPS_M_right": {
					"type": "mesh",
					"uvs": [ 1, 1, 0, 1, 0, 0, 1, 0 ],
					"triangles": [ 1, 2, 3, 1, 3, 0 ],
					"vertices": [ 1, 3, -18.89, -3.89, 1, 1, 3, 11.02, 59.4, 1, 1, 3, 145.74, -4.25, 1, 1, 3, 115.84, -67.54, 1 ],
					"hull": 4,
					"edges": [ 0, 2, 2, 4, 4, 6, 0, 6 ],
					"width": 70,
					"height": 149
				}
			},
			"tangan_R_NPC_RPS_M_right": {
				"NPC_RPS_M/tangan_R_NPC_RPS_M_right": {
					"type": "mesh",
					"uvs": [ 1, 1, 0, 1, 0, 0, 1, 0 ],
					"triangles": [ 1, 2, 3, 1, 3, 0 ],
					"vertices": [ 1, 3, -18.89, -3.89, 1, 1, 3, 11.02, 59.4, 1, 1, 3, 145.74, -4.25, 1, 1, 3, 115.84, -67.54, 1 ],
					"hull": 4,
					"edges": [ 0, 2, 2, 4, 4, 6, 0, 6 ],
					"width": 70,
					"height": 149
				}
			},
			"tangan_S_NPC_RPS_M_left": {
				"NPC_RPS_M/tangan_S_NPC_RPS_M_left": {
					"type": "mesh",
					"uvs": [ 1, 1, 0, 1, 0, 0, 1, 0 ],
					"triangles": [ 1, 2, 3, 1, 3, 0 ],
					"vertices": [ 1, 5, 13.93, -59.78, 1, 1, 5, -19.16, 6.41, 1, 1, 5, 114.11, 73.04, 1, 1, 5, 147.2, 6.86, 1 ],
					"hull": 4,
					"edges": [ 0, 2, 2, 4, 4, 6, 0, 6 ],
					"width": 74,
					"height": 149
				}
			},
			"tangan_smudge_1_NPC_RPS_M_left": {
				"NPC_RPS_M/tangan_smudge_1_NPC_RPS_M_left": {
					"type": "mesh",
					"uvs": [ 1, 1, 0, 1, 0, 0, 1, 0 ],
					"triangles": [ 1, 2, 3, 1, 3, 0 ],
					"vertices": [ 1, 5, 22.88, -73.19, 1, 1, 5, -19.61, 11.78, 1, 1, 5, 116.35, 79.75, 1, 1, 5, 158.83, -5.22, 1 ],
					"hull": 4,
					"edges": [ 0, 2, 2, 4, 4, 6, 0, 6 ],
					"width": 95,
					"height": 152
				}
			}
		}
	}
],
"animations": {
	"animation": {
		"slots": {
			"tangan_smudge_2_NPC_RPS_M_right": {
				"attachment": [
					{ "time": 0.3333, "name": "NPC_RPS_M/tangan_smudge_2_NPC_RPS_M_right" },
					{ "time": 0.4, "name": null },
					{ "time": 0.9, "name": "NPC_RPS_M/tangan_smudge_2_NPC_RPS_M_right" },
					{ "time": 0.9333, "name": null },
					{ "time": 1.3, "name": "NPC_RPS_M/tangan_smudge_2_NPC_RPS_M_right" },
					{ "time": 1.3667, "name": null }
				]
			},
			"tangan_S_NPC_RPS_M_left": {
				"attachment": [
					{ "time": 0.4333, "name": "NPC_RPS_M/tangan_S_NPC_RPS_M_left" },
					{ "time": 0.8333, "name": null }
				]
			},
			"tangan_R_NPC_RPS_M_left": {
				"attachment": [
					{ "time": 0.9333, "name": "NPC_RPS_M/tangan_R_NPC_RPS_M_left" },
					{ "time": 1.3, "name": null }
				]
			},
			"tangan_P_NPC_RPS_M_left": {
				"attachment": [
					{ "time": 0.3333, "name": null }
				]
			},
			"tangan_smudge_2_NPC_RPS_M_left": {
				"attachment": [
					{ "time": 0.3333, "name": "NPC_RPS_M/tangan_smudge_2_NPC_RPS_M_left" },
					{ "time": 0.4, "name": null },
					{ "time": 0.9, "name": "NPC_RPS_M/tangan_smudge_2_NPC_RPS_M_left" },
					{ "time": 0.9333, "name": null },
					{ "time": 1.3, "name": "NPC_RPS_M/tangan_smudge_2_NPC_RPS_M_left" },
					{ "time": 1.3667, "name": null }
				]
			},
			"tangan_P_NPC_RPS_M_right": {
				"attachment": [
					{ "time": 0.3333, "name": null }
				]
			},
			"tangan_S_NPC_RPS_M_right": {
				"attachment": [
					{ "time": 0.4333, "name": "NPC_RPS_M/tangan_S_NPC_RPS_M_right" },
					{ "time": 0.8333, "name": null }
				]
			},
			"tangan_R_NPC_RPS_M_right": {
				"attachment": [
					{ "time": 0.9333, "name": "NPC_RPS_M/tangan_R_NPC_RPS_M_right" },
					{ "time": 1.3, "name": null }
				]
			},
			"tangan_smudge_1_NPC_RPS_M_right": {
				"attachment": [
					{ "time": 0.4, "name": "NPC_RPS_M/tangan_smudge_1_NPC_RPS_M_right" },
					{ "time": 0.4333, "name": null },
					{ "time": 0.8333, "name": "NPC_RPS_M/tangan_smudge_1_NPC_RPS_M_right" },
					{ "time": 0.9, "name": null },
					{ "time": 1.3667, "name": "NPC_RPS_M/tangan_smudge_1_NPC_RPS_M_right" }
				]
			},
			"tangan_smudge_1_NPC_RPS_M_left": {
				"attachment": [
					{ "time": 0.4, "name": "NPC_RPS_M/tangan_smudge_1_NPC_RPS_M_left" },
					{ "time": 0.4333, "name": null },
					{ "time": 0.8333, "name": "NPC_RPS_M/tangan_smudge_1_NPC_RPS_M_left" },
					{ "time": 0.9, "name": null },
					{ "time": 1.3667, "name": "NPC_RPS_M/tangan_smudge_1_NPC_RPS_M_left" }
				]
			}
		},
		"bones": {
			"bone": {
				"scale": [
					{},
					{ "time": 0.3333, "x": 0.98 },
					{ "time": 0.6667 },
					{ "time": 1, "x": 0.98 },
					{ "time": 1.3333 }
				]
			},
			"bone5": {
				"rotate": [
					{},
					{ "time": 0.3333, "angle": -20.61 },
					{ "time": 0.6667, "angle": -38.01 },
					{ "time": 1, "angle": -20.61 },
					{ "time": 1.3333 }
				],
				"translate": [
					{},
					{ "time": 0.3333, "x": -4.64, "y": -3.75 },
					{ "time": 0.6667, "x": 4.19, "y": -10.36 },
					{ "time": 1, "x": -4.64, "y": -3.75 },
					{ "time": 1.3333 }
				]
			},
			"bone4": {
				"rotate": [
					{},
					{ "time": 0.3333, "angle": 16.62 },
					{ "time": 0.6667, "angle": -2.3 },
					{ "time": 1, "angle": 16.62 },
					{ "time": 1.3333 }
				]
			},
			"bone3": {
				"rotate": [
					{},
					{ "time": 0.3333, "angle": 18.55 },
					{ "time": 0.6667, "angle": 42.25 },
					{ "time": 1, "angle": 18.55 },
					{ "time": 1.3333 }
				],
				"translate": [
					{},
					{ "time": 0.6667, "x": 4.45, "y": 9.11 },
					{ "time": 1.3333 }
				]
			},
			"bone2": {
				"rotate": [
					{},
					{ "time": 0.3333, "angle": -20.06 },
					{ "time": 0.6667, "angle": -0.1 },
					{ "time": 1, "angle": -20.06 },
					{ "time": 1.3333 }
				]
			}
		}
	}
}
}