%YAML 1.1
%TAG !u! tag:unity3d.com,2011:
--- !u!114 &11400000
MonoBehaviour:
  m_ObjectHideFlags: 0
  m_CorrespondingSourceObject: {fileID: 0}
  m_PrefabInstance: {fileID: 0}
  m_PrefabAsset: {fileID: 0}
  m_GameObject: {fileID: 0}
  m_Enabled: 1
  m_EditorHideFlags: 0
  m_Script: {fileID: 11500000, guid: a6b194f808b1af6499c93410e504af42, type: 3}
  m_Name: skeleton_Atlas
  m_EditorClassIdentifier: 
  atlasFile: {fileID: 4900000, guid: 97a74fda3d9114d4eb05d526692071de, type: 3}
  materials:
  - {fileID: 2100000, guid: 815d647ca49f9f846bb13dacc5c254e8, type: 2}
