{
"skeleton": {
	"hash": "YKbWsD+4KIxlSekFyQ9DkQmke5U",
	"spine": "3.8.0",
	"x": -242.77,
	"y": -396.66,
	"width": 1078.67,
	"height": 1186.22,
	"images": "./New folder/",
	"audio": ""
},
"bones": [
	{ "name": "root" },
	{ "name": "bone", "parent": "root", "x": 61.09, "y": 141.39 },
	{ "name": "bone2", "parent": "bone" },
	{ "name": "bone3", "parent": "bone", "length": 78.66, "rotation": 90 },
	{ "name": "bone4", "parent": "bone3", "length": 127.01, "rotation": 1.56, "x": 75.9 },
	{ "name": "bone5", "parent": "bone4", "length": 123.18, "rotation": 63.6, "x": 3.47, "y": 0.6 },
	{ "name": "bone6", "parent": "bone5", "length": 125.6, "rotation": -128.03 },
	{ "name": "bone7", "parent": "bone6", "length": 105.36, "rotation": -146.55, "x": -71.33, "y": 89.27 },
	{ "name": "bone8", "parent": "bone7", "length": 111.3, "rotation": 44.14, "x": 105.36 },
	{ "name": "bone9", "parent": "bone6", "length": 112.64, "rotation": -89.78, "x": 120.04, "y": -0.25 },
	{ "name": "bone10", "parent": "bone9", "length": 111.62, "rotation": -50.27, "x": 112.64 },
	{ "name": "bone11", "parent": "bone3", "length": 132.95, "rotation": 178.92, "x": 15.03, "y": -1.4 },
	{ "name": "bone12", "parent": "bone11", "length": 96.72, "rotation": -41.82, "x": 132.33, "y": -0.64 },
	{ "name": "bone13", "parent": "bone12", "length": 216.97, "rotation": 35.32, "x": 93.4, "y": -0.43 },
	{ "name": "bone14", "parent": "bone11", "length": 92.94, "rotation": 41.34, "x": 129.51, "y": 0.62 },
	{ "name": "bone15", "parent": "bone14", "length": 212.56, "rotation": -33.46, "x": 92.94 }
],
"slots": [
	{ "name": "leg", "bone": "root", "attachment": "leg" },
	{ "name": "body", "bone": "root", "attachment": "body" },
	{ "name": "head", "bone": "root", "attachment": "head" },
	{ "name": "head2", "bone": "root", "attachment": "head2" },
	{ "name": "Head 3", "bone": "root", "attachment": "Head 3" }
],
"skins": [
	{
		"name": "default",
		"attachments": {
			"leg": {
				"leg": {
					"type": "mesh",
					"uvs": [ 0.39674, 0.33835, 0.39262, 0.36201, 0.38439, 0.39852, 0.38337, 0.45355, 0.37771, 0.4911, 0.36794, 0.53379, 0.35251, 0.5919, 0.34582, 0.6063, 0.35971, 0.60785, 0.33605, 0.62791, 0.31291, 0.64488, 0.30982, 0.67162, 0.31393, 0.68602, 0.34119, 0.69065, 0.36999, 0.69425, 0.40137, 0.69168, 0.41988, 0.67831, 0.4312, 0.65722, 0.44766, 0.64488, 0.44971, 0.62019, 0.44766, 0.60888, 0.45691, 0.60528, 0.46514, 0.58419, 0.47131, 0.55282, 0.47543, 0.52093, 0.47389, 0.49213, 0.47389, 0.47876, 0.48571, 0.42835, 0.48829, 0.40109, 0.50269, 0.39852, 0.51246, 0.39852, 0.51554, 0.43144, 0.52635, 0.45355, 0.52789, 0.47104, 0.52789, 0.52401, 0.52995, 0.56722, 0.53509, 0.60065, 0.55257, 0.61299, 0.54692, 0.63459, 0.56492, 0.65259, 0.57778, 0.66854, 0.59578, 0.68962, 0.62098, 0.69682, 0.66315, 0.69734, 0.68218, 0.68859, 0.69093, 0.67368, 0.69195, 0.65259, 0.66778, 0.63408, 0.64927, 0.62431, 0.63538, 0.60476, 0.64515, 0.59088, 0.62355, 0.53687, 0.61481, 0.46744, 0.61429, 0.41138, 0.60606, 0.35789, 0.59629, 0.32652, 0.58498, 0.31778, 0.58086, 0.33372, 0.57058, 0.34401, 0.55566, 0.35943, 0.54692, 0.36612, 0.54383, 0.34195, 0.54229, 0.32138, 0.53612, 0.30698, 0.52995, 0.29977, 0.51657, 0.30852, 0.49857, 0.31006, 0.47954, 0.30749, 0.46463, 0.30235, 0.45948, 0.29463, 0.45023, 0.31623, 0.4492, 0.33218, 0.44868, 0.36046, 0.43377, 0.34966, 0.4132, 0.33372, 0.39828, 0.32189, 0.33127, 0.66584, 0.36508, 0.65888, 0.39292, 0.64646, 0.40485, 0.6221, 0.37801, 0.62856, 0.38546, 0.59177, 0.42871, 0.58879, 0.3959, 0.55995, 0.43866, 0.55399, 0.40585, 0.52217, 0.44711, 0.51422, 0.4138, 0.47991, 0.44611, 0.4655, 0.41479, 0.4302, 0.45357, 0.4128, 0.41529, 0.35961, 0.44263, 0.38049, 0.47097, 0.38596, 0.47495, 0.36358, 0.47445, 0.3263, 0.49931, 0.33077, 0.52864, 0.3258, 0.52963, 0.35414, 0.5356, 0.38347, 0.56443, 0.38049, 0.58283, 0.36209, 0.59078, 0.39739, 0.59227, 0.43915, 0.59675, 0.47693, 0.60072, 0.52466, 0.6042, 0.56393, 0.61812, 0.59575, 0.58332, 0.59873, 0.62757, 0.63005, 0.66187, 0.6569, 0.62558, 0.66833, 0.60023, 0.65441, 0.5868, 0.63204, 0.5694, 0.6206, 0.55747, 0.58183, 0.57388, 0.56194, 0.54852, 0.53361, 0.57189, 0.49383, 0.54952, 0.45804, 0.56891, 0.42076, 0.54107, 0.39739, 0.50726, 0.35861, 0.48588, 0.34768, 0.42275, 0.39988, 0.44383, 0.43632 ],
					"triangles": [ 70, 69, 68, 63, 97, 65, 63, 65, 64, 97, 63, 62, 95, 68, 67, 70, 68, 95, 96, 66, 65, 96, 65, 97, 71, 70, 95, 57, 56, 55, 0, 75, 74, 97, 62, 61, 95, 66, 96, 66, 95, 67, 123, 95, 96, 98, 97, 61, 96, 97, 98, 57, 55, 54, 122, 96, 98, 123, 96, 122, 60, 98, 61, 91, 74, 73, 0, 74, 91, 1, 0, 91, 101, 57, 54, 58, 57, 101, 59, 58, 101, 123, 71, 95, 94, 71, 123, 72, 71, 94, 100, 59, 101, 60, 59, 100, 92, 73, 72, 91, 73, 92, 99, 98, 60, 99, 60, 100, 93, 72, 94, 92, 72, 93, 94, 123, 122, 121, 99, 100, 102, 101, 54, 100, 101, 102, 29, 94, 122, 93, 94, 29, 122, 98, 99, 30, 29, 122, 99, 30, 122, 30, 99, 121, 124, 91, 92, 28, 93, 29, 102, 54, 53, 90, 92, 93, 90, 93, 28, 124, 92, 90, 120, 100, 102, 121, 100, 120, 27, 90, 28, 1, 124, 2, 124, 1, 91, 125, 89, 124, 89, 2, 124, 31, 30, 121, 31, 121, 120, 90, 125, 124, 125, 90, 27, 103, 102, 53, 120, 102, 103, 3, 2, 89, 119, 32, 31, 120, 119, 31, 119, 120, 103, 88, 125, 27, 103, 53, 52, 33, 32, 119, 104, 103, 52, 119, 103, 104, 26, 88, 27, 87, 3, 89, 88, 87, 89, 88, 89, 125, 4, 3, 87, 88, 26, 25, 118, 119, 104, 86, 88, 25, 87, 88, 86, 86, 25, 24, 85, 4, 87, 85, 87, 86, 118, 34, 33, 118, 33, 119, 105, 104, 52, 118, 104, 105, 117, 34, 118, 117, 118, 105, 5, 4, 85, 105, 52, 51, 23, 86, 24, 84, 85, 86, 84, 86, 23, 83, 5, 85, 83, 85, 84, 116, 117, 105, 106, 105, 51, 116, 105, 106, 35, 34, 117, 35, 117, 116, 115, 35, 116, 22, 84, 23, 82, 83, 84, 82, 84, 22, 106, 51, 50, 83, 6, 5, 81, 83, 82, 81, 6, 83, 107, 106, 50, 108, 116, 106, 108, 106, 107, 115, 116, 108, 36, 35, 115, 49, 107, 50, 21, 82, 22, 8, 6, 81, 7, 6, 8, 20, 82, 21, 37, 36, 115, 37, 115, 108, 114, 37, 108, 79, 81, 82, 79, 82, 20, 79, 20, 19, 80, 8, 81, 80, 81, 79, 109, 107, 49, 109, 49, 48, 113, 108, 107, 113, 107, 109, 114, 108, 113, 38, 37, 114, 18, 79, 19, 78, 80, 79, 17, 78, 79, 39, 38, 114, 39, 114, 113, 112, 113, 109, 39, 113, 112, 110, 48, 47, 110, 47, 46, 18, 17, 79, 80, 9, 8, 77, 80, 78, 77, 9, 80, 76, 10, 9, 76, 9, 77, 111, 112, 109, 109, 48, 110, 111, 109, 110, 40, 39, 112, 11, 10, 76, 45, 110, 46, 16, 78, 17, 12, 11, 76, 44, 110, 45, 41, 40, 112, 41, 112, 111, 13, 76, 77, 12, 76, 13, 15, 78, 16, 77, 78, 15, 14, 13, 77, 15, 14, 77, 42, 41, 111, 43, 110, 44, 111, 110, 43, 42, 111, 43 ],
					"vertices": [ -49.83, -20.44, -54.15, -45.23, -62.77, -83.5, -63.85, -141.17, -69.78, -180.52, -80.02, -225.26, -96.19, -286.16, -103.19, -301.25, -88.64, -302.87, -113.43, -323.89, -137.69, -341.68, -140.92, -369.71, -136.61, -384.8, -108.04, -389.65, -77.86, -393.42, -44.98, -390.73, -25.58, -376.71, -13.72, -354.62, 3.53, -341.68, 5.68, -315.81, 3.53, -303.95, 13.23, -300.18, 21.85, -278.08, 28.32, -245.2, 32.63, -211.78, 31.02, -181.6, 31.02, -167.58, 43.41, -114.76, 46.11, -86.19, 61.2, -83.5, 71.44, -83.5, 74.68, -117.99, 85.99, -141.17, 87.61, -159.5, 87.61, -215.01, 89.77, -260.29, 95.16, -295.33, 113.48, -308.26, 107.55, -330.9, 126.42, -349.76, 139.89, -366.47, 158.76, -388.57, 185.17, -396.12, 229.37, -396.66, 249.31, -387.49, 258.47, -371.86, 259.55, -349.76, 234.22, -330.36, 214.82, -320.12, 200.26, -299.64, 210.5, -285.08, 187.87, -228.49, 178.7, -155.72, 178.16, -96.97, 169.54, -40.92, 159.3, -8.04, 147.44, 1.12, 143.13, -15.58, 132.35, -26.36, 116.72, -42.53, 107.55, -49.54, 104.32, -24.21, 102.7, -2.65, 96.24, 12.44, 89.77, 19.99, 75.75, 10.83, 56.89, 9.21, 36.95, 11.9, 21.31, 17.29, 15.92, 25.38, 6.22, 2.74, 5.14, -13.97, 4.61, -43.61, -11.03, -32.29, -32.59, -15.58, -48.22, -3.19, -118.44, -363.65, -83.01, -356.36, -53.84, -343.33, -41.33, -317.8, -69.47, -324.58, -61.65, -286.02, -16.32, -282.9, -50.71, -252.68, -5.9, -246.43, -40.29, -213.08, 2.95, -204.75, -31.95, -168.8, 1.91, -153.69, -30.91, -116.7, 9.73, -98.46, -30.39, -42.72, -1.73, -64.6, 27.96, -70.33, 32.13, -46.88, 31.61, -7.81, 57.66, -12.5, 88.4, -7.29, 89.44, -36.98, 95.69, -67.72, 125.91, -64.6, 145.19, -45.32, 153.52, -82.31, 155.09, -126.08, 159.77, -165.67, 163.94, -215.69, 167.59, -256.85, 182.18, -290.19, 145.71, -293.32, 192.08, -326.14, 228.03, -354.27, 189.99, -366.26, 163.42, -351.67, 149.35, -328.22, 131.12, -316.24, 118.62, -275.6, 135.81, -254.76, 109.24, -225.07, 133.72, -183.39, 110.28, -145.87, 130.6, -106.8, 101.42, -82.31, 65.99, -41.67, 43.59, -30.21, -22.57, -84.92, -0.49, -123.11 ],
					"hull": 76,
					"edges": [ 0, 2, 2, 4, 4, 6, 6, 8, 8, 10, 10, 12, 12, 14, 14, 16, 16, 18, 18, 20, 20, 22, 22, 24, 24, 26, 26, 28, 28, 30, 30, 32, 32, 34, 34, 36, 36, 38, 38, 40, 40, 42, 42, 44, 44, 46, 46, 48, 48, 50, 50, 52, 52, 54, 54, 56, 56, 58, 58, 60, 60, 62, 62, 64, 64, 66, 66, 68, 68, 70, 70, 72, 72, 74, 74, 76, 76, 78, 78, 80, 80, 82, 82, 84, 84, 86, 86, 88, 88, 90, 90, 92, 92, 94, 94, 96, 96, 98, 98, 100, 100, 102, 102, 104, 104, 106, 106, 108, 108, 110, 110, 112, 112, 114, 114, 116, 116, 118, 118, 120, 120, 122, 122, 124, 124, 126, 126, 128, 128, 130, 130, 132, 132, 134, 134, 136, 136, 138, 138, 140, 140, 142, 142, 144, 144, 146, 146, 148, 148, 150, 0, 150 ],
					"width": 1048,
					"height": 1048
				}
			},
			"head2": {
				"head2": {
					"type": "mesh",
					"uvs": [ 1, 1, 0, 1, 0, 0, 1, 0 ],
					"triangles": [ 1, 2, 3, 1, 3, 0 ],
					"vertices": [ 805.23, -258.43, -242.77, -258.43, -242.77, 789.57, 805.23, 789.57 ],
					"hull": 4,
					"edges": [ 0, 2, 2, 4, 4, 6, 0, 6 ],
					"width": 1048,
					"height": 1048
				}
			},
			"Head 3": {
				"Head 3": {
					"type": "mesh",
					"uvs": [ 1, 1, 0, 1, 0, 0, 1, 0 ],
					"triangles": [ 1, 2, 3, 1, 3, 0 ],
					"vertices": [ 835.9, -324.89, -212.1, -324.89, -212.1, 723.11, 835.9, 723.11 ],
					"hull": 4,
					"edges": [ 0, 2, 2, 4, 4, 6, 0, 6 ],
					"width": 1048,
					"height": 1048
				}
			},
			"head": {
				"head": {
					"type": "mesh",
					"uvs": [ 0.40937, 0.25304, 0.40147, 0.25699, 0.39357, 0.26708, 0.39269, 0.28201, 0.39489, 0.29737, 0.40498, 0.30395, 0.41947, 0.30834, 0.41727, 0.31932, 0.41771, 0.33073, 0.42166, 0.3417, 0.43132, 0.35224, 0.44405, 0.36101, 0.46073, 0.36672, 0.47126, 0.37067, 0.48092, 0.37374, 0.4875, 0.37989, 0.49497, 0.3834, 0.51603, 0.38428, 0.5235, 0.38252, 0.5314, 0.37726, 0.54632, 0.37111, 0.57046, 0.36409, 0.58451, 0.35311, 0.59504, 0.34346, 0.6025, 0.32853, 0.60163, 0.31537, 0.5968, 0.30922, 0.6104, 0.30834, 0.62006, 0.29474, 0.62664, 0.27981, 0.62401, 0.26664, 0.61523, 0.25611, 0.60689, 0.25172, 0.61126, 0.22967, 0.61391, 0.19235, 0.60479, 0.15061, 0.57555, 0.12456, 0.53681, 0.11221, 0.48638, 0.1092, 0.44163, 0.1249, 0.40709, 0.15788, 0.39866, 0.20285, 0.39922, 0.23657, 0.44568, 0.1658, 0.57037, 0.16722, 0.50755, 0.13179, 0.46504, 0.14077, 0.42395, 0.18375, 0.55762, 0.14596, 0.58927, 0.18658, 0.50661, 0.16486, 0.48063, 0.17855, 0.53495, 0.18139, 0.43198, 0.22909, 0.5921, 0.23618, 0.44568, 0.20548, 0.58738, 0.21303, 0.46599, 0.27444, 0.5444, 0.27633, 0.49811, 0.22437, 0.51842, 0.22343, 0.44284, 0.33112, 0.48488, 0.34954, 0.52739, 0.34765, 0.58029, 0.31931, 0.40931, 0.28152, 0.41923, 0.29475, 0.41403, 0.2683, 0.59635, 0.29333, 0.60533, 0.28294, 0.59635, 0.26782, 0.55573, 0.30844, 0.54912, 0.34104, 0.5222, 0.30939, 0.50425, 0.30986, 0.50283, 0.28955, 0.48535, 0.31175, 0.4693, 0.32781, 0.44851, 0.30797, 0.43482, 0.28199, 0.5085, 0.25177, 0.47732, 0.24893, 0.5444, 0.24988, 0.55526, 0.20831, 0.47591, 0.21067, 0.50519, 0.20264, 0.56659, 0.33301 ],
					"triangles": [ 45, 38, 37, 46, 39, 38, 46, 38, 45, 48, 37, 36, 45, 37, 48, 44, 48, 36, 50, 46, 45, 50, 45, 48, 43, 39, 46, 40, 39, 43, 35, 44, 36, 51, 46, 50, 43, 46, 51, 52, 50, 48, 52, 48, 44, 47, 40, 43, 49, 44, 35, 49, 35, 34, 85, 51, 50, 85, 50, 52, 41, 40, 47, 55, 47, 43, 55, 43, 51, 83, 52, 44, 83, 44, 49, 84, 55, 51, 84, 51, 85, 56, 83, 49, 56, 49, 34, 60, 85, 52, 60, 52, 83, 59, 84, 85, 59, 85, 60, 55, 41, 47, 53, 41, 55, 33, 56, 34, 54, 56, 33, 42, 41, 53, 81, 84, 59, 82, 60, 83, 32, 54, 33, 80, 59, 60, 80, 60, 82, 81, 59, 80, 0, 42, 53, 70, 54, 32, 67, 0, 53, 1, 0, 67, 2, 1, 67, 53, 84, 81, 84, 53, 55, 57, 53, 81, 79, 67, 53, 58, 82, 70, 80, 82, 58, 83, 54, 82, 56, 54, 83, 65, 2, 67, 57, 79, 53, 65, 67, 79, 3, 2, 65, 70, 30, 69, 31, 70, 32, 30, 70, 31, 69, 30, 29, 75, 81, 80, 75, 80, 58, 57, 81, 75, 68, 70, 69, 70, 82, 54, 68, 58, 70, 28, 69, 29, 66, 65, 79, 4, 3, 65, 5, 4, 65, 66, 5, 65, 78, 79, 57, 66, 79, 78, 6, 66, 78, 5, 66, 6, 28, 68, 69, 27, 68, 28, 71, 58, 68, 26, 68, 27, 64, 71, 68, 73, 75, 58, 73, 58, 71, 74, 75, 73, 76, 57, 75, 76, 75, 74, 78, 57, 76, 26, 64, 68, 77, 78, 76, 61, 8, 7, 61, 6, 78, 61, 78, 77, 61, 7, 6, 86, 71, 64, 72, 73, 71, 72, 71, 86, 9, 8, 61, 64, 24, 23, 25, 64, 26, 24, 64, 25, 86, 64, 23, 63, 73, 72, 62, 77, 76, 10, 9, 61, 22, 86, 23, 11, 61, 77, 12, 11, 77, 10, 61, 11, 21, 86, 22, 72, 86, 21, 62, 12, 77, 13, 12, 62, 20, 63, 72, 20, 72, 21, 14, 13, 62, 74, 73, 63, 19, 63, 20, 62, 74, 63, 74, 62, 76, 62, 63, 16, 16, 15, 62, 14, 62, 15, 19, 18, 63, 63, 17, 16, 18, 17, 63 ],
					"vertices": [ -40.33, 361.54, -48.61, 357.4, -56.89, 346.82, -57.81, 331.18, -55.51, 315.08, -44.93, 308.18, -29.75, 303.58, -32.05, 292.08, -31.59, 280.12, -27.45, 268.62, -17.33, 257.58, -3.99, 248.38, 13.49, 242.4, 24.53, 238.26, 34.65, 235.04, 41.55, 228.6, 49.37, 224.92, 71.45, 224, 79.27, 225.84, 87.55, 231.36, 103.19, 237.8, 128.49, 245.16, 143.21, 256.66, 154.25, 266.78, 162.07, 282.42, 161.15, 296.22, 156.09, 302.66, 170.35, 303.58, 180.47, 317.84, 187.37, 333.48, 184.61, 347.28, 175.41, 358.32, 166.67, 362.92, 171.25, 386.03, 174.02, 425.15, 164.48, 468.89, 133.83, 496.18, 93.23, 509.13, 40.38, 512.28, -6.52, 495.83, -42.72, 461.26, -51.55, 414.14, -50.96, 378.8, -2.28, 452.97, 128.4, 451.48, 62.57, 488.61, 18.02, 479.2, -25.05, 434.16, 115.04, 473.76, 148.2, 431.19, 61.58, 453.96, 34.35, 439.6, 91.28, 436.63, -16.63, 386.64, 151.17, 379.21, -2.28, 411.39, 146.22, 403.47, 19.01, 339.12, 101.18, 337.14, 52.67, 391.59, 73.95, 392.58, -5.25, 279.72, 38.81, 260.41, 83.36, 262.39, 138.8, 292.09, -40.39, 331.69, -30, 317.83, -35.44, 345.55, 155.63, 319.32, 165.03, 330.21, 155.63, 346.05, 113.06, 303.48, 106.13, 269.32, 77.91, 302.49, 59.1, 301.99, 57.62, 323.28, 39.3, 300.01, 22.47, 283.18, 0.69, 303.97, -13.66, 331.2, 63.56, 362.88, 30.89, 365.85, 101.18, 364.86, 112.56, 408.42, 29.4, 405.94, 60.09, 414.36, 124.44, 277.74 ],
					"hull": 43,
					"edges": [ 0, 2, 2, 4, 4, 6, 6, 8, 8, 10, 10, 12, 12, 14, 14, 16, 16, 18, 18, 20, 20, 22, 22, 24, 24, 26, 26, 28, 28, 30, 30, 32, 32, 34, 34, 36, 36, 38, 38, 40, 40, 42, 42, 44, 44, 46, 46, 48, 48, 50, 50, 52, 52, 54, 54, 56, 56, 58, 58, 60, 60, 62, 62, 64, 64, 66, 66, 68, 68, 70, 70, 72, 72, 74, 74, 76, 76, 78, 78, 80, 80, 82, 82, 84, 0, 84 ],
					"width": 1048,
					"height": 1048
				}
			},
			"body": {
				"body": {
					"type": "mesh",
					"uvs": [ 0.4471, 0.34165, 0.42657, 0.33138, 0.4163, 0.32345, 0.40977, 0.31039, 0.40604, 0.29872, 0.40977, 0.28752, 0.40697, 0.28052, 0.39764, 0.27819, 0.38411, 0.27633, 0.36824, 0.28892, 0.35238, 0.29966, 0.32951, 0.31319, 0.30618, 0.34678, 0.28799, 0.4233, 0.29218, 0.50683, 0.33185, 0.55769, 0.37464, 0.56886, 0.38766, 0.56406, 0.3719, 0.59626, 0.3767, 0.61339, 0.38834, 0.63737, 0.4089, 0.64422, 0.43219, 0.6545, 0.45411, 0.65244, 0.45069, 0.61271, 0.45343, 0.59215, 0.47261, 0.599, 0.49933, 0.59626, 0.51029, 0.59078, 0.51098, 0.62024, 0.50892, 0.6497, 0.50892, 0.66135, 0.55277, 0.6545, 0.58018, 0.63531, 0.60004, 0.60585, 0.59114, 0.58119, 0.58429, 0.56749, 0.61375, 0.55927, 0.6528, 0.53871, 0.68363, 0.45581, 0.68363, 0.35716, 0.64595, 0.30303, 0.60073, 0.277, 0.56647, 0.27426, 0.56031, 0.29276, 0.55688, 0.31263, 0.54318, 0.32564, 0.51783, 0.34003, 0.49385, 0.34551, 0.4685, 0.3462, 0.36916, 0.33318, 0.34792, 0.39895, 0.32805, 0.45856, 0.34998, 0.50103, 0.4226, 0.52707, 0.52057, 0.49829, 0.57469, 0.52227, 0.62265, 0.4887, 0.63841, 0.43458, 0.63224, 0.3736, 0.60073, 0.32153, 0.59456, 0.40854, 0.55757, 0.40991, 0.48563, 0.40991, 0.4363, 0.40649, 0.38903, 0.36538, 0.42945, 0.36127, 0.4733, 0.37634, 0.54592, 0.37292, 0.58908, 0.34825, 0.44863, 0.51405, 0.49933, 0.52638, 0.40684, 0.60517, 0.42671, 0.62435, 0.4226, 0.5716, 0.54592, 0.5716, 0.54044, 0.60928, 0.55866, 0.59206 ],
					"triangles": [ 5, 4, 7, 5, 7, 6, 60, 42, 41, 44, 43, 42, 60, 44, 42, 45, 44, 60, 4, 50, 9, 10, 9, 50, 11, 10, 50, 69, 45, 60, 46, 45, 69, 66, 1, 0, 3, 50, 4, 4, 8, 7, 8, 4, 9, 2, 50, 3, 65, 2, 1, 65, 1, 66, 2, 65, 50, 68, 46, 69, 47, 46, 68, 59, 60, 41, 59, 41, 40, 69, 60, 59, 67, 49, 48, 50, 12, 11, 51, 50, 65, 51, 12, 50, 66, 67, 64, 0, 67, 66, 49, 67, 0, 61, 69, 59, 68, 69, 61, 68, 63, 67, 64, 67, 63, 62, 68, 61, 13, 12, 51, 58, 59, 40, 61, 59, 58, 58, 40, 39, 52, 13, 51, 57, 61, 58, 57, 58, 39, 68, 48, 47, 48, 68, 67, 63, 68, 62, 55, 63, 62, 51, 64, 52, 53, 52, 64, 14, 13, 52, 14, 52, 53, 70, 64, 63, 70, 63, 55, 57, 56, 62, 57, 62, 61, 55, 62, 56, 71, 70, 55, 51, 65, 64, 64, 65, 66, 54, 64, 70, 54, 53, 64, 38, 57, 39, 37, 56, 57, 15, 14, 53, 53, 16, 15, 38, 37, 57, 54, 17, 53, 36, 56, 37, 17, 16, 53, 74, 17, 54, 56, 71, 55, 75, 56, 36, 75, 71, 56, 28, 71, 75, 77, 75, 36, 77, 36, 35, 25, 70, 71, 71, 26, 25, 74, 54, 70, 25, 74, 70, 28, 27, 71, 27, 26, 71, 72, 17, 74, 72, 74, 25, 18, 17, 72, 76, 28, 75, 76, 75, 77, 24, 72, 25, 19, 18, 72, 29, 28, 76, 73, 72, 24, 34, 33, 77, 34, 77, 35, 76, 77, 33, 20, 19, 72, 21, 20, 72, 73, 21, 72, 73, 24, 23, 22, 21, 73, 23, 22, 73, 32, 76, 33, 29, 76, 32, 30, 29, 32, 31, 30, 32 ],
					"vertices": [ 3, 4, 37.51, 38.47, 0.02687, 6, -19.47, 47.05, 2.8E-4, 5, 49.06, -13.65, 0.97284, 2, 6, -33.71, 66.44, 0, 5, 73.1, -14.37, 1, 1, 5, 86.36, -17.4, 1, 1, 5, 98.32, -26.95, 1, 1, 5, 107.01, -36.4, 1, 1, 5, 108.39, -48.69, 1, 1, 5, 114.13, -54.12, 1, 1, 5, 124.04, -52.23, 1, 1, 5, 137.73, -48.04, 1, 1, 5, 147.27, -29.08, 1, 2, 5, 157.63, -11.88, 0.90206, 7, -9.58, -44.27, 0.09794, 2, 5, 173.41, 11.05, 0.56566, 7, 14.54, -58.18, 0.43434, 2, 5, 180.81, 53.27, 0.15645, 7, 57.22, -62.18, 0.84355, 2, 7, 136.44, -39.4, 0.30163, 8, -5.13, -49.93, 0.69837, 1, 8, 80.64, -67.92, 1, 4, 8, 142.76, -41.27, 0.97782, 11, 132.11, -159.19, 6.9E-4, 12, 105.56, -118.31, 0.02146, 14, -103.6, -121.71, 3.0E-5, 5, 3, -125.77, 115.41, 5.9E-4, 8, 165.48, -0.87, 0.68837, 11, 142.97, -114.13, 0.05429, 12, 83.6, -77.49, 0.25655, 14, -65.69, -95.05, 2.0E-4, 5, 3, -120.74, 101.76, 0.00253, 8, 164.09, 13.6, 0.4428, 11, 137.69, -100.59, 0.08799, 12, 70.64, -70.92, 0.46637, 14, -60.71, -81.39, 3.1E-4, 4, 8, 192.53, -10.95, 0.11541, 11, 171.74, -116.46, 0.02303, 12, 106.6, -60.04, 0.8612, 14, -45.62, -115.8, 3.5E-4, 4, 8, 211.17, -10.65, 0.06638, 11, 189.59, -111.1, 0.00992, 12, 116.33, -44.14, 0.92344, 14, -28.68, -123.57, 2.7E-4, 5, 8, 238.57, -5.23, 0.01555, 11, 214.49, -98.42, 1.9E-4, 12, 126.43, -18.1, 0.98304, 14, -1.61, -130.49, 1.0E-4, 13, 16.73, -33.51, 0.00113, 4, 8, 250.99, 13.78, 0.00112, 12, 117.02, 2.57, 0.56595, 14, 17.79, -118.69, 1.0E-5, 13, 21.01, -11.21, 0.43291, 3, 8, 267.61, 34.65, 1.0E-5, 14, 41.78, -107.02, 0, 13, 28.47, 14.41, 0.99999, 4, 8, 271.37, 57.42, 1.0E-5, 12, 91.08, 43.15, 0.03589, 14, 54.98, -88.1, 0, 13, 23.3, 36.9, 0.9641, 2, 12, 63.02, 12.17, 0.92784, 13, -17.5, 27.85, 0.07216, 4, 3, -150.18, 32.84, 0, 8, 210.08, 72.78, 1.9E-4, 11, 165.82, -31.12, 4.7E-4, 12, 45.28, -0.38, 0.99934, 5, 3, -157.36, 12.73, 0, 8, 222.13, 90.4, 3.0E-5, 11, 172.62, -10.88, 7.0E-5, 12, 36.86, 19.23, 0.79866, 14, 24.77, -37.11, 0.20124, 5, 3, -154.49, -15.27, 0, 8, 226.47, 118.22, 0, 11, 169.22, 17.06, 1.0E-5, 12, 15.69, 37.79, 0.15208, 14, 40.68, -13.89, 0.8479, 5, 3, -148.74, -26.76, 0, 8, 223.84, 130.79, 0, 11, 163.26, 28.44, 0, 12, 3.66, 42.29, 0.00356, 14, 43.72, -1.41, 0.99644, 3, 10, 247.41, -37.11, 0, 14, 67.74, -20.81, 0.84483, 15, -9.55, -31.26, 0.15517, 3, 10, 276.69, -27.07, 3.0E-5, 14, 89.91, -42.41, 0.24606, 15, 20.85, -37.05, 0.75391, 3, 10, 287.93, -22.32, 4.0E-5, 14, 99.23, -50.29, 0.19305, 15, 32.97, -38.49, 0.80691, 3, 10, 263.42, 17.21, 5.8E-4, 13, 11.81, 139.68, 0, 15, 31.28, 7.98, 0.99942, 4, 10, 233.72, 35.83, 0.04016, 14, 126.66, 24.32, 0.30284, 13, -11.9, 165.49, 0, 15, 14.72, 38.88, 0.657, 4, 10, 197.17, 42.99, 0.13199, 14, 116.55, 60.17, 0.57254, 13, -45.25, 182.07, 0, 15, -13.47, 63.21, 0.29547, 4, 10, 177, 24.32, 0.26075, 14, 90.8, 69.75, 0.6055, 13, -69.65, 169.41, 0, 15, -40.24, 57.01, 0.13375, 5, 11, 137.39, 105.51, 0.0027, 10, 166.57, 12.12, 0.48524, 14, 75.2, 73.55, 0.47153, 13, -82.93, 160.4, 0, 15, -55.35, 51.58, 0.04053, 3, 10, 146.61, 37.2, 0.89015, 14, 88.57, 102.67, 0.10834, 15, -60.25, 83.25, 0.00151, 2, 10, 110.83, 66.5, 0.99908, 14, 98.58, 147.83, 9.2E-4, 2, 10, 18.23, 62.43, 0.9591, 9, 172.31, 25.88, 0.0409, 3, 6, 193.73, -80.44, 0.16367, 10, -77, 22.17, 0.01037, 9, 80.47, 73.38, 0.82596, 2, 6, 184.45, -11.95, 0.81902, 9, 11.95, 64.37, 0.18098, 2, 6, 154.72, 33.94, 0.87514, 9, -34.06, 34.81, 0.12486, 2, 6, 124.08, 52.86, 0.7377, 9, -53.1, 4.24, 0.2623, 2, 6, 109.49, 38.56, 0.80165, 9, -38.85, -10.4, 0.19835, 2, 6, 96.8, 21.66, 0.98068, 9, -22, -23.16, 0.01932, 2, 6, 77.8, 16.07, 0.99999, 5, -35.27, -71.18, 1.0E-5, 3, 4, 37.19, -35.68, 0.04638, 6, 47.28, 14.76, 0.95163, 5, -17.5, -46.33, 0.00199, 3, 4, 32.13, -10.4, 0.63348, 6, 22.29, 21.11, 0.35342, 5, 2.89, -30.56, 0.0131, 3, 4, 32.14, 16.17, 0.44543, 6, -1.68, 32.58, 0.00158, 5, 26.7, -18.75, 0.55299, 2, 5, 126.91, 12.61, 0.40245, 7, 12.39, -11.7, 0.59755, 4, 5, 118.15, 84.51, 0.00137, 3, 52.3, 143.41, 0.00273, 7, 83.36, 2.77, 0.9814, 8, -13.85, 17.31, 0.01451, 1, 8, 41.27, -18.71, 1, 1, 8, 90.16, -7.8, 1, 8, 5, -9.28, 173.47, 2.4E-4, 3, -81.97, 65.15, 0.05219, 7, 161.87, 136.89, 5.5E-4, 8, 135.9, 58.87, 0.31361, 11, 98.23, -64.71, 0.36102, 12, 17.31, -70.48, 0.27227, 14, -66.63, -28.39, 1.2E-4, 13, -102.59, -13.16, 0, 5, 6, -25.79, -134.16, 0.00203, 11, 66.15, 37.38, 0.69547, 10, 125.78, -77.63, 0.20566, 9, 133.34, -146.35, 0.00169, 14, -23.3, 69.45, 0.09516, 4, 6, 13.23, -182.39, 8.0E-5, 11, 90.2, 94.56, 0.07758, 10, 126.84, -15.6, 0.78195, 14, 32.54, 96.5, 0.1404, 1, 10, 74.86, 17, 1, 1, 10, 16.19, 10.12, 1, 2, 6, 137.95, -71.22, 0.04095, 9, 71.04, 17.64, 0.95905, 2, 6, 133.44, -7.6, 0.87736, 9, 7.4, 13.37, 0.12264, 6, 6, 86.11, -85.81, 0.07335, 3, 42.25, -115.07, 6.5E-4, 11, -29.36, 113.13, 0.09009, 10, 8.95, -42.83, 0.26555, 9, 85.42, -34.26, 0.57036, 13, -249.48, 149.11, 0, 6, 6, 50.95, -69.41, 0.25955, 3, 40.81, -76.3, 0.02658, 11, -27.19, 74.4, 0.284, 10, 25.37, -77.99, 0.18701, 9, 68.88, -69.36, 0.24286, 13, -242.94, 110.87, 0, 6, 6, -16.15, -35.03, 0.0014, 3, 40.81, -0.91, 0.98772, 11, -25.77, -0.98, 0.01043, 10, 54.73, -147.42, 2.6E-4, 9, 34.25, -136.32, 1.9E-4, 13, -233, 36.14, 0, 4, 5, 30.78, 52.76, 0.34847, 3, 44.4, 50.79, 0.46473, 7, 44.74, 87.33, 0.12107, 8, 17.33, 104.88, 0.06574, 4, 5, 93.83, 34.48, 0.18262, 3, 87.48, 100.33, 0.03069, 7, 31.55, 23.02, 0.77707, 8, -36.93, 67.92, 0.00962, 4, 5, 57.2, 12.78, 0.88577, 3, 91.79, 57.97, 0.04128, 7, 6.99, 57.8, 0.06741, 8, -30.33, 109.98, 0.00554, 4, 5, 8.87, 7.81, 0.76694, 3, 75.99, 12.01, 0.23065, 7, -1.82, 105.59, 0.00179, 8, -3.37, 150.41, 6.1E-4, 6, 6, 57.76, -29.33, 0.69581, 3, 79.58, -64.09, 0.0324, 11, -65.72, 61.46, 0.08598, 10, -5.58, -104.33, 0.02962, 9, 28.84, -62.39, 0.15619, 13, -279.77, 93.66, 0, 5, 6, 109.81, -26.96, 0.123, 11, -92.42, 106.2, 0.00398, 10, -47.01, -72.73, 0.00132, 9, 26.66, -10.34, 0.87169, 13, -311.35, 135.09, 0, 8, 5, -28.31, 149.63, 4.5E-4, 3, -68.33, 37.86, 0.07426, 7, 136.58, 153.96, 0.00115, 8, 129.64, 88.73, 0.14542, 11, 84.08, -37.69, 0.63208, 12, -11.26, -59.78, 0.1466, 14, -59.41, 1.24, 3.0E-5, 13, -119.71, 12.09, 0, 3, 11, 96, 15.68, 0.77702, 10, 161.57, -86.66, 0.04672, 14, -15.21, 33.44, 0.17626, 5, 8, 210.86, 22.1, 0.05694, 11, 180.38, -79.68, 0.01669, 12, 88.51, -26.87, 0.90591, 14, -14.84, -93.89, 2.8E-4, 13, -19.28, -18.74, 0.02018, 2, 12, 89.06, 2.07, 0.85781, 13, -2.09, 4.55, 0.14219, 5, 3, -128.64, 65.15, 0.00309, 8, 181.03, 47.01, 0.14637, 11, 144.9, -63.83, 0.14423, 12, 51.5, -38.72, 0.70588, 14, -31.02, -58.55, 4.3E-4, 5, 11, 142.46, 65.39, 0.01199, 10, 186.2, -23.24, 0.19615, 14, 52.5, 40.08, 0.78691, 13, -73.36, 121.11, 0, 15, -55.83, 11.14, 0.00496, 4, 10, 224.81, -13.15, 0.0192, 14, 78.93, 10.17, 0.9623, 13, -33.46, 120.62, 0, 15, -17.3, 0.76, 0.0185, 4, 10, 200.75, -2.59, 0.13824, 14, 77.5, 36.41, 0.7849, 13, -53.86, 137.17, 0, 15, -32.96, 21.86, 0.07686 ],
					"hull": 50,
					"edges": [ 0, 2, 2, 4, 4, 6, 6, 8, 8, 10, 10, 12, 12, 14, 14, 16, 16, 18, 18, 20, 20, 22, 22, 24, 24, 26, 26, 28, 28, 30, 30, 32, 32, 34, 34, 36, 36, 38, 38, 40, 40, 42, 42, 44, 44, 46, 46, 48, 48, 50, 50, 52, 52, 54, 54, 56, 56, 58, 58, 60, 60, 62, 62, 64, 64, 66, 66, 68, 68, 70, 70, 72, 72, 74, 74, 76, 76, 78, 78, 80, 80, 82, 82, 84, 84, 86, 86, 88, 88, 90, 90, 92, 92, 94, 94, 96, 96, 98, 0, 98 ],
					"width": 1048,
					"height": 1048
				}
			}
		}
	}
],
"animations": {
	"animation": {
		"slots": {
			"Head 3": {
				"attachment": [
					{ "name": null },
					{ "time": 0.6333, "name": "Head 3" },
					{ "time": 0.6667, "name": null }
				]
			},
			"head2": {
				"attachment": [
					{ "name": null },
					{ "time": 0.5667, "name": "head2" },
					{ "time": 0.7, "name": null }
				]
			}
		},
		"bones": {
			"bone4": {
				"translate": [
					{ "x": 0.94 },
					{ "time": 0.7, "x": 10.53 }
				],
				"scale": [
					{ "x": 0.971 },
					{ "time": 0.7, "y": 1.048 }
				]
			},
			"bone11": {
				"translate": [
					{ "time": 0.8, "x": -4.01 },
					{ "time": 0.8333, "x": -0.4 },
					{ "time": 1.1333, "x": 5.35, "curve": "stepped" },
					{ "time": 1.1667, "x": 5.35 },
					{ "time": 1.2, "x": 4.01 }
				],
				"scale": [
					{ "time": 0.8, "x": 0.984, "y": 1.013 },
					{ "time": 0.8333, "x": 0.999, "y": 1.026 },
					{ "time": 1.1333, "x": 1.039, "y": 1.054 },
					{ "time": 1.1667, "x": 1.04, "y": 1.04 },
					{ "time": 1.2, "x": 1.04, "y": 1.067 }
				]
			}
		},
		"deform": {
			"default": {
				"body": {
					"body": [
						{},
						{
							"time": 0.7,
							"vertices": [ -1.19549, -0.3748, -0.17803, -1.23974, -0.86758, 0.90396, 3.02348, 1.33046, -0.81528, -3.20147, -2.93097, -2.39003, -11.13753, -12.82119, -13.83916, -8.84147, -1.44892, 1.24723, -25.95098, -15.92214, -1.60216, 1.28205, -1.73622, 1.24107, -1.82982, 1.0553, -1.93137, 0.88672, 0.72986, 1.99602, -2.08596, 0.6621, 0.49374, 2.13196, -2.15843, 0.24848, 0.07566, 2.17126, -0.70055, 1.94786, 0.8537, 1.88587, 0.01322, 2.06199, -0.5978, 1.80004, -1.06919, 1.6466, -1.89466, 0.51428, 0.28468, 1.94271, 1.1814, -1.19012, -0.85276, 1.39688, -1.20357, 1.1676, -1.67559, 0.06756, -0.13271, 1.67193, 1.15702, -1.03969, -0.86589, 1.25196, -1.17643, 1.0177, -1.55532, -0.02605, -0.21133, 1.54138, -1.18231, 1.47889, -1.54312, 1.15702, -1.92145, -0.16659, -0.39449, 1.88811, -1.37, 1.47643, -1.72288, 1.10132, -2.01834, -0.32804, -0.56632, 1.96509, -1.64318, 1.42687, -1.97189, 0.9739, -2.11905, -0.58908, -0.8375, 2.03403, -2.06954, 0.74466, -1.76403, 1.24969, -2.02748, -0.79299, -1.02905, 1.91876, -2.1127, 0.52532, -1.92456, 1.05572, -1.26425, 1.80451, -2.1859, 0.27428, -1.95901, 0.84278, -1.77331, -1.19064, -1.3936, 1.61905, -2.13529, 0.05393, -1.4984, -0.88716, -1.73555, 0.14259, 1.49045, -0.34201, -1.3584, 0.69268, -1.49667, 0.31382, -1.32463, -0.76405, 1.56081, -0.14499, -1.47456, 0.52873, -1.56323, 0.11549, -1.24203, -0.95627, -1.09758, 1.11947, 1.53267, 0.12934, -1.51421, 0.26861, -1.52996, -0.15826, -1.03459, -1.13798, -1.25329, 0.89188, 1.47643, 0.24187, -1.48719, 0.15056, -1.47165, -0.26969, -0.91676, -1.1821, -1.28308, 0.76964, -1.54525, -0.91318, -1.51852, 0.95985, -1.79565, -0.03718, -1.83139, -1.01258, -1.73581, 1.17142, -2.09351, 0.01954, -1.94159, -1.05938, -1.82715, 1.24883, -2.21236, 0.03381, -1.71006, -1.42777, -2.02286, -0.95295, -2.19584, -0.42158, -1.41997, -1.59806, -2.09382, 0.51371, -1.78606, -1.20705, -2.02953, -0.72648, -1.055, -1.66053, -1.99079, 0.15203, -1.44889, -1.37349, -1.74426, -0.97143, -0.84138, -1.48077, -1.73194, 0.04514, -1.19587, -1.25336, -1.46938, -0.91783, -1.16705, -1.04639, -0.71287, -1.36357, -1.56747, -0.01461, -1.0412, -1.17162, -1.29924, -0.87706, -0.472, -1.60804, -1.68666, -0.35194, -1.21278, -1.22422, -0.10866, -1.8962, -1.79253, -0.82153, 0.79906, -1.85686, -0.91809, -1.80133, -2.26719, 0.00937, 1.73213, -1.46229, -0.01826, -2.26673, -2.17573, -0.66159, 0.65312, -2.17774, -1.88471, -1.11137, 1.10396, -1.88851, -1.58449, -1.29682, 1.29057, -1.58891, -7.23584, 5.28903, -5.31737, -7.21484, -3.83998, 3.77304, -3.78829, -3.82485, -1.59693, 6.23781, 5.89655, -2.5852, -1.19245, 0.35149, -0.83205, -0.92357, -0.21559, 1.22416, -1.1429, 0.1039, -0.58722, -0.9857, -0.41533, 1.06965, -1.14288, -0.15644, -0.35235, -1.09812, -0.64858, 0.95396, -1.63034, 0.64671, 0.51485, 1.67651, -1.54409, -0.05792, -0.59414, -1.49289, -0.18061, 1.53443, 0.93875, 1.22702, 0.39907, 1.57998, -0.07981, 1.47329, -0.24705, -0.98385, 0.7901, -0.66882, -1.00019, 0.16759, -0.60126, 0.81698, -0.80254, 0.65377, -1.03411, -0.04797, -0.17103, 1.02127, -0.8715, 0.55884, -0.06804, 0.60295, -0.49825, -0.36022, -0.33502, -0.50519, -0.60337, -0.06521, -0.61234, 0.05904, -0.4803, 1.02433, -0.67356, -0.94917, -0.28961, -1.09287, -1.13296, -0.2674, 0.244, -1.41138, 0.81885, -1.344, -1.72022, -0.08106, 0.07433, -1.71986, -1.676, -0.70434, 0.69781, -1.67818, -1.20388, 0.06823, -0.48978, 1.15593, 0.51156, -1.14649, 0.87908, -0.82463, -0.0731, -1.20317, 0.6378, -1.08128, -0.84392, -0.0748, -0.45244, 0.75169, 0.46656, -0.74303, 0.69488, -0.48368, 0.07144, -0.84358, 0.54748, -0.6855, -0.60942, -1.2164, -1.36058, -0.0114, 1.36017, 0.03704, 1.24825, 0.54204, 1.21406, -0.61354, 1.34712, 0.19065, -0.65871, 0.21467, -0.47073, -0.53089, 0.1617, 0.67351, 0.58496, 0.37087, -1.30378, 0.43007, -0.93662, -1.04893, 0.32496, 1.33368, 1.16194, 0.73084, -0.94461, 0.64163, -0.97824, -0.61422, 0.56449, 0.99267, 1.09621, 0.31928, -0.4627, 0.67276, -0.80459, -0.14235, 0.63402, 0.51485, 0.81316, -0.0721, -0.92607, -0.48205, -0.85216, 0.6343, 0.864, -0.61811, 1.01941, -0.22455, 0.47825, -0.92749, 0.92825, -0.51644, -1.44425, -0.51458, 1.13867, -1.08116, 1.43751, -0.53216, 0.50878, -1.44566, 1.25347, -0.94545, -0.0582, -0.76823, 0.67348, -0.39412, -0.77013, -0.00345, -0.55532, 0.53411, -0.68077, 0.38132, -0.76166, -0.16978, -0.25949, 0.73623, -0.71963, 0.30186, -0.8078, -0.14485, -0.69792, -0.43, -0.70225, 0.42498, -1.36502, 1.16847, -1.6335, 0.79199, -1.74558, -0.49901, -0.70359, 1.67389, -1.71273, 0.60219, -1.75362, -0.78817, -1.88654, 0.37086, 1.2645, -0.6634, -1.06146, 0.93198, -1.27674, 0.6394, -1.37791, -0.37485, -0.53649, 1.32364, -1.24718, -0.63674, -0.93167, -1.03033, -1.35717, 0.34595, -1.1673, -0.77368, -1.32261, -0.4603, -1.32774, -1.13476, -1.62687, 0.6546, -1.57714, -0.76638, -1.71775, -0.35148, -1.08251, -1.22907, -1.60606, 0.38637, -1.36428, -0.93102, -1.5525, -0.56378 ]
						},
						{
							"time": 0.8667,
							"vertices": [ -1.48007, -0.46404, -0.22038, -1.53497, -1.07405, 1.1192, -0.04765, -1.77036, -1.36579, 1.12807, -1.52673, 1.16463, -5.5466, -6.04884, -6.99189, -4.47466, -1.79379, 1.5442, -1.86335, 1.60992, -1.98352, 1.58727, -2.14952, 1.53653, -2.26537, 1.30652, -2.39109, 1.09784, 0.90363, 2.47112, -2.58251, 0.81972, 0.61124, 2.6395, -2.67223, 0.3076, 0.0936, 2.68814, -0.8674, 2.41161, 1.05695, 2.33485, 0.01639, 2.55294, -0.74014, 2.22858, -1.32374, 2.03865, -2.34577, 0.63675, 0.35251, 2.4052, 1.46268, -1.47348, -1.05582, 1.72944, -1.49014, 1.44561, -2.07454, 0.08367, -0.16426, 2.06995, 1.4325, -1.28722, -1.07207, 1.55, -1.45653, 1.25999, -1.92562, -0.03224, -0.2616, 1.90831, -1.46384, 1.83096, -1.91052, 1.43249, -2.37893, -0.20626, -0.4884, 2.3376, -1.69621, 1.82792, -2.13309, 1.36353, -2.49889, -0.40613, -0.70113, 2.43292, -2.03441, 1.76658, -2.44139, 1.20582, -2.62359, -0.72928, -1.03684, 2.51827, -2.56226, 0.92199, -2.18408, 1.54721, -2.51022, -0.98177, -1.27402, 2.37556, -2.61572, 0.65041, -2.38283, 1.30707, -1.56522, 2.2341, -2.70634, 0.3396, -2.42548, 1.04341, -2.19554, -1.47411, -1.72536, 2.00449, -2.64368, 0.06678, -1.85517, -1.09837, -2.14876, 0.17655, 1.84532, -0.42344, -1.68187, 0.85757, -1.85301, 0.38854, -1.64003, -0.94596, 1.93243, -0.17953, -1.82567, 0.6546, -1.93544, 0.14301, -1.53777, -1.18394, -1.35887, 1.38598, 1.8976, 0.16013, -1.87476, 0.33253, -1.89424, -0.19592, -1.28097, -1.40894, -1.55168, 1.10421, 1.82796, 0.29945, -1.84131, 0.18636, -1.82202, -0.33389, -1.13508, -1.46357, -1.58856, 0.95286, -1.91319, -1.13071, -1.88004, 1.18833, -2.22323, -0.04588, -2.26749, -1.25381, -2.14904, 1.45028, -2.59201, 0.02436, -2.4039, -1.31174, -2.26211, 1.54609, -2.73913, 0.04201, -2.11723, -1.76784, -2.50443, -1.17984, -2.71866, -0.52181, -1.7581, -1.9787, -2.59228, 0.63595, -2.21128, -1.49444, -2.51279, -0.89931, -1.30626, -2.05597, -2.46476, 0.18821, -1.79388, -1.7005, -2.15964, -1.20255, -1.04173, -1.8335, -2.14429, 0.05584, -1.48061, -1.55181, -1.81929, -1.13624, -1.44492, -1.29553, -0.88261, -1.68832, -1.94065, -0.01813, -1.28912, -1.45058, -1.60864, -1.08574, -0.58441, -1.99099, -2.08821, -0.43576, -1.50158, -1.51553, -0.13452, -2.34784, -2.21929, -1.01728, 0.98923, -2.299, -1.13657, -2.23019, -2.80687, 0.01153, 2.14444, -1.8105, -0.02253, -2.8064, -2.69376, -0.81918, 0.8087, -2.69637, -2.33338, -1.37601, 1.36685, -2.3382, -1.96169, -1.60561, 1.59789, -1.96729, -8.64694, 4.92395, -4.95773, -8.6272, -5.21341, 6.27193, -6.29253, -5.18851, -3.99234, 3.00174, 4.82323, 1.29532, -1.47629, 0.43521, -1.03009, -1.14348, -0.2668, 1.51563, -1.41495, 0.12867, -0.72699, -1.22043, -0.51412, 1.32434, -1.41493, -0.19367, -0.4362, -1.3596, -0.80289, 1.18109, -2.01841, 0.80069, 0.63737, 2.07562, -1.91166, -0.0717, -0.73562, -1.84835, -0.22368, 1.89972, 1.16226, 1.51915, 0.49408, 1.95614, -0.09886, 1.82401, -0.30577, -1.21811, 0.97822, -0.82806, -1.23839, 0.20744, -0.74443, 1.01147, -0.99362, 0.80944, -1.28031, -0.05936, -0.21168, 1.26436, -1.07896, 0.6919, -0.08421, 0.74646, -0.61691, -0.44598, -0.41479, -0.62559, -0.74696, -0.08081, -0.75808, 0.07303, -0.59459, 1.26816, -0.83395, -1.17515, -0.35858, -1.35318, -1.40265, -0.33113, 0.30208, -1.74754, 1.01379, -1.66411, -2.12978, -0.1004, 0.09208, -2.12949, -2.07503, -0.8721, 0.86401, -2.07785, -1.49049, 0.08441, -0.60641, 1.43116, 0.63336, -1.41947, 1.08839, -1.02108, -0.09041, -1.48972, 0.78969, -1.33873, -1.0448, -0.09267, -0.56016, 0.93066, 0.57764, -0.91994, 0.86034, -0.59897, 0.08852, -1.04453, 0.67785, -0.84871, -0.75449, -1.50609, -1.68454, -0.01411, 1.68402, 0.04586, 1.54546, 0.67096, 1.50316, -0.7597, 1.66789, 0.23604, -0.81543, 0.26578, -0.5828, -0.65729, 0.20013, 0.8338, 0.72418, 0.45913, -1.61409, 0.53249, -1.15962, -1.29866, 0.4023, 1.65117, 1.43855, 0.9048, -1.16943, 0.79442, -1.21117, -0.76045, 0.69885, 1.22896, 1.35719, 0.39525, -0.57277, 0.83295, -0.99615, -0.17625, 0.78491, 0.63734, 1.00674, -0.08929, -1.14651, -0.59686, -1.05505, 0.78532, 1.0697, -0.76527, 1.26212, -0.27809, 0.59219, -1.14838, 1.14927, -0.63939, -1.78807, -0.63712, 1.40973, -1.33858, 1.77975, -0.65901, 0.62997, -1.78995, 1.55191, -1.17057, -0.07196, -0.95117, 0.83383, -0.48796, -0.95358, -0.00433, -0.68758, 0.66124, -0.84286, 0.47212, -0.94301, -0.21019, -0.32122, 0.91148, -0.89095, 0.37375, -1.00012, -0.17932, -0.86411, -0.53248, -0.86943, 0.52612, -1.69005, 1.44664, -2.02245, 0.98057, -2.16119, -0.6178, -0.87107, 2.07238, -2.12051, 0.74557, -2.17115, -0.97582, -2.3357, 0.45918, 1.56557, -0.82135, -1.31422, 1.15385, -1.58073, 0.79165, -1.70599, -0.46407, -0.66418, 1.63874, -1.54416, -0.78833, -1.15356, -1.27576, -1.68027, 0.42828, -1.44522, -0.95789, -1.63756, -0.56974, -1.64386, -1.40506, -2.01419, 0.81041, -1.95264, -0.94886, -2.1268, -0.43503, -1.3403, -1.52181, -1.98844, 0.47832, -1.68913, -1.1527, -1.92222, -0.69788 ]
						},
						{
							"time": 1.2,
							"vertices": [ -10.6432, -1.83505, -2.93924, -10.39314, -6.37654, 8.71762, -2.19774, -11.351, -7.58776, 8.72353, -8.25239, 8.85353, -8.84376, 9.30084, -9.26996, 9.74699, -9.3246, 10.33974, -9.60742, 10.59491, -10.10889, 10.49173, -10.80405, 10.27298, -11.3082, 9.34454, -11.85159, 8.50073, 7.5282, 12.49202, -12.67522, 7.37288, 6.33829, 13.22279, -13.09961, 5.32272, 4.26079, 13.48225, 0.44539, 12.44695, 8.98831, 8.62164, 4.88622, 9.46799, 1.8718, 8.06127, -0.41322, 8.66379, -6.08456, 6.18134, 5.41199, 6.77818, 0.94974, -6.19172, 0.59042, 5.95213, -1.06633, 6.17268, -4.9105, 3.88921, 3.27617, 5.33928, 0.83086, -5.4088, 0.51454, 5.19984, -0.93279, 5.39219, -4.29045, 3.39659, 2.86093, 4.66498, -1.01724, 6.35061, -2.72197, 6.11929, -6.10859, 2.74569, 1.99799, 6.39252, -1.93674, 6.32289, -3.59851, 5.83075, -6.56957, 1.94608, 1.14918, 6.75496, -3.27832, 6.04485, -4.81223, 5.1701, -7.0337, 0.64442, -0.19854, 7.06072, -5.3662, 4.59271, -3.88547, 5.11707, -6.54025, -0.401, -1.1777, 6.44616, -5.568, 3.4544, -4.68718, 4.09934, -2.37508, 5.82936, -5.91467, 2.15286, -4.87311, 2.99302, -5.19793, -2.45118, -3.05331, 4.86909, -5.65825, 1.00556, -3.86484, -0.96265, -3.70998, 1.44925, 2.45712, -1.77932, -1.94328, 2.26305, -2.49034, 1.73264, -3.01115, -0.36915, 2.80028, -0.75455, -2.52515, 1.40452, -2.81403, 0.70156, -2.56494, -1.35344, -1.64962, 2.38569, 2.66304, 0.6727, -2.74023, 0.05327, -2.64993, -0.72284, -1.49278, -2.30545, -2.46708, 1.20773, 2.38861, 1.25824, -2.6174, -0.55636, -2.36456, -1.30308, -0.89315, -2.54759, -2.63604, 0.58352, -3.07718, -2.64699, -3.78555, 1.50901, -3.98971, -0.829, -4.47586, -3.12636, -4.84051, 2.54623, -5.44159, -0.54529, -5.01286, -3.35427, -5.28569, 2.92327, -6.02084, -0.47612, -3.82919, -5.27967, -5.06562, -4.23182, -5.95729, -2.84253, -2.38069, -6.19167, -6.74055, -0.84398, -3.89909, -5.56254, -5.15766, -4.42117, -0.5759, -6.55515, -6.28266, -2.6591, -2.24646, -6.44168, -3.77504, -5.68307, 0.45634, -5.65535, -5.00235, -3.15972, -1.0159, -5.82879, -2.43089, -5.39481, -0.87444, -5.3457, 1.07602, -5.0653, -4.18745, -3.4359, -0.26418, -5.41025, -1.59879, -5.17604, 2.29085, -6.35303, -4.83881, -5.16389, -1.18965, -6.9768, 4.11496, -7.882, -5.445, -7.56216, 8.58069, -7.78332, -0.50245, -11.5741, -13.82959, -3.94007, 13.13123, -5.85944, 3.88573, -13.84402, -13.2737, -7.26984, 7.21761, -13.30083, -11.71899, -9.53175, 9.48549, -11.7551, -10.15308, -10.48839, 10.44821, -10.19266, -9.43747, -9.8141, 9.77666, -9.47452, -8.82072, -9.01195, 8.97694, -8.85483, -7.87221, -8.76581, -2.05566, 11.60078, -10.62119, 1.94378, -6.33859, -8.74226, -2.98188, 10.37799, -10.38206, 0.65598, -5.07362, -9.08237, -4.02906, 9.5912, -10.38463, -0.69842, -3.853, -9.66934, -5.24345, 8.99133, -10.33284, 7.35384, 6.50626, 10.88635, -9.97746, 3.8875, -7.71001, -7.767, 3.07941, 10.25558, 9.35213, 5.21465, 6.73695, 7.00053, 4.38216, 6.40894, -3.41905, -0.52144, -0.95873, -3.4796, -0.79233, 3.36623, 1.77573, 2.96744, 0.89296, 3.49704, -1.66627, 3.20154, 2.97996, 2.03624, 0.49157, 3.57563, -2.61705, -1.29576, 2.38275, -1.78006, 2.83771, -0.68642, 1.28473, -2.62128, 0.61296, -2.90987, -4.78897, 0.84229, 1.53152, -4.84299, 3.1297, -3.72005, -2.04918, -4.64745, 5.79547, -5.42406, 8.61961, -5.14413, -11.011, -4.45929, 4.41579, -11.02722, -10.70169, -7.54695, 7.50475, -10.73013, -8.3792, -3.78978, -7.20106, 6.01384, 7.31326, -5.87694, 8.85632, -2.47475, 3.75633, -8.3931, 7.93087, -5.01213, -6.51149, -4.54457, -7.01856, 3.91064, 7.09103, -3.77755, 7.90919, -0.69658, 4.51851, -6.52805, 7.4727, -2.95135, -3.51559, -7.00661, -7.83871, -0.05927, 7.83615, 0.20712, 7.19379, 3.11451, 6.99219, -3.54181, 7.76238, 1.09203, -5.38743, 5.34187, -7.10761, -2.7619, 4.89531, 5.79616, 7.54945, 0.74994, -8.6795, 6.32542, -9.37999, -5.45683, 5.61304, 9.15619, 10.40474, 2.66107, -6.80559, 7.41373, -9.58315, -3.19521, 6.8474, 7.3752, 10.05, 0.52335, -4.32211, 7.62665, -8.73598, -0.74056, 7.25784, 4.91672, 8.63205, -1.52676, -6.87981, -6.54701, -8.96794, 3.2998, 9.02861, -3.13006, 9.47751, 0.6017, 6.51952, -6.90442, 9.32455, -2.08888, -9.53635, -6.63911, 10.37076, -5.54082, 11.57304, -1.03348, 6.60129, -9.56113, 10.93066, -4.3324, -2.42044, 0.56551, -1.52739, -2.05051, 0.37096, 2.45753, 1.97754, 1.50529, 1.48843, 2.07893, -0.27691, 2.54173, 2.49044, 0.57815, 1.24366, 2.23391, 0.87228, -0.65765, 1.041, -0.25615, 0.22053, -1.06976, -1.93715, 4.72784, -3.16092, 4.22123, -5.1704, 1.03828, 0.41456, 5.25756, -3.61818, 3.83671, -5.16402, -0.4213, -4.45694, 2.64208, 1.35504, -3.45147, -0.46953, 3.52681, -1.41995, 3.42526, -3.34209, 1.60595, 1.19609, 3.50993, -1.26811, -3.21395, -0.0415, -3.32264, -3.07515, -1.5752, -0.89663, -3.33671, -1.69666, -3.01038, -1.97934, -3.81458, -4.37773, -0.05483, -2.89795, -3.28151, -3.62158, -2.46007, -0.76129, -4.32915, -4.31661, -1.41032, -1.85218, -4.14618, -2.8233, -3.55729 ]
						}
					]
				},
				"Head 3": {
					"Head 3": [
						{
							"time": 0.6,
							"vertices": [ -257.15186, -85.77194, -257.15186, -85.77194, -257.15186, -85.77194, -257.15186, -85.77194 ]
						}
					]
				},
				"head2": {
					"head2": [
						{
							"vertices": [ -14.64395, 0, -14.64395, 0, -14.64395, 0, -14.64395 ]
						},
						{
							"time": 0.5667,
							"vertices": [ -226.39102, -152.69205, -226.39102, -152.69205, -226.39102, -152.69205, -226.39102, -152.69205 ]
						},
						{
							"time": 0.6667,
							"vertices": [ -226.39102, -151.29602, -226.39102, -151.29602, -226.39102, -151.29602, -226.39102, -151.29602 ]
						}
					]
				},
				"head": {
					"head": [
						{
							"offset": 1,
							"vertices": [ -2.73398, 0, -2.73398, 0, -2.73398, 0, -2.73398, 0, -2.73398, 0, -2.73398, 0, -2.73398, 0, -2.73398, 0, -2.73398, 0, -2.73398, 0, -2.73398, 0, -2.73398, 0, -2.73398, 0, -2.73398, 0, -2.73398, 0, -2.73398, 0, -2.73398, 0, -2.73398, 0, -2.73398, 0, -2.73398, 0, -2.73398, 0, -2.73398, 0, -2.73398, 0, -2.73398, 0, -2.73398, 0, -2.73398, 0, -2.73398, 0, -2.73398, 0, -2.73398, 0, -2.73398, 0, -2.73398, 0, -2.73398, 0, -2.73398, 0, -2.73398, 0, -2.73398, 0, -2.73398, 0, -2.73398, 0, -2.73398, 0, -2.73398, 0, -2.73398, 0, -2.73398, 0, -2.73398, 0, -2.73398, 0, -2.73398, 0, -2.73398, 0, -2.73398, 0, -2.73398, 0, -2.73398, 0, -2.73398, 0, -2.73398, 0, -2.73398, 0, -2.73398, 0, -2.73398, 0, -2.73398, 0, -2.73398, 0, -2.73398, 0, -2.73398, 0, -2.73398, 0, -2.73398, 0, -2.73398, 0, -2.73398, 0, -2.73398, 0, -2.73398, 0, -2.73398, 0, -2.73398, 0, -2.73398, 0, -2.73398, 0, -2.73398, 0, -2.73398, 0, -2.73398, 0, -2.73398, 0, -2.73398, 0, -2.73398, 0, -2.73398, 0, -2.73398, 0, -2.73398, 0, -2.73398, 0, -2.73398, 0, -2.73398, 0, -2.73398, 0, -2.73398, 0, -2.73398, 0, -2.73398, 0, -2.73398, 0, -2.73398, 0, -2.73398, 0, -2.73398 ]
						},
						{
							"time": 0.7,
							"offset": 1,
							"vertices": [ 13.66995, 0, 13.66995, 0, 13.66995, 0, 13.66995, 0, 13.66995, 0, 13.66995, 0, 13.66995, 0, 13.66995, 0, 13.66995, 0, 13.66995, 0, 13.66995, 0, 13.66995, 0, 13.66995, 0, 13.66995, 0, 13.66995, 0, 13.66995, 0, 13.66995, 0, 13.66995, 0, 13.66995, 0, 13.66995, 0, 13.66995, 0, 13.66995, 0, 13.66995, 0, 13.66995, 0, 13.66995, 0, 13.66995, 0, 13.66995, 0, 13.66995, 0, 13.66995, 0, 13.66995, 0, 13.66995, 0, 13.66995, 0, 13.66995, 0, 13.66995, 0, 13.66995, 0, 13.66995, 0, 13.66995, 0, 13.66995, 0, 13.66995, 0, 13.66995, 0, 13.66995, 0, 13.66995, 0, 13.66995, 0, 13.66995, 0, 13.66995, 0, 13.66995, 0, 13.66995, 0, 13.66995, 0, 13.66995, 0, 13.66995, 0, 13.66995, 0, 13.66995, 0, 13.66995, 0, 13.66995, 0, 13.66995, 0, 13.66995, 0, 13.66995, 0, 13.66995, 0, 13.66995, 0, 13.66995, 0, 13.66995, 0, 13.66995, 0, 13.66995, 0, 13.66995, 0, 13.66995, 0, 13.66995, 0, 13.66995, 0, 13.66995, 0, 13.66995, 0, 13.66995, 0, 13.66995, 0, 13.66995, 0, 13.66995, 0, 13.66995, 0, 13.66995, 0, 13.66995, 0, 13.66995, 0, 13.66995, 0, 13.66995, 0, 13.66995, 0, 13.66995, 0, 13.66995, 0, 13.66995, 0, 13.66995, 0, 13.66995, 0, 13.66995, 0, 13.66995 ]
						},
						{
							"time": 0.8667,
							"offset": 1,
							"vertices": [ 8.88181, 0, 8.88181, 0, 8.88181, 0, 8.88181, 0, 8.88181, 0, 8.88181, 0, 8.88181, 0, 8.88181, 0, 8.88181, 0, 8.88181, 0, 8.88181, 0, 8.88181, 0, 8.88181, 0, 8.88181, 0, 8.88181, 0, 8.88181, 0, 8.88181, 0, 8.88181, 0, 8.88181, 0, 8.88181, 0, 8.88181, 0, 8.88181, 0, 8.88181, 0, 8.88181, 0, 8.88181, 0, 8.88181, 0, 8.88181, 0, 8.88181, 0, 8.88181, 0, 8.88181, 0, 8.88181, 0, 8.88181, 0, 8.88181, 0, 8.88181, 0, 8.88181, 0, 8.88181, 0, 8.88181, 0, 8.88181, 0, 8.88181, 0, 8.88181, 0, 8.88181, 0, 8.88181, 0, 8.88181, 0, 8.88181, 0, 8.88181, 0, 8.88181, 0, 8.88181, 0, 8.88181, 0, 8.88181, 0, 8.88181, 0, 8.88181, 0, 8.88181, 0, 8.88181, 0, 8.88181, 0, 8.88181, 0, 8.88181, 0, 8.88181, 0, 8.88181, 0, 8.88181, 0, 8.88181, 0, 8.88181, 0, 8.88181, 0, 8.88181, 0, 8.88181, 0, 8.88181, 0, 8.88181, 0, 8.88181, 0, 8.88181, 0, 8.88181, 0, 8.88181, 0, 8.88181, 0, 8.88181, 0, 8.88181, 0, 8.88181, 0, 8.88181, 0, 8.88181, 0, 8.88181, 0, 8.88181, 0, 8.88181, 0, 8.88181, 0, 8.88181, 0, 8.88181, 0, 8.88181, 0, 8.88181, 0, 8.88181, 0, 8.88181, 0, 8.88181 ]
						},
						{
							"time": 1.2,
							"offset": 1,
							"vertices": [ -4.52499, 0, -4.52499, 0, -4.52499, 0, -4.52499, 0, -4.52499, 0, -4.52499, 0, -4.52499, 0, -4.52499, 0, -4.52499, 0, -4.52499, 0, -4.52499, 0, -4.52499, 0, -4.52499, 0, -4.52499, 0, -4.52499, 0, -4.52499, 0, -4.52499, 0, -4.52499, 0, -4.52499, 0, -4.52499, 0, -4.52499, 0, -4.52499, 0, -4.52499, 0, -4.52499, 0, -4.52499, 0, -4.52499, 0, -4.52499, 0, -4.52499, 0, -4.52499, 0, -4.52499, 0, -4.52499, 0, -4.52499, 0, -4.52499, 0, -4.52499, 0, -4.52499, 0, -4.52499, 0, -4.52499, 0, -4.52499, 0, -4.52499, 0, -4.52499, 0, -4.52499, 0, -4.52499, 0, -4.52499, 0, -4.52499, 0, -4.52499, 0, -4.52499, 0, -4.52499, 0, -4.52499, 0, -4.52499, 0, -4.52499, 0, -4.52499, 0, -4.52499, 0, -4.52499, 0, -4.52499, 0, -4.52499, 0, -4.52499, 0, -4.52499, 0, -4.52499, 0, -4.52499, 0, -4.52499, 0, -4.52499, 0, -4.52499, 0, -4.52499, 0, -4.52499, 0, -4.52499, 0, -4.52499, 0, -4.52499, 0, -4.52499, 0, -4.52499, 0, -4.52499, 0, -4.52499, 0, -4.52499, 0, -4.52499, 0, -4.52499, 0, -4.52499, 0, -4.52499, 0, -4.52499, 0, -4.52499, 0, -4.52499, 0, -4.52499, 0, -4.52499, 0, -4.52499, 0, -4.52499, 0, -4.52499, 0, -4.52499, 0, -4.52499, 0, -4.52499 ]
						}
					]
				},
				"leg": {
					"leg": [
						{
							"offset": 1,
							"vertices": [ 10, 0, 10, 0, 10, 0, 10, 0, 10, 0, 10, 0, 10, 0, 10, 0, 10, 0, 10, 0, 10, 0, 10, 0, 10, 0, 10, 0, 10, 0, 10, 0, 10, 0, 10, 0, 10, 0, 10, 0, 10, 0, 10, 0, 10, 0, 10, 0, 10, 0, 10, 0, 10, 0, 10, 0, 10, 0, 10, 0, 10, 0, 10, 0, 10, 0, 10, 0, 10, 0, 10, 0, 10, 0, 10, 0, 10, 0, 10, 0, 10, 0, 10, 0, 10, 0, 10, 0, 10, 0, 10, 0, 10, 0, 10, 0, 10, 0, 10, 0, 10, 0, 10, 0, 10, 0, 10, 0, 10, 0, 10, 0, 10, 0, 10, 0, 10, 0, 10, 0, 10, 0, 10, 0, 10, 0, 10, 0, 10, 0, 10, 0, 10, 0, 10, 0, 10, 0, 10, 0, 10, 0, 10, 0, 10, 0, 10, 0, 10, 0, 10, 0, 10, 0, 10, 0, 10, 0, 10, 0, 10, 0, 10, 0, 10, 0, 10, 0, 10, 0, 10, 0, 10, 0, 10, 0, 10, 0, 10, 0, 10, 0, 10, 0, 10, 0, 10, 0, 10, 0, 10, 0, 10, 0, 10, 0, 10, 0, 10, 0, 10, 0, 10, 0, 10, 0, 10, 0, 10, 0, 10, 0, 10, 0, 10, 0, 10, 0, 10, 0, 10, 0, 10, 0, 10, 0, 10, 0, 10, 0, 10, 0, 10, 0, 10, 0, 10, 0, 10, 0, 10, 0, 10, 0, 10, 0, 10, 0, 10, 0, 10 ]
						}
					]
				}
			}
		}
	}
}
}