{
"skeleton": {
	"hash": "QWv8maTrM8/NgGmQ67Q1MIU//R8",
	"spine": "3.8.0",
	"x": -199.83,
	"y": -341.86,
	"width": 454,
	"height": 873,
	"images": "../Image/",
	"audio": "C:/Users/Legion/Desktop/redrain_atlas/Casino/Character"
},
"bones": [
	{ "name": "root" },
	{ "name": "bone", "parent": "root", "length": 127.99, "rotation": 90, "x": -0.69, "y": -84.83 },
	{ "name": "bone2", "parent": "bone", "length": 170.04, "rotation": -1.32, "x": 127.99 },
	{ "name": "bone3", "parent": "bone2", "length": 117.57, "rotation": -153.61, "x": 166.44, "y": -55.79 },
	{ "name": "bone4", "parent": "bone3", "length": 116.87, "rotation": 119.11, "x": 117.57 },
	{ "name": "bone5", "parent": "bone4", "length": 85.27, "rotation": 17.8, "x": 116.87 },
	{ "name": "bone6", "parent": "bone5", "length": 27.37, "rotation": 15.97, "x": 145.83, "y": 0.18 },
	{ "name": "bone7", "parent": "bone2", "length": 177.82, "rotation": 1.95, "x": 201.14, "y": 7.56 },
	{ "name": "bone8", "parent": "bone7", "length": 17.61, "rotation": 2.55, "x": 219.8, "y": -3.39 }
],
"slots": [
	{ "name": "Haair_NPC_Roulette_F", "bone": "root", "attachment": "Roullette_NPC_F/Haair_NPC_Roulette_F" },
	{ "name": "Hand_L_1_NPC_Roulette_F", "bone": "root", "attachment": "Roullette_NPC_F/Hand_L_1_NPC_Roulette_F" },
	{ "name": "Body_NPC_Roulette_F", "bone": "root", "attachment": "Roullette_NPC_F/Body_NPC_Roulette_F" },
	{ "name": "Head_NPC_Roulette_F", "bone": "root", "attachment": "Roullette_NPC_F/Head_NPC_Roulette_F" },
	{ "name": "Hand_L_2_NPC_Roulette_F", "bone": "root", "attachment": "Roullette_NPC_F/Hand_L_2_NPC_Roulette_F" },
	{ "name": "Anim_1_NPC_Roulette_F3", "bone": "root", "attachment": "Roullette_NPC_F/Anim_1_NPC_Roulette_F3" },
	{ "name": "Anim_2_NPC_Roulette_F", "bone": "root" },
	{ "name": "Anim_3_NPC_Roulette_F", "bone": "root" },
	{ "name": "Anim_4_NPC_Roulette_F", "bone": "root" }
],
"skins": [
	{
		"name": "default",
		"attachments": {
			"Haair_NPC_Roulette_F": {
				"Roullette_NPC_F/Haair_NPC_Roulette_F": {
					"type": "mesh",
					"uvs": [ 1, 1, 0, 1, 0, 0, 1, 0 ],
					"triangles": [ 1, 2, 3, 1, 3, 0 ],
					"vertices": [ 1, 8, -344.78, -182.97, 1, 1, 8, -322.65, 215.42, 1, 1, 8, 31.8, 195.72, 1, 1, 8, 9.67, -202.66, 1 ],
					"hull": 4,
					"edges": [ 0, 2, 2, 4, 4, 6, 0, 6 ],
					"width": 399,
					"height": 355
				}
			},
			"Hand_L_2_NPC_Roulette_F": {
				"Roullette_NPC_F/Hand_L_2_NPC_Roulette_F": {
					"type": "mesh",
					"uvs": [ 0.92164, 0.03098, 0.86356, 0.13111, 0.84323, 0.18663, 0.98623, 0.28283, 0.98637, 0.36168, 0.94077, 0.40321, 0.73418, 0.52392, 0.73607, 0.5362, 0.71907, 0.58809, 0.56232, 0.75541, 0.35664, 0.91673, 0.16733, 0.99591, 0.08258, 0.99607, 0.05773, 0.97701, 0.00697, 0.88161, 0.00674, 0.7532, 0.06636, 0.71089, 0.20315, 0.6568, 0.24583, 0.63536, 0.31327, 0.59968, 0.40296, 0.5299, 0.38517, 0.49637, 0.43852, 0.47258, 0.46472, 0.43145, 0.46469, 0.29088, 0.53438, 0.17535, 0.56274, 0.11847, 0.69288, 0.17538, 0.70815, 0.12332, 0.76312, 0.04308, 0.82491, 0.00752, 0.87953, 0.00832 ],
					"triangles": [ 30, 0, 29, 0, 30, 31, 1, 29, 0, 28, 29, 1, 25, 26, 27, 2, 28, 1, 27, 28, 2, 5, 2, 3, 5, 3, 4, 6, 23, 5, 27, 24, 25, 27, 5, 24, 23, 24, 5, 2, 5, 27, 22, 23, 6, 20, 6, 7, 6, 20, 22, 20, 21, 22, 8, 20, 7, 9, 20, 8, 19, 20, 9, 10, 14, 15, 9, 18, 19, 9, 17, 18, 10, 17, 9, 16, 17, 10, 10, 15, 16, 11, 13, 14, 10, 11, 14, 12, 13, 11 ],
					"vertices": [ 1, 5, 130.23, -9.08, 1, 1, 5, 104.45, -8.79, 1, 1, 5, 90.67, -10.24, 1, 1, 5, 74.63, -36.81, 1, 1, 5, 56.34, -42.78, 1, 1, 5, 44.7, -39.76, 1, 2, 4, 130.53, -17.64, 0.15532, 5, 7.62, -20.97, 0.84468, 2, 4, 128.26, -19.61, 0.25608, 5, 4.85, -22.15, 0.74392, 2, 4, 116.58, -25.06, 0.67769, 5, -7.93, -23.78, 0.32231, 1, 4, 70.45, -30.9, 1, 1, 4, 21.44, -30.25, 1, 1, 4, -9.96, -19.76, 1, 1, 4, -17.03, -10.02, 1, 1, 4, -15.32, -4.44, 1, 1, 4, -0.67, 15.02, 1, 1, 4, 24.72, 33.39, 1, 1, 4, 38.05, 32.56, 1, 1, 4, 60.12, 24.53, 1, 1, 4, 67.9, 22.68, 1, 2, 4, 80.57, 20.01, 0.99989, 5, -28.45, 30.15, 1.1E-4, 2, 4, 101.83, 19.65, 0.82553, 5, -8.32, 23.3, 0.17447, 2, 4, 106.98, 26.48, 0.64963, 5, -1.32, 28.24, 0.35037, 2, 4, 116.12, 23.74, 0.40368, 5, 6.54, 22.83, 0.59632, 2, 4, 126.44, 26.59, 0.08993, 5, 17.24, 22.39, 0.91007, 1, 5, 49.86, 33.01, 1, 1, 5, 79.72, 32.32, 1, 1, 5, 94.17, 32.78, 1, 1, 5, 86.68, 10.91, 1, 1, 5, 99.43, 12.78, 1, 1, 5, 120.46, 11.41, 1, 1, 5, 131.43, 5.75, 1, 1, 5, 133.64, -1.68, 1 ],
					"hull": 32,
					"edges": [ 0, 62, 0, 2, 2, 4, 4, 6, 6, 8, 8, 10, 10, 12, 12, 14, 14, 16, 16, 18, 18, 20, 20, 22, 22, 24, 24, 26, 26, 28, 28, 30, 30, 32, 32, 34, 34, 36, 36, 38, 38, 40, 40, 42, 42, 44, 44, 46, 46, 48, 48, 50, 50, 52, 52, 54, 54, 56, 56, 58, 58, 60, 60, 62 ],
					"width": 142,
					"height": 244
				}
			},
			"Anim_4_NPC_Roulette_F": {
				"Roullette_NPC_F/Anim_4_NPC_Roulette_F": {
					"type": "mesh",
					"uvs": [ 1, 1, 0, 1, 0, 0, 1, 0 ],
					"triangles": [ 1, 2, 3, 1, 3, 0 ],
					"vertices": [ 1, 6, -12.13, -28.56, 1, 1, 6, -13.98, 23.41, 1, 1, 6, 45.98, 25.55, 1, 1, 6, 47.83, -26.41, 1 ],
					"hull": 4,
					"edges": [ 0, 2, 2, 4, 4, 6, 0, 6 ],
					"width": 52,
					"height": 60
				}
			},
			"Anim_2_NPC_Roulette_F": {
				"Roullette_NPC_F/Anim_2_NPC_Roulette_F": {
					"type": "mesh",
					"uvs": [ 1, 1, 0, 1, 0, 0, 1, 0 ],
					"triangles": [ 1, 2, 3, 1, 3, 0 ],
					"vertices": [ 1, 6, -12.16, -27.56, 1, 1, 6, -14.23, 30.41, 1, 1, 6, 45.73, 32.55, 1, 1, 6, 47.8, -25.42, 1 ],
					"hull": 4,
					"edges": [ 0, 2, 2, 4, 4, 6, 0, 6 ],
					"width": 58,
					"height": 60
				}
			},
			"Anim_1_NPC_Roulette_F3": {
				"Roullette_NPC_F/Anim_1_NPC_Roulette_F3": {
					"type": "mesh",
					"uvs": [ 1, 1, 0, 1, 0, 0, 1, 0 ],
					"triangles": [ 1, 2, 3, 1, 3, 0 ],
					"vertices": [ 1, 6, -11.98, -32.55, 1, 1, 6, -14.52, 38.4, 1, 1, 6, 45.44, 40.54, 1, 1, 6, 47.98, -30.41, 1 ],
					"hull": 4,
					"edges": [ 0, 2, 2, 4, 4, 6, 0, 6 ],
					"width": 71,
					"height": 60
				}
			},
			"Hand_L_1_NPC_Roulette_F": {
				"Roullette_NPC_F/Hand_L_1_NPC_Roulette_F": {
					"type": "mesh",
					"uvs": [ 0.23251, 0.00614, 0.32972, 0.0061, 0.39807, 0.01836, 0.55019, 0.10068, 0.66313, 0.20129, 0.66611, 0.32218, 0.85265, 0.56394, 0.9658, 0.72465, 0.98147, 0.76868, 0.9818, 0.89459, 0.95294, 0.93191, 0.89632, 0.96948, 0.81972, 0.99471, 0.7372, 0.99366, 0.60774, 0.95013, 0.50595, 0.88276, 0.46641, 0.84357, 0.30387, 0.62528, 0.24752, 0.52516, 0.22129, 0.49179, 0.07392, 0.36839, 0.00934, 0.28126, 0.00888, 0.1198, 0.07258, 0.05463, 0.13168, 0.0289 ],
					"triangles": [ 8, 15, 7, 8, 9, 14, 9, 10, 13, 11, 13, 10, 12, 13, 11, 24, 21, 22, 23, 24, 22, 0, 20, 21, 24, 0, 21, 5, 19, 20, 20, 0, 1, 1, 2, 20, 3, 20, 2, 3, 5, 20, 5, 18, 19, 3, 4, 5, 17, 18, 5, 6, 17, 5, 16, 17, 6, 16, 6, 7, 15, 16, 7, 14, 15, 8, 9, 13, 14 ],
					"vertices": [ 1, 3, -33.91, 2.77, 1, 1, 3, -29.51, 12.2, 1, 1, 3, -24.63, 17.99, 1, 1, 3, -5.8, 27.15, 1, 1, 3, 13.9, 31.28, 1, 1, 3, 31.55, 23.37, 1, 2, 3, 75.05, 25.05, 0.83528, 4, 42.58, 24.96, 0.16472, 2, 3, 103.47, 25.12, 0.00169, 4, 28.81, 0.1, 0.99831, 1, 4, 24.08, -5.38, 1, 1, 4, 7.76, -17.2, 1, 2, 3, 132.92, 9.82, 0.01719, 4, 1.11, -18.19, 0.98281, 2, 3, 135.8, 1.79, 0.15687, 4, -7.31, -16.8, 0.84313, 2, 3, 135.98, -7.35, 0.42825, 4, -15.38, -12.51, 0.57175, 2, 3, 132.09, -15.27, 0.69712, 4, -20.41, -5.25, 0.30288, 2, 3, 119.91, -24.87, 0.98152, 4, -22.87, 10.06, 0.01848, 1, 3, 105.53, -30.17, 1, 1, 3, 98.06, -31.34, 1, 1, 3, 59.05, -32.29, 1, 1, 3, 41.99, -30.96, 1, 1, 3, 35.96, -31.24, 1, 1, 3, 11.4, -37.16, 1, 1, 3, -4.16, -37.51, 1, 1, 3, -27.58, -26.61, 1, 1, 3, -34.13, -16.01, 1, 1, 3, -35.18, -8.54, 1 ],
					"hull": 25,
					"edges": [ 0, 48, 0, 2, 2, 4, 4, 6, 6, 8, 8, 10, 10, 12, 12, 14, 14, 16, 16, 18, 18, 20, 20, 22, 22, 24, 24, 26, 26, 28, 28, 30, 30, 32, 32, 34, 34, 36, 36, 38, 38, 40, 40, 42, 42, 44, 44, 46, 46, 48 ],
					"width": 107,
					"height": 160
				}
			},
			"Anim_3_NPC_Roulette_F": {
				"Roullette_NPC_F/Anim_3_NPC_Roulette_F": {
					"type": "mesh",
					"uvs": [ 1, 1, 0, 1, 0, 0, 1, 0 ],
					"triangles": [ 1, 2, 3, 1, 3, 0 ],
					"vertices": [ 1, 6, -9.74, -11.46, 1, 1, 6, -10.31, 4.53, 1, 1, 6, 44.66, 6.49, 1, 1, 6, 45.23, -9.5, 1 ],
					"hull": 4,
					"edges": [ 0, 2, 2, 4, 4, 6, 0, 6 ],
					"width": 16,
					"height": 55
				}
			},
			"Body_NPC_Roulette_F": {
				"Roullette_NPC_F/Body_NPC_Roulette_F": {
					"type": "mesh",
					"uvs": [ 1, 1, 0, 1, 0, 0, 1, 0 ],
					"triangles": [ 1, 2, 3, 1, 3, 0 ],
					"vertices": [ 1, 1, -257.03, -200.86, 1, 1, 1, -257.03, 117.14, 1, 2, 1, 341.97, 117.14, 0.00342, 2, 211.24, 122.03, 0.99658, 2, 1, 341.97, -200.86, 0.08377, 2, 218.54, -195.89, 0.91623 ],
					"hull": 4,
					"edges": [ 0, 2, 2, 4, 4, 6, 0, 6 ],
					"width": 318,
					"height": 599
				}
			},
			"Head_NPC_Roulette_F": {
				"Roullette_NPC_F/Head_NPC_Roulette_F": {
					"type": "mesh",
					"uvs": [ 1, 1, 0, 1, 0, 0, 1, 0 ],
					"triangles": [ 1, 2, 3, 1, 3, 0 ],
					"vertices": [ 2, 7, -30.22, -176.47, 0.94878, 8, -257.47, -161.78, 0.05122, 2, 7, -26.69, 144.51, 0.98262, 8, -239.67, 158.72, 0.01738, 2, 7, 288.29, 141.05, 0.11001, 8, 74.85, 141.25, 0.88999, 2, 7, 284.76, -179.93, 0.18794, 8, 57.04, -179.26, 0.81206 ],
					"hull": 4,
					"edges": [ 0, 2, 2, 4, 4, 6, 0, 6 ],
					"width": 321,
					"height": 315
				}
			}
		}
	}
],
"animations": {
	"animation": {
		"slots": {
			"Anim_2_NPC_Roulette_F": {
				"attachment": [
					{ "time": 0.0667, "name": "Roullette_NPC_F/Anim_2_NPC_Roulette_F" },
					{ "time": 0.1333, "name": null },
					{ "time": 0.4, "name": "Roullette_NPC_F/Anim_2_NPC_Roulette_F" },
					{ "time": 0.4667, "name": null },
					{ "time": 0.7333, "name": "Roullette_NPC_F/Anim_2_NPC_Roulette_F" },
					{ "time": 0.8, "name": null },
					{ "time": 1.0667, "name": "Roullette_NPC_F/Anim_2_NPC_Roulette_F" },
					{ "time": 1.1333, "name": null }
				]
			},
			"Anim_3_NPC_Roulette_F": {
				"attachment": [
					{ "time": 0.1333, "name": "Roullette_NPC_F/Anim_3_NPC_Roulette_F" },
					{ "time": 0.2, "name": null },
					{ "time": 0.4667, "name": "Roullette_NPC_F/Anim_3_NPC_Roulette_F" },
					{ "time": 0.5333, "name": null },
					{ "time": 0.8, "name": "Roullette_NPC_F/Anim_3_NPC_Roulette_F" },
					{ "time": 0.8667, "name": null },
					{ "time": 1.1333, "name": "Roullette_NPC_F/Anim_3_NPC_Roulette_F" },
					{ "time": 1.2, "name": null }
				]
			},
			"Anim_4_NPC_Roulette_F": {
				"attachment": [
					{ "time": 0.2, "name": "Roullette_NPC_F/Anim_4_NPC_Roulette_F" },
					{ "time": 0.2667, "name": null },
					{ "time": 0.5333, "name": "Roullette_NPC_F/Anim_4_NPC_Roulette_F" },
					{ "time": 0.6, "name": null },
					{ "time": 0.8667, "name": "Roullette_NPC_F/Anim_4_NPC_Roulette_F" },
					{ "time": 0.9333, "name": null },
					{ "time": 1.2, "name": "Roullette_NPC_F/Anim_4_NPC_Roulette_F" },
					{ "time": 1.2667, "name": null }
				]
			},
			"Anim_1_NPC_Roulette_F3": {
				"attachment": [
					{ "time": 0.0667, "name": null },
					{ "time": 0.2667, "name": "Roullette_NPC_F/Anim_1_NPC_Roulette_F3" },
					{ "time": 0.4, "name": null },
					{ "time": 0.6, "name": "Roullette_NPC_F/Anim_1_NPC_Roulette_F3" },
					{ "time": 0.7333, "name": null },
					{ "time": 0.9333, "name": "Roullette_NPC_F/Anim_1_NPC_Roulette_F3" },
					{ "time": 1.0667, "name": null },
					{ "time": 1.2667, "name": "Roullette_NPC_F/Anim_1_NPC_Roulette_F3" }
				]
			}
		},
		"bones": {
			"bone8": {
				"rotate": [
					{},
					{ "time": 0.3333, "angle": -2.26 },
					{ "time": 0.6667, "angle": 0.88 },
					{ "time": 1, "angle": -2.26 },
					{ "time": 1.3333 }
				],
				"translate": [
					{},
					{ "time": 0.3333, "x": -4.27, "y": -0.02 },
					{ "time": 0.6667, "x": -0.78, "y": 0.11 },
					{ "time": 1, "x": -4.27, "y": -0.02 },
					{ "time": 1.3333 }
				]
			},
			"bone7": {
				"translate": [
					{},
					{ "time": 0.3333, "x": -2.93, "y": -0.1 },
					{ "time": 0.6667, "x": -0.04 },
					{ "time": 1, "x": -2.93, "y": -0.1 },
					{ "time": 1.3333 }
				]
			},
			"bone5": {
				"rotate": [
					{},
					{ "time": 0.3333, "angle": 10.97 },
					{ "time": 0.6667, "angle": 3.24 },
					{ "time": 1, "angle": 10.97 },
					{ "time": 1.3333 }
				]
			},
			"bone4": {
				"rotate": [
					{},
					{ "time": 0.3333, "angle": -14.58 },
					{ "time": 0.6667, "angle": -4.76 },
					{ "time": 1, "angle": -14.58 },
					{ "time": 1.3333 }
				]
			},
			"bone3": {
				"rotate": [
					{},
					{ "time": 0.3333, "angle": 5.12 },
					{ "time": 0.6667, "angle": -1.22 },
					{ "time": 1, "angle": 5.12 },
					{ "time": 1.3333 }
				]
			},
			"bone2": {
				"translate": [
					{},
					{ "time": 0.3333, "x": -4, "y": 0.09 },
					{ "time": 0.6667 },
					{ "time": 1, "x": -4, "y": 0.09 },
					{ "time": 1.3333 }
				],
				"scale": [
					{},
					{ "time": 0.3333, "x": 0.98, "y": 0.98 },
					{ "time": 0.6667 },
					{ "time": 1, "x": 0.98, "y": 0.98 },
					{ "time": 1.3333 }
				]
			}
		}
	}
}
}