%YAML 1.1
%TAG !u! tag:unity3d.com,2011:
--- !u!114 &11400000
MonoBehaviour:
  m_ObjectHideFlags: 0
  m_CorrespondingSourceObject: {fileID: 0}
  m_PrefabInstance: {fileID: 0}
  m_PrefabAsset: {fileID: 0}
  m_GameObject: {fileID: 0}
  m_Enabled: 1
  m_EditorHideFlags: 0
  m_Script: {fileID: 11500000, guid: a6b194f808b1af6499c93410e504af42, type: 3}
  m_Name: skeleton_Atlas
  m_EditorClassIdentifier: 
  atlasFile: {fileID: 4900000, guid: de13431387c68d348ba63d41639adc8f, type: 3}
  materials:
  - {fileID: 2100000, guid: 16ae4f12b81568f44864efe1f14f193d, type: 2}
  - {fileID: 2100000, guid: 1fa7d7fd8c9dcd646b38053234ca31b4, type: 2}
  - {fileID: 2100000, guid: aa294f57d15285c419f6061af00e3b3c, type: 2}
