{
"skeleton": {
	"hash": "yUPaO4IO1UPnBsZdV7gYEI6rt8s",
	"spine": "3.8.0",
	"x": -522,
	"y": -571,
	"width": 1064,
	"height": 1129,
	"images": "../skin/B 2/",
	"audio": ""
},
"bones": [
	{ "name": "root" }
],
"slots": [
	{ "name": "Head", "bone": "root", "attachment": "Head" },
	{ "name": "body", "bone": "root", "attachment": "body" },
	{ "name": "leg", "bone": "root", "attachment": "leg" }
],
"skins": [
	{
		"name": "default",
		"attachments": {
			"Head": {
				"Head": {
					"type": "mesh",
					"uvs": [ 1, 1, 0, 1, 0, 0, 1, 0 ],
					"triangles": [ 1, 2, 3, 1, 3, 0 ],
					"vertices": [ 526, -490, -522, -490, -522, 558, 526, 558 ],
					"hull": 4,
					"edges": [ 0, 2, 2, 4, 4, 6, 0, 6 ],
					"width": 1048,
					"height": 1048
				}
			},
			"leg": {
				"leg": {
					"type": "mesh",
					"uvs": [ 1, 1, 0, 1, 0, 0, 1, 0 ],
					"triangles": [ 1, 2, 3, 1, 3, 0 ],
					"vertices": [ 542, -571, -506, -571, -506, 477, 542, 477 ],
					"hull": 4,
					"edges": [ 0, 2, 2, 4, 4, 6, 0, 6 ],
					"width": 1048,
					"height": 1048
				}
			},
			"body": {
				"body": {
					"type": "mesh",
					"uvs": [ 1, 1, 0, 1, 0, 0, 1, 0 ],
					"triangles": [ 1, 2, 3, 1, 3, 0 ],
					"vertices": [ 533, -533, -515, -533, -515, 515, 533, 515 ],
					"hull": 4,
					"edges": [ 0, 2, 2, 4, 4, 6, 0, 6 ],
					"width": 1048,
					"height": 1048
				}
			}
		}
	}
],
"animations": {
	"animation": {
		"deform": {
			"default": {
				"Head": {
					"Head": [
						{
							"offset": 1,
							"vertices": [ 0.76899, 0, 0.76899, 0, 0.76899, 0, 0.76899 ]
						},
						{
							"time": 0.6667,
							"offset": 1,
							"vertices": [ 9.99701, 0, 9.99701, 0, 9.99701, 0, 9.99701 ]
						},
						{
							"time": 1.3333,
							"offset": 1,
							"vertices": [ 1.35699, 0, 1.35699, 0, 1.35699, 0, 1.35699 ]
						}
					]
				},
				"body": {
					"body": [
						{
							"offset": 1,
							"vertices": [ -0.92899, 0, -0.92899, 0, -0.92899, 0, -0.92899 ]
						},
						{
							"time": 0.6667,
							"vertices": [ 6.62354, -7.32333, -6.62354, -7.32333, -6.62354, 25.79349, 6.62354, 25.79349 ]
						},
						{
							"time": 1.3333,
							"vertices": [ 2.23767, -2.06372, -2.23767, -2.06372, -2.23767, 2.34995, 2.23767, 2.34995 ]
						}
					]
				}
			}
		},
		"drawOrder": [
			{
				"offsets": [
					{ "slot": "Head", "offset": 2 },
					{ "slot": "body", "offset": 0 }
				]
			}
		]
	}
}
}