%YAML 1.1
%TAG !u! tag:unity3d.com,2011:
--- !u!114 &11400000
MonoBehaviour:
  m_ObjectHideFlags: 0
  m_CorrespondingSourceObject: {fileID: 0}
  m_PrefabInstance: {fileID: 0}
  m_PrefabAsset: {fileID: 0}
  m_GameObject: {fileID: 0}
  m_Enabled: 1
  m_EditorHideFlags: 0
  m_Script: {fileID: 11500000, guid: a6b194f808b1af6499c93410e504af42, type: 3}
  m_Name: NPC_Token_Atlas
  m_EditorClassIdentifier: 
  atlasFile: {fileID: 4900000, guid: ba0cb01835264c04a967af629d1af113, type: 3}
  materials:
  - {fileID: 2100000, guid: 816094357e176bf4b8eefdf2e2108936, type: 2}
