{
"skeleton": {
	"hash": "XGWCBoXd5NP7WbeA0EGpwTUVtQY",
	"spine": "3.8.0",
	"x": -146.87,
	"y": -400.17,
	"width": 362.18,
	"height": 906.28,
	"images": "../Image/",
	"audio": "C:/Users/Legion/Desktop/redrain_atlas/Casino/Character"
},
"bones": [
	{ "name": "root" },
	{ "name": "bone", "parent": "root", "length": 128.58, "rotation": 90.58, "x": -5.2, "y": -150.82 },
	{ "name": "bone2", "parent": "bone", "length": 129.89, "rotation": -0.58, "x": 188.9, "y": -3.24 },
	{ "name": "bone3", "parent": "bone2", "length": 107.05, "rotation": -160.68, "x": 139.07, "y": -61.66 },
	{ "name": "bone4", "parent": "bone3", "length": 112.56, "rotation": 1.86, "x": 108.29, "y": -0.43 },
	{ "name": "bone5", "parent": "bone2", "length": 105.65, "rotation": 151.84, "x": 139.07, "y": 65.6 },
	{ "name": "bone6", "parent": "bone5", "length": 129.44, "rotation": 107.64, "x": 105.65 },
	{ "name": "bone7", "parent": "bone2", "length": 89.99, "rotation": 0.44, "x": 194.18, "y": -6.56 }
],
"slots": [
	{ "name": "Hand_L_Receptionist", "bone": "root", "attachment": "NPC_Receptionist/Hand_L_Receptionist" },
	{ "name": "Hand_R_1_Receptionist", "bone": "root", "attachment": "NPC_Receptionist/Hand_R_1_Receptionist" },
	{ "name": "Body_Receptionist'", "bone": "root", "attachment": "NPC_Receptionist/Body_Receptionist'" },
	{ "name": "Head_NPC_Receptionist", "bone": "root", "attachment": "NPC_Receptionist/Head_NPC_Receptionist" },
	{ "name": "Hand_R_2_Receptionist", "bone": "root", "attachment": "NPC_Receptionist/Hand_R_2_Receptionist" }
],
"skins": [
	{
		"name": "default",
		"attachments": {
			"Hand_R_1_Receptionist": {
				"NPC_Receptionist/Hand_R_1_Receptionist": {
					"type": "mesh",
					"uvs": [ 0.87393, 0.01432, 0.99795, 0.16859, 0.97919, 0.30593, 0.37734, 0.94841, 0.24982, 0.99999, 0.11396, 0.9817, 0.0225, 0.90367, 0.00557, 0.76033, 0.03866, 0.63806, 0.441, 0.06373, 0.58749, 0.01382 ],
					"triangles": [ 3, 4, 6, 4, 5, 6, 10, 1, 2, 10, 2, 9, 8, 9, 2, 3, 7, 8, 2, 3, 8, 3, 6, 7, 1, 10, 0 ],
					"vertices": [ 1, 5, -26.69, 14.27, 1, 1, 5, -14.44, 37.14, 1, 2, 5, 3.54, 44.3, 0.9999, 6, 73.16, 83.88, 1.0E-4, 1, 6, 20.93, -17.29, 1, 1, 6, 7.71, -27.09, 1, 2, 5, 134.32, 0.45, 0.05353, 6, -8.26, -27.45, 0.94647, 2, 5, 129.69, -14.06, 0.30721, 6, -20.68, -18.64, 0.69279, 2, 5, 112.92, -25.26, 0.83733, 6, -26.27, 0.73, 0.16267, 2, 5, 96.02, -29.95, 0.99741, 6, -25.62, 18.26, 0.00259, 1, 5, 3.11, -26.75, 1, 1, 5, -11.07, -15.06, 1 ],
					"hull": 11,
					"edges": [ 0, 20, 0, 2, 2, 4, 4, 6, 6, 8, 8, 10, 10, 12, 12, 14, 14, 16, 16, 18, 18, 20 ],
					"width": 116,
					"height": 140
				}
			},
			"Body_Receptionist'": {
				"NPC_Receptionist/Body_Receptionist'": {
					"type": "mesh",
					"uvs": [ 0.43945, 0.00715, 0.48052, 0.01446, 0.50606, 0.02383, 0.55983, 0.06168, 0.57436, 0.09014, 0.57188, 0.12834, 0.56763, 0.14034, 0.5868, 0.16241, 0.60087, 0.19238, 0.57905, 0.2363, 0.55838, 0.24777, 0.55506, 0.29058, 0.56058, 0.30523, 0.60701, 0.35384, 0.64632, 0.40273, 0.65953, 0.44251, 0.65721, 0.48542, 0.63246, 0.55751, 0.59473, 0.61996, 0.57765, 0.64179, 0.53779, 0.67644, 0.53737, 0.6825, 0.54445, 0.71615, 0.54371, 0.75955, 0.5053, 0.82723, 0.51097, 0.84051, 0.53565, 0.88582, 0.53365, 0.91679, 0.507, 0.95189, 0.47619, 0.97595, 0.42139, 0.99866, 0.26219, 0.99853, 0.20866, 0.97703, 0.17683, 0.95281, 0.15255, 0.92206, 0.14243, 0.89474, 0.17747, 0.83124, 0.17768, 0.82731, 0.14131, 0.76687, 0.13589, 0.75231, 0.13585, 0.71075, 0.14558, 0.68009, 0.13493, 0.66886, 0.10203, 0.63726, 0.0707, 0.59512, 0.05324, 0.56194, 0.02585, 0.4882, 0.0256, 0.43259, 0.03224, 0.41236, 0.06278, 0.36352, 0.10897, 0.31861, 0.12395, 0.29658, 0.12895, 0.25701, 0.08647, 0.21264, 0.08748, 0.16951, 0.10845, 0.14625, 0.11648, 0.13645, 0.1164, 0.07159, 0.12583, 0.05756, 0.19314, 0.01817, 0.24119, 0.00846, 0.30403, 0.00157, 0.37305, 0.00154 ],
					"triangles": [ 30, 31, 29, 31, 32, 29, 32, 33, 29, 29, 33, 25, 35, 36, 25, 28, 29, 25, 36, 24, 25, 25, 33, 34, 27, 28, 26, 37, 24, 36, 25, 34, 35, 26, 28, 25, 37, 38, 24, 24, 38, 22, 23, 24, 22, 40, 41, 22, 39, 40, 22, 21, 22, 41, 22, 38, 39, 21, 41, 20, 41, 42, 20, 20, 42, 19, 42, 43, 19, 19, 43, 18, 43, 44, 18, 16, 17, 45, 44, 45, 17, 50, 16, 45, 50, 12, 13, 50, 51, 12, 51, 11, 12, 44, 17, 18, 49, 50, 46, 50, 45, 46, 49, 46, 48, 15, 16, 13, 50, 13, 16, 46, 47, 48, 15, 13, 14, 51, 52, 11, 11, 52, 10, 10, 52, 6, 52, 62, 6, 1, 2, 0, 62, 52, 61, 0, 2, 62, 60, 56, 59, 52, 60, 61, 52, 53, 55, 53, 54, 55, 55, 56, 52, 60, 52, 56, 58, 59, 57, 8, 9, 10, 5, 6, 2, 62, 2, 6, 8, 10, 7, 7, 10, 6, 4, 5, 2, 59, 56, 57, 4, 2, 3 ],
					"vertices": [ 1, 2, 186.37, -30.99, 1, 1, 2, 181.77, -43.68, 1, 1, 2, 175.86, -51.57, 1, 1, 2, 152.02, -68.19, 1, 1, 2, 134.09, -72.68, 1, 1, 2, 110.02, -71.91, 1, 1, 2, 102.46, -70.6, 1, 1, 2, 88.56, -76.52, 1, 1, 2, 69.68, -80.87, 1, 2, 1, 230.16, -77.79, 0.0091, 2, 42.01, -74.12, 0.9909, 2, 1, 222.99, -71.33, 0.02475, 2, 34.78, -67.74, 0.97525, 2, 1, 196.04, -70.03, 0.16891, 2, 7.81, -66.71, 0.83109, 2, 1, 186.79, -71.64, 0.26781, 2, -1.42, -68.42, 0.73219, 2, 1, 156.02, -85.67, 0.61474, 2, -32.04, -82.76, 0.38526, 2, 1, 125.1, -97.5, 0.83538, 2, -62.84, -94.91, 0.16462, 2, 1, 100, -101.33, 0.92565, 2, -87.9, -98.99, 0.07435, 2, 1, 72.97, -100.34, 0.97716, 2, -114.94, -98.27, 0.02284, 2, 1, 27.64, -92.23, 0.9999, 2, -160.35, -90.63, 1.0E-4, 1, 1, -11.59, -80.17, 1, 1, 1, -25.29, -74.75, 1, 1, 1, -46.99, -62.21, 1, 1, 1, -50.8, -62.04, 1, 1, 1, -72.03, -64.01, 1, 1, 1, -99.37, -63.51, 1, 1, 1, -141.88, -51.2, 1, 1, 1, -150.27, -52.87, 1, 1, 1, -178.89, -60.2, 1, 1, 1, -198.39, -59.39, 1, 1, 1, -220.42, -50.93, 1, 1, 1, -235.48, -41.25, 1, 1, 1, -249.61, -24.17, 1, 1, 1, -249.03, 25.01, 1, 1, 1, -235.32, 41.42, 1, 1, 1, -219.96, 51.1, 1, 1, 1, -200.51, 58.4, 1, 1, 1, -183.27, 61.35, 1, 1, 1, -143.37, 50.12, 1, 1, 1, -140.9, 50.03, 1, 1, 1, -102.71, 60.88, 1, 1, 1, -93.52, 62.46, 1, 1, 1, -67.34, 62.2, 1, 1, 1, -48.06, 59, 1, 1, 1, -40.95, 62.22, 1, 1, 1, -20.93, 72.18, 1, 1, 1, 5.71, 81.59, 1, 1, 1, 26.67, 86.77, 1, 2, 1, 73.21, 94.76, 0.9927, 2, -116.69, 96.81, 0.0073, 2, 1, 108.24, 94.48, 0.93916, 2, -81.65, 96.89, 0.06084, 2, 1, 120.97, 92.3, 0.8998, 2, -68.91, 94.84, 0.1002, 2, 1, 151.63, 82.55, 0.72077, 2, -38.14, 85.4, 0.27923, 2, 1, 179.78, 67.99, 0.40714, 2, -9.85, 71.13, 0.59286, 2, 1, 193.61, 63.22, 0.23522, 2, 4.03, 66.5, 0.76478, 2, 1, 218.53, 61.42, 0.05294, 2, 28.96, 64.95, 0.94706, 2, 1, 246.61, 74.26, 0.00205, 2, 56.91, 78.08, 0.99795, 1, 2, 84.08, 77.77, 1, 1, 2, 98.74, 71.29, 1, 1, 2, 104.91, 68.81, 1, 1, 2, 145.78, 68.83, 1, 1, 2, 154.61, 65.92, 1, 1, 2, 179.43, 45.12, 1, 1, 2, 185.55, 30.27, 1, 1, 2, 189.88, 10.86, 1, 1, 2, 189.91, -10.47, 1 ],
					"hull": 63,
					"edges": [ 0, 124, 0, 2, 2, 4, 4, 6, 6, 8, 8, 10, 10, 12, 12, 14, 14, 16, 16, 18, 18, 20, 20, 22, 22, 24, 24, 26, 26, 28, 28, 30, 30, 32, 32, 34, 34, 36, 36, 38, 38, 40, 40, 42, 42, 44, 44, 46, 46, 48, 48, 50, 50, 52, 52, 54, 54, 56, 56, 58, 58, 60, 60, 62, 62, 64, 64, 66, 66, 68, 68, 70, 70, 72, 72, 74, 74, 76, 76, 78, 78, 80, 80, 82, 82, 84, 84, 86, 86, 88, 88, 90, 90, 92, 92, 94, 94, 96, 96, 98, 98, 100, 100, 102, 102, 104, 104, 106, 106, 108, 108, 110, 110, 112, 112, 114, 114, 116, 116, 118, 118, 120, 120, 122, 122, 124 ],
					"width": 309,
					"height": 630
				}
			},
			"Head_NPC_Receptionist": {
				"NPC_Receptionist/Head_NPC_Receptionist": {
					"type": "mesh",
					"uvs": [ 0.50695, 0.17578, 0.76332, 0.22018, 1, 0.50165, 1, 0.56463, 0.80391, 0.75118, 0.30312, 0.78391, 0.23573, 0.7451, 0.20395, 0.57371, 0.23873, 0.29913, 0.38403, 0.2066, 0.50617, 0.17562 ],
					"triangles": [ 2, 7, 1, 5, 6, 7, 9, 10, 0, 9, 0, 1, 3, 4, 2, 9, 7, 8, 5, 7, 4, 1, 7, 9, 2, 4, 7 ],
					"vertices": [ 1, 7, 273.89, 19.36, 1, 1, 7, 248.07, -87.1, 1, 1, 7, 88.85, -184.33, 1, 1, 7, 53.39, -184.06, 1, 1, 7, -51, -101.67, 1, 1, 7, -67.82, 106.79, 1, 1, 7, -45.75, 134.66, 1, 1, 7, 50.84, 147.13, 1, 1, 7, 205.31, 131.47, 1, 1, 7, 256.94, 70.62, 1, 1, 7, 273.99, 19.68, 1 ],
					"hull": 11,
					"edges": [ 0, 2, 2, 4, 4, 6, 6, 8, 8, 10, 10, 12, 12, 14, 14, 16, 16, 18, 18, 20, 20, 0 ],
					"width": 416,
					"height": 563
				}
			},
			"Hand_R_2_Receptionist": {
				"NPC_Receptionist/Hand_R_2_Receptionist": {
					"type": "mesh",
					"uvs": [ 0.53061, 0.17989, 0.66867, 0.12069, 0.90206, 0.19681, 0.90602, 0.5676, 1, 0.78368, 1, 0.8622, 0.92912, 1, 0.86697, 1, 0.48668, 0.61076, 0.43977, 0.65255, 0.10271, 0.60898, 0.00482, 0.43234, 0.00365, 0.21377, 0.10656, 0.02971, 0.23202, 0.00185 ],
					"triangles": [ 11, 12, 13, 10, 11, 13, 0, 9, 14, 8, 9, 0, 10, 13, 14, 9, 10, 14, 6, 7, 3, 1, 3, 8, 3, 1, 2, 3, 4, 6, 8, 0, 1, 3, 7, 8, 5, 6, 4 ],
					"vertices": [ 1, 6, 87.34, 25.41, 1, 1, 6, 116.73, 36.52, 1, 1, 6, 169.44, 39.03, 1, 1, 6, 176.67, 4.92, 1, 1, 6, 201.08, -11.21, 1, 1, 6, 202.42, -18.47, 1, 1, 6, 189.18, -34.1, 1, 1, 6, 175.49, -36.64, 1, 1, 6, 85.05, -16.21, 1, 1, 6, 75.44, -21.99, 1, 1, 6, 0.46, -31.74, 1, 1, 6, -24.13, -19.41, 1, 1, 6, -28.14, 0.74, 1, 1, 6, -8.63, 21.96, 1, 1, 6, 18.53, 29.66, 1 ],
					"hull": 15,
					"edges": [ 0, 28, 0, 2, 2, 4, 4, 6, 6, 8, 8, 10, 10, 12, 12, 14, 14, 16, 16, 18, 18, 20, 20, 22, 22, 24, 24, 26, 26, 28 ],
					"width": 224,
					"height": 94
				}
			},
			"Hand_L_Receptionist": {
				"NPC_Receptionist/Hand_L_Receptionist": {
					"type": "mesh",
					"uvs": [ 0.25246, 0.01696, 0.30893, 0.05439, 0.41506, 0.29769, 0.43558, 0.34385, 0.56111, 0.4633, 0.588, 0.55843, 0.61237, 0.69555, 0.64566, 0.733, 0.78082, 0.77476, 0.90772, 0.8491, 1, 0.89477, 1, 0.90046, 0.98479, 0.92491, 0.86859, 0.93101, 0.67545, 0.87066, 0.74112, 0.9568, 0.71984, 0.99817, 0.68212, 0.99653, 0.55598, 0.91001, 0.48164, 0.84004, 0.44817, 0.77277, 0.3991, 0.72533, 0.27334, 0.57636, 0.19733, 0.4104, 0.05674, 0.25396, 0.00433, 0.15755, 0.00523, 0.07729, 0.02763, 0.04804, 0.07168, 0.02018, 0.14204, 0.00358, 0.2039, 0.00322 ],
					"triangles": [ 16, 17, 15, 17, 18, 15, 18, 14, 15, 13, 9, 12, 13, 14, 9, 11, 12, 10, 18, 19, 14, 12, 9, 10, 19, 7, 14, 14, 8, 9, 14, 7, 8, 19, 20, 7, 20, 6, 7, 20, 21, 6, 21, 5, 6, 21, 22, 5, 22, 4, 5, 4, 23, 3, 4, 22, 23, 23, 2, 3, 23, 24, 2, 24, 1, 2, 26, 29, 1, 1, 29, 0, 28, 29, 27, 29, 30, 0, 1, 24, 25, 26, 1, 25, 27, 29, 26 ],
					"vertices": [ 1, 3, -5.18, 21.41, 1, 1, 3, 8.36, 27.79, 1, 1, 3, 80.33, 23.48, 1, 2, 3, 94.01, 22.73, 0.98718, 4, -13.52, 23.61, 0.01282, 2, 3, 133.86, 33.49, 0.15253, 4, 26.65, 33.08, 0.84747, 2, 3, 161.1, 29.24, 0.00819, 4, 53.74, 27.95, 0.99181, 1, 4, 91.82, 18.05, 1, 1, 4, 104.01, 19.97, 1, 1, 4, 124.19, 39.11, 1, 1, 4, 152.47, 53.47, 1, 1, 4, 170.81, 64.77, 1, 1, 4, 172.32, 64.18, 1, 1, 4, 177.8, 59.03, 1, 1, 4, 171.61, 38.25, 1, 1, 4, 142.59, 10.96, 1, 1, 4, 169.9, 13.48, 1, 1, 4, 179.46, 5.53, 1, 1, 4, 176.49, -0.84, 1, 1, 4, 145.02, -13.81, 1, 1, 4, 121.43, -19.5, 1, 1, 4, 101.3, -18.37, 1, 1, 4, 85.4, -22, 1, 1, 4, 37.36, -28.47, 1, 2, 3, 97.24, -25.37, 0.39716, 4, -11.85, -24.56, 0.60284, 2, 3, 46.52, -35.29, 0.99853, 4, -62.87, -32.84, 0.00147, 1, 3, 17.36, -35.4, 1, 1, 3, -4.17, -27.67, 1, 1, 3, -10.66, -20.98, 1, 1, 3, -15.44, -10.62, 1, 1, 3, -15.57, 3.29, 1, 1, 3, -11.86, 14.18, 1 ],
					"hull": 31,
					"edges": [ 0, 60, 0, 2, 2, 4, 4, 6, 6, 8, 8, 10, 10, 12, 12, 14, 14, 16, 16, 18, 18, 20, 20, 22, 22, 24, 24, 26, 26, 28, 28, 30, 30, 32, 32, 34, 34, 36, 36, 38, 38, 40, 40, 42, 42, 44, 44, 46, 46, 48, 48, 50, 50, 52, 52, 54, 54, 56, 56, 58, 58, 60 ],
					"width": 186,
					"height": 285
				}
			}
		}
	}
],
"animations": {
	"animation": {
		"bones": {
			"bone7": {
				"translate": [
					{},
					{ "time": 0.5, "x": -2.51, "y": -0.02 },
					{ "time": 1 }
				]
			},
			"bone6": {
				"rotate": [
					{},
					{ "time": 0.5, "angle": 18.93 },
					{ "time": 1 }
				]
			},
			"bone5": {
				"rotate": [
					{},
					{ "time": 0.5, "angle": 9.46 },
					{ "time": 1 }
				]
			},
			"bone4": {
				"rotate": [
					{},
					{ "time": 0.5, "angle": 9.22 },
					{ "time": 1 }
				]
			},
			"bone3": {
				"rotate": [
					{},
					{ "time": 0.5, "angle": -4.13 },
					{ "time": 1 }
				]
			},
			"bone2": {
				"scale": [
					{},
					{ "time": 0.5, "x": 0.98, "y": 0.98 },
					{ "time": 1 }
				]
			}
		}
	}
}
}