%YAML 1.1
%TAG !u! tag:unity3d.com,2011:
--- !u!74 &7400000
AnimationClip:
  m_ObjectHideFlags: 0
  m_CorrespondingSourceObject: {fileID: 0}
  m_PrefabInstance: {fileID: 0}
  m_PrefabAsset: {fileID: 0}
  m_Name: Walk
  serializedVersion: 6
  m_Legacy: 0
  m_Compressed: 0
  m_UseHighQualityCurve: 1
  m_RotationCurves: []
  m_CompressedRotationCurves: []
  m_EulerCurves: []
  m_PositionCurves: []
  m_ScaleCurves: []
  m_FloatCurves:
  - curve:
      serializedVersion: 2
      m_Curve:
      - serializedVersion: 3
        time: 0
        value: 0.9000015
        inSlope: 0
        outSlope: 0
        tangentMode: 136
        weightedMode: 0
        inWeight: 0
        outWeight: 0
      m_PreInfinity: 2
      m_PostInfinity: 2
      m_RotationOrder: 4
    attribute: m_AnchoredPosition.x
    path: Dwarf
    classID: 224
    script: {fileID: 0}
  - curve:
      serializedVersion: 2
      m_Curve:
      - serializedVersion: 3
        time: 0
        value: 0.0000030398369
        inSlope: 0
        outSlope: 0
        tangentMode: 136
        weightedMode: 0
        inWeight: 0
        outWeight: 0
      m_PreInfinity: 2
      m_PostInfinity: 2
      m_RotationOrder: 4
    attribute: m_SizeDelta.x
    path: Dwarf
    classID: 224
    script: {fileID: 0}
  m_PPtrCurves:
  - curve:
    - time: 0
      value: {fileID: 6856317537048643421, guid: 81d0ee7337e0a374caad30f61cec63e7, type: 3}
    - time: 0.022222223
      value: {fileID: -1132018376314804584, guid: 81d0ee7337e0a374caad30f61cec63e7, type: 3}
    - time: 0.044444446
      value: {fileID: 1052719533604668637, guid: 81d0ee7337e0a374caad30f61cec63e7, type: 3}
    - time: 0.06666667
      value: {fileID: 5601141619802421838, guid: 81d0ee7337e0a374caad30f61cec63e7, type: 3}
    - time: 0.08888889
      value: {fileID: 3608858954967093134, guid: 81d0ee7337e0a374caad30f61cec63e7, type: 3}
    - time: 0.11111111
      value: {fileID: -7204041999913969270, guid: 81d0ee7337e0a374caad30f61cec63e7, type: 3}
    - time: 0.13333334
      value: {fileID: 6228404365328532841, guid: 81d0ee7337e0a374caad30f61cec63e7, type: 3}
    - time: 0.15555556
      value: {fileID: 779965722376894432, guid: 81d0ee7337e0a374caad30f61cec63e7, type: 3}
    - time: 0.17777778
      value: {fileID: 4126407561061032523, guid: 81d0ee7337e0a374caad30f61cec63e7, type: 3}
    - time: 0.2
      value: {fileID: 3437189456119854374, guid: 81d0ee7337e0a374caad30f61cec63e7, type: 3}
    - time: 0.22222222
      value: {fileID: 178036091672250031, guid: 81d0ee7337e0a374caad30f61cec63e7, type: 3}
    - time: 0.24444444
      value: {fileID: -6075598451683297739, guid: 81d0ee7337e0a374caad30f61cec63e7, type: 3}
    - time: 0.26666668
      value: {fileID: -7365478206216873126, guid: 81d0ee7337e0a374caad30f61cec63e7, type: 3}
    - time: 0.2888889
      value: {fileID: -8962644265582623894, guid: 81d0ee7337e0a374caad30f61cec63e7, type: 3}
    - time: 0.31111112
      value: {fileID: -8537954031725107785, guid: 81d0ee7337e0a374caad30f61cec63e7, type: 3}
    - time: 0.33333334
      value: {fileID: 3363604371335873879, guid: 81d0ee7337e0a374caad30f61cec63e7, type: 3}
    - time: 0.35555556
      value: {fileID: 3143411988702861713, guid: 81d0ee7337e0a374caad30f61cec63e7, type: 3}
    attribute: m_Sprite
    path: Dwarf
    classID: 114
    script: {fileID: 11500000, guid: fe87c0e1cc204ed48ad3b37840f39efc, type: 3}
  m_SampleRate: 45
  m_WrapMode: 0
  m_Bounds:
    m_Center: {x: 0, y: 0, z: 0}
    m_Extent: {x: 0, y: 0, z: 0}
  m_ClipBindingConstant:
    genericBindings:
    - serializedVersion: 2
      path: 1836380095
      attribute: 2015549526
      script: {fileID: 11500000, guid: fe87c0e1cc204ed48ad3b37840f39efc, type: 3}
      typeID: 114
      customType: 0
      isPPtrCurve: 1
    - serializedVersion: 2
      path: 1836380095
      attribute: 1460864421
      script: {fileID: 0}
      typeID: 224
      customType: 28
      isPPtrCurve: 0
    - serializedVersion: 2
      path: 1836380095
      attribute: 1967290853
      script: {fileID: 0}
      typeID: 224
      customType: 28
      isPPtrCurve: 0
    pptrCurveMapping:
    - {fileID: 6856317537048643421, guid: 81d0ee7337e0a374caad30f61cec63e7, type: 3}
    - {fileID: -1132018376314804584, guid: 81d0ee7337e0a374caad30f61cec63e7, type: 3}
    - {fileID: 1052719533604668637, guid: 81d0ee7337e0a374caad30f61cec63e7, type: 3}
    - {fileID: 5601141619802421838, guid: 81d0ee7337e0a374caad30f61cec63e7, type: 3}
    - {fileID: 3608858954967093134, guid: 81d0ee7337e0a374caad30f61cec63e7, type: 3}
    - {fileID: -7204041999913969270, guid: 81d0ee7337e0a374caad30f61cec63e7, type: 3}
    - {fileID: 6228404365328532841, guid: 81d0ee7337e0a374caad30f61cec63e7, type: 3}
    - {fileID: 779965722376894432, guid: 81d0ee7337e0a374caad30f61cec63e7, type: 3}
    - {fileID: 4126407561061032523, guid: 81d0ee7337e0a374caad30f61cec63e7, type: 3}
    - {fileID: 3437189456119854374, guid: 81d0ee7337e0a374caad30f61cec63e7, type: 3}
    - {fileID: 178036091672250031, guid: 81d0ee7337e0a374caad30f61cec63e7, type: 3}
    - {fileID: -6075598451683297739, guid: 81d0ee7337e0a374caad30f61cec63e7, type: 3}
    - {fileID: -7365478206216873126, guid: 81d0ee7337e0a374caad30f61cec63e7, type: 3}
    - {fileID: -8962644265582623894, guid: 81d0ee7337e0a374caad30f61cec63e7, type: 3}
    - {fileID: -8537954031725107785, guid: 81d0ee7337e0a374caad30f61cec63e7, type: 3}
    - {fileID: 3363604371335873879, guid: 81d0ee7337e0a374caad30f61cec63e7, type: 3}
    - {fileID: 3143411988702861713, guid: 81d0ee7337e0a374caad30f61cec63e7, type: 3}
  m_AnimationClipSettings:
    serializedVersion: 2
    m_AdditiveReferencePoseClip: {fileID: 0}
    m_AdditiveReferencePoseTime: 0
    m_StartTime: 0
    m_StopTime: 0.37777779
    m_OrientationOffsetY: 0
    m_Level: 0
    m_CycleOffset: 0
    m_HasAdditiveReferencePose: 0
    m_LoopTime: 1
    m_LoopBlend: 0
    m_LoopBlendOrientation: 0
    m_LoopBlendPositionY: 0
    m_LoopBlendPositionXZ: 0
    m_KeepOriginalOrientation: 0
    m_KeepOriginalPositionY: 1
    m_KeepOriginalPositionXZ: 0
    m_HeightFromFeet: 0
    m_Mirror: 0
  m_EditorCurves:
  - curve:
      serializedVersion: 2
      m_Curve:
      - serializedVersion: 3
        time: 0
        value: 0.9000015
        inSlope: 0
        outSlope: 0
        tangentMode: 136
        weightedMode: 0
        inWeight: 0
        outWeight: 0
      m_PreInfinity: 2
      m_PostInfinity: 2
      m_RotationOrder: 4
    attribute: m_AnchoredPosition.x
    path: Dwarf
    classID: 224
    script: {fileID: 0}
  - curve:
      serializedVersion: 2
      m_Curve:
      - serializedVersion: 3
        time: 0
        value: 0.0000030398369
        inSlope: 0
        outSlope: 0
        tangentMode: 136
        weightedMode: 0
        inWeight: 0
        outWeight: 0
      m_PreInfinity: 2
      m_PostInfinity: 2
      m_RotationOrder: 4
    attribute: m_SizeDelta.x
    path: Dwarf
    classID: 224
    script: {fileID: 0}
  m_EulerEditorCurves: []
  m_HasGenericRootTransform: 0
  m_HasMotionFloatCurves: 0
  m_Events: []
