%YAML 1.1
%TAG !u! tag:unity3d.com,2011:
--- !u!114 &11400000
MonoBehaviour:
  m_ObjectHideFlags: 0
  m_CorrespondingSourceObject: {fileID: 0}
  m_PrefabInstance: {fileID: 0}
  m_PrefabAsset: {fileID: 0}
  m_GameObject: {fileID: 0}
  m_Enabled: 1
  m_EditorHideFlags: 0
  m_Script: {fileID: 11500000, guid: a6b194f808b1af6499c93410e504af42, type: 3}
  m_Name: skeleton_Atlas
  m_EditorClassIdentifier: 
  atlasFile: {fileID: 4900000, guid: dd9eb1170d8a886409adaee46b755247, type: 3}
  materials:
  - {fileID: 2100000, guid: 916282f7dda7868409fdfc5cc18b1a81, type: 2}
  - {fileID: 2100000, guid: 7e45501543dd1ef4aa89452c7343fc08, type: 2}
  - {fileID: 2100000, guid: 5f92700588ec28642965e5598b60a102, type: 2}
  - {fileID: 2100000, guid: db405531a0112ae4897ad51f3e9a9a9c, type: 2}
  - {fileID: 2100000, guid: 7e23c9289743d0e47b022acf0284e921, type: 2}
  - {fileID: 2100000, guid: 1e2abba2850656a43b37b37426e0e4d8, type: 2}
  - {fileID: 2100000, guid: 82fdd2a4141d07a44ac0b6154bf7fe41, type: 2}
  - {fileID: 2100000, guid: b28597373ebec1042b236c0e617cea51, type: 2}
  - {fileID: 2100000, guid: 992fa02c046f9be489256d4adb57142c, type: 2}
  - {fileID: 2100000, guid: e16cd54a1d3a77045ac882279505cf07, type: 2}
