{
"skeleton": {
	"hash": "H37VITp0C3UfcAui7jWtSpUUtF8",
	"spine": "3.8.0",
	"x": -126.91,
	"y": -266.79,
	"width": 258.06,
	"height": 619,
	"images": "../Image/",
	"audio": "C:/Users/Legion/Desktop/redrain_atlas/Casino/Character/MC_female"
},
"bones": [
	{ "name": "root" },
	{ "name": "badan", "parent": "root", "length": 80.28, "rotation": 89.54, "x": -0.04, "y": 29.38 },
	{ "name": "tangan_kanan_1", "parent": "badan", "length": 69.24, "rotation": 160.48, "x": 84.68, "y": 42.46 },
	{ "name": "tangan_kanan_2", "parent": "tangan_kanan_1", "length": 86.56, "x": 69.24 },
	{ "name": "tangan_kiri_1", "parent": "badan", "length": 68.49, "rotation": -158.88, "x": 86.84, "y": -41.83 },
	{ "name": "tangan_kiri_2", "parent": "tangan_kiri_1", "length": 88.55, "rotation": -1.81, "x": 68.49 },
	{ "name": "head", "parent": "badan", "length": 83.19, "rotation": 0.01, "x": 96.13, "y": 0.19 },
	{ "name": "hair", "parent": "head", "length": 47.62, "rotation": 0.94, "x": 119.28, "y": 2.18 },
	{ "name": "Rok", "parent": "root", "length": 81.16, "rotation": -90, "x": -0.98, "y": -25.99 },
	{ "name": "kaki_kanan_1", "parent": "Rok", "length": 91.98, "rotation": 7.01, "x": 18.92, "y": -30.76 },
	{ "name": "kaki_kanan_2", "parent": "kaki_kanan_1", "length": 74.49, "rotation": -5.44, "x": 91.98 },
	{ "name": "kaki_kiri_1", "parent": "Rok", "length": 97.37, "rotation": -8.13, "x": 16.88, "y": 37.07 },
	{ "name": "kaki_kiri_2", "parent": "kaki_kiri_1", "length": 72.99, "rotation": 5.73, "x": 97.37 }
],
"slots": [
	{ "name": "Tangan_kanan", "bone": "root", "attachment": "MC-female_ORI/Tangan_kanan_MC_Female" },
	{ "name": "tangan_kiri", "bone": "root", "attachment": "MC-female_ORI/tangan_kiri_MC_Female" },
	{ "name": "kaki_kanan", "bone": "root", "attachment": "MC-female_ORI/kaki_kanan_MC_female" },
	{ "name": "kaki_kiri", "bone": "root", "attachment": "MC-female_ORI/kaki_kiri_MC_female" },
	{ "name": "Rok", "bone": "root", "attachment": "MC-female_ORI/Rok_MC_Female" },
	{ "name": "badan", "bone": "root", "attachment": "MC-female_ORI/badan_MC_Female" },
	{ "name": "Head", "bone": "root", "attachment": "MC-female_ORI/Head_MC_Female" },
	{ "name": "hair", "bone": "root", "attachment": "MC-female_ORI/hair_MC_Female" }
],
"skins": [
	{
		"name": "default",
		"attachments": {
			"kaki_kiri": {
				"MC-female_ORI/kaki_kiri_MC_female": {
					"type": "mesh",
					"uvs": [ 0.629, 0.00561, 0.8954, 0.02734, 0.97721, 0.05612, 0.98041, 0.13493, 0.91985, 0.22626, 0.90113, 0.25449, 0.8842, 0.28003, 0.91161, 0.30927, 0.93776, 0.33716, 0.93393, 0.37222, 0.92871, 0.42007, 0.72247, 0.60528, 0.77882, 0.64326, 0.86685, 0.73894, 0.86048, 0.81241, 0.79362, 0.86237, 0.62278, 0.94581, 0.45591, 0.98494, 0.32333, 1, 0.30895, 1, 0.1527, 0.93355, 0.02361, 0.84463, 0.02216, 0.76788, 0.08662, 0.65442, 0.12269, 0.50638, 0.13619, 0.45099, 0.12938, 0.42295, 0.12323, 0.39759, 0.10207, 0.33291, 0.09013, 0.2964, 0.09144, 0.25108, 0.0941, 0.1591, 0.12654, 0.07496, 0.23282, 0.02079, 0.50315, 0.00496 ],
					"triangles": [ 17, 18, 20, 18, 19, 20, 17, 20, 16, 16, 20, 15, 20, 21, 15, 15, 21, 14, 14, 22, 13, 23, 13, 22, 23, 11, 12, 14, 21, 22, 12, 13, 23, 23, 24, 11, 11, 24, 10, 10, 24, 25, 25, 26, 10, 26, 27, 10, 10, 27, 9, 27, 28, 9, 9, 28, 8, 8, 28, 7, 28, 6, 7, 28, 29, 6, 29, 30, 6, 6, 30, 5, 5, 30, 4, 4, 30, 31, 3, 4, 31, 3, 31, 32, 3, 34, 0, 34, 3, 32, 34, 32, 33, 2, 0, 1, 3, 0, 2 ],
					"vertices": [ 1, 11, 49.25, 1.09, 1, 1, 11, 51.42, 12.97, 1, 1, 11, 55.93, 17.17, 1, 2, 11, 69.64, 19.27, 0.99988, 12, -25.66, 21.94, 1.2E-4, 2, 11, 85.92, 18.96, 0.87845, 12, -9.49, 20.01, 0.12155, 2, 11, 90.96, 18.87, 0.71843, 12, -4.5, 19.41, 0.28157, 2, 11, 95.51, 18.78, 0.49347, 12, 0.03, 18.87, 0.50653, 2, 11, 100.44, 20.68, 0.24617, 12, 5.12, 20.27, 0.75383, 2, 11, 105.14, 22.49, 0.1151, 12, 9.97, 21.6, 0.8849, 2, 11, 111.27, 23.2, 0.03479, 12, 16.15, 21.69, 0.96521, 2, 11, 119.64, 24.16, 0.00137, 12, 24.57, 21.82, 0.99863, 1, 12, 57.51, 14.33, 1, 1, 12, 64.09, 17.03, 1, 1, 12, 80.75, 21.52, 1, 1, 12, 93.68, 21.78, 1, 1, 12, 102.59, 19.28, 1, 1, 12, 117.57, 12.56, 1, 1, 12, 124.75, 5.68, 1, 1, 12, 127.64, 0.09, 1, 1, 12, 127.67, -0.53, 1, 1, 12, 116.26, -7.73, 1, 1, 12, 100.86, -13.93, 1, 1, 12, 87.37, -14.56, 1, 1, 12, 67.3, -12.63, 1, 1, 12, 41.2, -12.17, 1, 1, 12, 31.44, -12, 1, 1, 12, 26.52, -12.5, 1, 1, 12, 22.07, -12.95, 1, 2, 11, 109.48, -13.19, 0.05109, 12, 10.73, -14.34, 0.94891, 2, 11, 103.19, -14.61, 0.25727, 12, 4.34, -15.12, 0.74273, 2, 11, 95.29, -15.68, 0.68458, 12, -3.64, -15.4, 0.31542, 2, 11, 79.25, -17.86, 0.99906, 12, -19.81, -15.96, 9.4E-4, 1, 11, 64.39, -18.57, 1, 1, 11, 54.3, -15.4, 1, 1, 11, 49.9, -4.28, 1 ],
					"hull": 35,
					"edges": [ 0, 68, 0, 2, 2, 4, 4, 6, 20, 22, 22, 24, 24, 26, 26, 28, 28, 30, 30, 32, 32, 34, 34, 36, 36, 38, 38, 40, 40, 42, 42, 44, 44, 46, 62, 64, 64, 66, 66, 68, 12, 14, 14, 16, 10, 12, 6, 8, 8, 10, 16, 18, 18, 20, 58, 60, 60, 62, 54, 56, 56, 58, 50, 52, 52, 54, 46, 48, 48, 50 ],
					"width": 43,
					"height": 176
				}
			},
			"tangan_kiri": {
				"MC-female_ORI/tangan_kiri_MC_Female": {
					"type": "mesh",
					"uvs": [ 0.19166, 0.00478, 0.30283, 0.03374, 0.35853, 0.0787, 0.44653, 0.23823, 0.46573, 0.27304, 0.4862, 0.31016, 0.50638, 0.33243, 0.53068, 0.35925, 0.55749, 0.38104, 0.59828, 0.41419, 0.63899, 0.44727, 0.68958, 0.51195, 0.75375, 0.68728, 0.83081, 0.71819, 0.80219, 0.76437, 0.88418, 0.82828, 0.97553, 0.95138, 1, 0.98114, 1, 0.98686, 0.97113, 1, 0.94496, 1, 0.83433, 0.97507, 0.7277, 0.88176, 0.67665, 0.89286, 0.67679, 0.98093, 0.59231, 0.9805, 0.57762, 0.95194, 0.48643, 0.78435, 0.46368, 0.69706, 0.29775, 0.53561, 0.27102, 0.4928, 0.24525, 0.45153, 0.22579, 0.4103, 0.21241, 0.38534, 0.19826, 0.36107, 0.1697, 0.33005, 0.02439, 0.17223, 0.00937, 0.12832, 0.00942, 0.06293, 0.0473, 0.02484, 0.04726, 0.0132, 0.09406, 0.00477 ],
					"triangles": [ 18, 19, 17, 17, 19, 20, 20, 21, 16, 20, 16, 17, 24, 26, 23, 24, 25, 26, 21, 22, 16, 26, 27, 23, 22, 15, 16, 23, 27, 22, 22, 14, 15, 22, 27, 14, 27, 12, 14, 27, 28, 12, 14, 12, 13, 28, 11, 12, 28, 29, 11, 29, 10, 11, 10, 30, 9, 10, 29, 30, 30, 8, 9, 30, 31, 8, 31, 7, 8, 31, 32, 7, 32, 6, 7, 32, 33, 6, 33, 5, 6, 33, 34, 5, 5, 34, 4, 3, 35, 36, 38, 39, 2, 34, 35, 4, 35, 3, 4, 3, 36, 2, 1, 2, 0, 0, 2, 41, 39, 41, 2, 2, 36, 37, 38, 2, 37, 39, 40, 41 ],
					"vertices": [ 1, 4, -11.16, 8.25, 1, 1, 4, -1.49, 17.08, 1, 1, 4, 9.2, 19.3, 1, 1, 4, 43.06, 16.41, 1, 2, 4, 50.45, 15.78, 0.99836, 5, -18.53, 15.2, 0.00164, 2, 4, 58.33, 15.11, 0.92812, 5, -10.64, 14.78, 0.07188, 2, 4, 63.35, 15.48, 0.75859, 5, -5.63, 15.31, 0.24141, 2, 4, 69.39, 15.93, 0.44107, 5, 0.4, 15.95, 0.55893, 2, 4, 74.57, 16.99, 0.19776, 5, 5.53, 17.17, 0.80224, 2, 4, 82.43, 18.6, 0.03237, 5, 13.35, 19.03, 0.96763, 2, 4, 90.29, 20.21, 5.6E-4, 5, 21.15, 20.89, 0.99944, 1, 5, 35.41, 21.64, 1, 1, 5, 71.6, 16.41, 1, 1, 5, 80.21, 22.02, 1, 1, 5, 88.2, 16.12, 1, 1, 5, 103.38, 20.03, 1, 1, 5, 130.36, 20.96, 1, 1, 5, 136.97, 21.43, 1, 1, 5, 138.08, 21.05, 1, 1, 5, 139.65, 17.31, 1, 1, 5, 138.76, 14.71, 1, 1, 5, 130.17, 5.36, 1, 1, 5, 108.45, 0.94, 1, 1, 5, 108.88, -4.86, 1, 1, 5, 125.97, -10.68, 1, 1, 5, 123.02, -19.05, 1, 1, 5, 116.98, -18.62, 1, 1, 5, 81.37, -16.58, 1, 1, 5, 63.67, -13.07, 1, 1, 5, 26.72, -18.87, 1, 2, 4, 85.39, -19.24, 0.02674, 5, 17.5, -18.69, 0.97326, 2, 4, 76.52, -18.79, 0.17735, 5, 8.62, -18.52, 0.82265, 2, 4, 67.89, -17.72, 0.53528, 5, -0.04, -17.73, 0.46472, 2, 4, 62.61, -17.23, 0.77367, 5, -5.33, -17.4, 0.22633, 2, 4, 57.43, -16.86, 0.92553, 5, -10.52, -17.2, 0.07447, 2, 4, 50.42, -17.42, 0.99455, 5, -17.51, -17.99, 0.00545, 1, 4, 14.77, -20.29, 1, 1, 4, 5.79, -18.59, 1, 1, 4, -6.75, -13.86, 1, 1, 4, -12.66, -7.38, 1, 1, 4, -14.89, -6.54, 1, 1, 4, -14.78, -1.34, 1 ],
					"hull": 42,
					"edges": [ 0, 82, 0, 2, 2, 4, 20, 22, 22, 24, 24, 26, 26, 28, 28, 30, 30, 32, 32, 34, 34, 36, 36, 38, 38, 40, 40, 42, 42, 44, 44, 46, 46, 48, 48, 50, 50, 52, 52, 54, 54, 56, 56, 58, 66, 68, 72, 74, 74, 76, 76, 78, 78, 80, 80, 82, 64, 66, 62, 64, 8, 10, 10, 12, 12, 14, 14, 16, 4, 6, 6, 8, 68, 70, 70, 72, 16, 18, 18, 20, 58, 60, 60, 62 ],
					"width": 105,
					"height": 205
				}
			},
			"Head": {
				"MC-female_ORI/Head_MC_Female": {
					"type": "mesh",
					"uvs": [ 0.48777, 0, 0.5642, 0.01219, 0.58952, 0.02672, 0.63637, 0.08486, 0.79939, 0.13914, 0.89532, 0.23492, 0.94793, 0.30913, 0.92604, 0.50559, 0.92607, 0.56712, 0.99457, 0.61502, 0.9952, 0.69176, 0.94118, 0.80983, 0.91313, 0.82469, 0.89211, 0.8227, 0.85866, 0.9039, 0.75852, 0.95912, 0.58271, 0.99611, 0.43666, 0.99588, 0.37135, 0.98895, 0.23419, 0.95611, 0.15459, 0.91299, 0.09259, 0.81364, 0.08158, 0.81793, 0.05029, 0.79591, 0.005, 0.682, 0.0052, 0.59001, 0.08132, 0.54634, 0.06857, 0.5101, 0.0687, 0.37676, 0.07922, 0.2697, 0.17676, 0.16745, 0.2488, 0.12063, 0.33332, 0.09653, 0.36281, 0.09167, 0.40747, 0.02121, 0.48528, 0 ],
					"triangles": [ 7, 5, 6, 30, 28, 29, 8, 26, 28, 27, 28, 26, 26, 24, 25, 21, 23, 24, 33, 34, 35, 33, 35, 0, 2, 0, 1, 2, 33, 0, 33, 2, 3, 8, 10, 13, 10, 8, 9, 13, 20, 21, 21, 24, 26, 8, 33, 3, 30, 31, 32, 32, 33, 30, 33, 8, 30, 22, 23, 21, 8, 3, 7, 5, 3, 4, 5, 7, 3, 11, 13, 10, 12, 13, 11, 28, 30, 8, 21, 26, 13, 13, 26, 8, 20, 18, 19, 18, 20, 13, 14, 15, 13, 13, 17, 18, 13, 16, 17, 15, 16, 13 ],
					"vertices": [ 1, 6, 226.69, 3, 1, 1, 6, 223.93, -11.47, 1, 1, 6, 220.54, -16.28, 1, 1, 6, 206.89, -25.25, 1, 1, 6, 194.32, -56.16, 1, 1, 6, 171.86, -74.47, 1, 1, 6, 154.42, -84.55, 1, 1, 6, 108.03, -80.77, 1, 1, 6, 93.51, -80.9, 1, 1, 6, 82.3, -93.93, 1, 1, 6, 64.2, -94.19, 1, 1, 6, 36.25, -84.2, 1, 1, 6, 32.7, -78.93, 1, 1, 6, 33.14, -74.95, 1, 1, 6, 13.93, -68.78, 1, 1, 6, 0.75, -49.96, 1, 1, 6, -8.24, -16.8, 1, 1, 6, -8.41, 10.8, 1, 1, 6, -6.87, 23.16, 1, 1, 6, 0.68, 49.14, 1, 1, 6, 10.74, 64.27, 1, 1, 6, 34.09, 76.17, 1, 1, 6, 33.06, 78.24, 1, 1, 6, 38.21, 84.2, 1, 1, 6, 65.02, 92.97, 1, 1, 6, 86.74, 93.1, 1, 1, 6, 97.15, 78.8, 1, 1, 6, 105.69, 81.27, 1, 1, 6, 137.15, 81.5, 1, 1, 6, 162.44, 79.71, 1, 1, 6, 186.71, 61.46, 1, 1, 6, 197.87, 47.94, 1, 1, 6, 203.68, 32.01, 1, 1, 6, 204.87, 26.44, 1, 1, 6, 221.57, 18.13, 1, 1, 6, 226.69, 3.47, 1 ],
					"hull": 36,
					"edges": [ 0, 70, 0, 2, 2, 4, 4, 6, 6, 8, 8, 10, 10, 12, 12, 14, 14, 16, 16, 18, 18, 20, 20, 22, 22, 24, 24, 26, 26, 28, 28, 30, 30, 32, 32, 34, 34, 36, 36, 38, 38, 40, 40, 42, 42, 44, 44, 46, 46, 48, 48, 50, 50, 52, 52, 54, 54, 56, 56, 58, 58, 60, 60, 62, 62, 64, 64, 66, 66, 68, 68, 70 ],
					"width": 189,
					"height": 236
				}
			},
			"hair": {
				"MC-female_ORI/hair_MC_Female": {
					"type": "mesh",
					"uvs": [ 0.48979, 0.01795, 0.52736, 0, 0.56546, 0.00824, 0.62369, 0.02084, 0.66803, 0.03043, 0.70127, 0.03762, 0.72367, 0.0584, 0.74034, 0.07386, 0.75263, 0.08526, 0.77488, 0.13287, 0.79349, 0.17268, 0.81207, 0.21243, 0.81845, 0.24921, 0.82685, 0.29766, 0.85095, 0.30554, 0.87718, 0.33968, 0.89305, 0.36874, 0.90528, 0.39161, 0.8971, 0.34223, 0.8812, 0.3208, 0.87734, 0.29379, 0.90647, 0.28955, 0.93141, 0.29439, 0.95465, 0.33855, 0.97713, 0.38062, 0.98883, 0.44455, 0.99559, 0.4815, 0.99558, 0.52088, 0.99556, 0.5821, 0.99554, 0.65226, 0.98229, 0.70414, 0.96473, 0.74703, 0.94277, 0.77517, 0.91105, 0.81583, 0.87786, 0.82503, 0.82315, 0.84019, 0.75029, 0.86038, 0.67428, 0.88144, 0.61915, 0.88158, 0.55727, 0.88173, 0.49243, 0.88189, 0.44014, 0.79716, 0.35186, 0.53102, 0.251, 0.58412, 0.17686, 0.73769, 0.17664, 0.88871, 0.21517, 0.97118, 0.20401, 0.99287, 0.172, 0.99159, 0.1076, 0.93207, 0.0045, 0.72623, 0.00434, 0.47064, 0.04811, 0.34772, 0.10766, 0.2593, 0.21416, 0.22787, 0.23046, 0.22319, 0.27426, 0.07915, 0.34818, 0.044, 0.39279, 0.05885, 0.43972, 0.07447, 0.45519, 0.03448 ],
					"triangles": [ 19, 20, 21, 18, 19, 21, 18, 23, 17, 22, 18, 21, 23, 18, 22, 27, 25, 26, 58, 55, 57, 42, 58, 59, 55, 56, 57, 58, 42, 55, 25, 17, 23, 43, 55, 42, 54, 55, 43, 24, 25, 23, 17, 25, 27, 29, 30, 28, 44, 50, 51, 53, 54, 43, 52, 53, 43, 44, 52, 43, 44, 51, 52, 17, 27, 28, 30, 31, 28, 28, 32, 17, 31, 32, 28, 59, 0, 42, 41, 42, 0, 32, 34, 17, 15, 16, 13, 17, 35, 16, 33, 34, 32, 10, 12, 13, 13, 16, 35, 15, 13, 14, 17, 34, 35, 13, 37, 9, 9, 7, 8, 7, 9, 6, 9, 10, 13, 12, 10, 11, 35, 36, 13, 9, 38, 4, 6, 4, 5, 6, 9, 4, 36, 37, 13, 2, 3, 41, 38, 3, 4, 37, 38, 9, 2, 0, 1, 38, 39, 3, 2, 41, 0, 0, 59, 60, 41, 3, 39, 40, 41, 39, 44, 49, 50, 45, 49, 44, 48, 49, 45, 48, 45, 46, 47, 48, 46 ],
					"vertices": [ 1, 7, 71.27, -2.69, 1, 1, 7, 73.32, -11.01, 1, 1, 7, 72.27, -19.43, 1, 1, 7, 70.68, -32.28, 1, 1, 7, 69.46, -42.07, 1, 1, 7, 68.55, -49.41, 1, 1, 7, 66.06, -54.34, 1, 1, 7, 64.2, -58.01, 1, 1, 7, 62.83, -60.71, 1, 1, 7, 57.17, -65.58, 1, 1, 7, 52.44, -69.65, 1, 1, 7, 47.71, -73.72, 1, 1, 7, 43.36, -75.09, 1, 1, 7, 37.63, -76.9, 1, 1, 7, 36.65, -82.22, 1, 1, 7, 32.58, -87.98, 1, 1, 7, 29.12, -91.46, 1, 1, 7, 26.4, -94.14, 1, 1, 7, 32.24, -92.38, 1, 1, 7, 34.8, -88.89, 1, 1, 7, 37.99, -88.06, 1, 1, 7, 38.44, -94.5, 1, 1, 7, 37.82, -100.01, 1, 1, 7, 32.56, -105.1, 1, 1, 7, 27.56, -110.03, 1, 1, 7, 19.99, -112.55, 1, 1, 7, 15.62, -114, 1, 1, 7, 10.97, -113.96, 1, 1, 7, 3.75, -113.9, 1, 1, 7, -4.53, -113.82, 1, 1, 7, -10.63, -110.84, 1, 1, 7, -15.65, -106.92, 1, 1, 7, -18.93, -102.03, 1, 1, 7, -23.67, -94.99, 1, 1, 7, -24.69, -87.64, 1, 1, 7, -26.38, -75.53, 1, 1, 7, -28.62, -59.41, 1, 1, 7, -30.97, -42.59, 1, 1, 7, -30.88, -30.41, 1, 1, 7, -30.78, -16.74, 1, 1, 7, -30.67, -2.41, 1, 1, 7, -20.58, 9.06, 1, 1, 7, 10.99, 28.3, 1, 1, 7, 4.92, 50.65, 1, 1, 7, -13.06, 67.19, 1, 1, 7, -30.88, 67.39, 1, 1, 7, -40.69, 58.96, 1, 1, 7, -43.23, 61.44, 1, 1, 7, -43.01, 68.52, 1, 1, 7, -35.87, 82.69, 1, 1, 7, -11.39, 105.27, 1, 1, 7, 18.77, 105.04, 1, 1, 7, 33.19, 95.25, 1, 1, 7, 43.51, 82, 1, 1, 7, 47.02, 58.43, 1, 1, 7, 47.54, 54.82, 1, 1, 7, 64.46, 45, 1, 1, 7, 68.46, 28.63, 1, 1, 7, 66.63, 18.78, 1, 1, 7, 64.7, 8.43, 1, 1, 7, 69.39, 4.97, 1 ],
					"hull": 61,
					"edges": [ 58, 60, 60, 62, 80, 82, 82, 84, 84, 86, 86, 88, 88, 90, 90, 92, 92, 94, 94, 96, 96, 98, 98, 100, 100, 102, 102, 104, 104, 106, 106, 108, 108, 110, 110, 112, 112, 114, 118, 120, 78, 80, 74, 76, 76, 78, 72, 74, 70, 72, 66, 68, 68, 70, 62, 64, 64, 66, 56, 58, 52, 54, 54, 56, 48, 50, 50, 52, 44, 46, 46, 48, 26, 28, 22, 24, 24, 26, 20, 22, 16, 18, 18, 20, 14, 16, 10, 12, 12, 14, 8, 10, 6, 8, 2, 4, 4, 6, 2, 0, 0, 120, 114, 116, 116, 118, 28, 30, 30, 32, 32, 34, 34, 36, 36, 38, 38, 40, 40, 42, 42, 44 ],
					"width": 221,
					"height": 118
				}
			},
			"Rok": {
				"MC-female_ORI/Rok_MC_Female": {
					"type": "mesh",
					"uvs": [ 0.58131, 0.00551, 0.693, 0.0264, 0.76701, 0.06072, 0.83168, 0.117, 0.94146, 0.30743, 0.9799, 0.39336, 0.99295, 0.47492, 0.99219, 0.57066, 0.9424, 0.76864, 0.84716, 0.97787, 0.83369, 0.98886, 0.72659, 0.98884, 0.64392, 0.9619, 0.60567, 0.97878, 0.54357, 0.99447, 0.43829, 0.99447, 0.36913, 0.97391, 0.34273, 0.96339, 0.23611, 0.99458, 0.15904, 0.9944, 0.0635, 0.80658, 0.00694, 0.58044, 0.00593, 0.45118, 0.03203, 0.34929, 0.16198, 0.1257, 0.21349, 0.07494, 0.30429, 0.01885, 0.42539, 0.00553 ],
					"triangles": [ 10, 11, 9, 11, 12, 9, 13, 16, 12, 9, 12, 8, 8, 12, 7, 21, 7, 12, 6, 7, 4, 21, 4, 7, 6, 4, 5, 17, 18, 20, 18, 19, 20, 16, 17, 12, 12, 17, 21, 20, 21, 17, 22, 23, 4, 4, 21, 22, 13, 14, 16, 14, 15, 16, 24, 4, 23, 24, 3, 4, 3, 24, 27, 2, 3, 0, 2, 0, 1, 0, 3, 27, 25, 26, 27, 25, 27, 24 ],
					"vertices": [ 1, 8, -74.22, 13.28, 1, 1, 8, -70.5, 27.91, 1, 1, 8, -64.39, 37.61, 1, 1, 8, -54.37, 46.08, 1, 2, 8, -20.48, 60.46, 0.31127, 11, -40.29, 17.88, 0.68873, 2, 8, -5.18, 65.5, 0.12731, 11, -25.86, 25.03, 0.87269, 2, 8, 9.34, 67.21, 0.02621, 11, -11.73, 28.77, 0.97379, 2, 9, 19.34, 96.23, 0, 11, 5.15, 31.09, 1, 3, 8, 61.62, 60.59, 3.0E-5, 9, 53.52, 85.46, 0, 11, 40.96, 29.61, 0.99997, 3, 8, 98.86, 48.11, 0.00144, 9, 88.97, 68.53, 1.0E-5, 11, 79.6, 22.53, 0.99855, 3, 8, 100.82, 46.35, 0.00149, 9, 90.69, 66.54, 1.0E-5, 11, 81.78, 21.06, 0.9985, 3, 8, 100.82, 32.32, 0.00175, 9, 88.98, 52.62, 1.0E-5, 11, 83.76, 7.17, 0.99824, 3, 8, 96.02, 21.49, 0.12084, 9, 82.9, 42.45, 9.4E-4, 11, 80.55, -4.23, 0.87822, 3, 8, 99.02, 16.47, 0.34861, 9, 85.27, 37.11, 0.01462, 11, 84.23, -8.77, 0.63677, 3, 8, 101.82, 8.34, 0.55994, 9, 87.05, 28.7, 0.07316, 11, 88.15, -16.42, 0.3669, 3, 8, 101.82, -5.45, 0.56338, 9, 85.37, 15.01, 0.35149, 11, 90.1, -30.08, 0.08513, 3, 8, 98.16, -14.51, 0.27709, 9, 80.63, 6.47, 0.70982, 11, 87.75, -39.56, 0.0131, 3, 8, 96.28, -17.97, 0.10249, 9, 78.35, 3.26, 0.89508, 11, 86.39, -43.25, 0.00243, 1, 9, 82.16, -11.28, 1, 1, 9, 80.89, -21.3, 1, 1, 9, 46.18, -29.64, 1, 2, 8, 28.12, -61.96, 2.0E-5, 9, 5.33, -32.08, 0.99998, 2, 8, 5.11, -62.09, 0.06527, 9, -17.53, -29.41, 0.93473, 2, 8, -13.03, -58.67, 0.25235, 9, -35.11, -23.8, 0.74765, 1, 8, -52.82, -41.65, 1, 1, 8, -61.86, -34.9, 1, 1, 8, -71.84, -23.01, 1, 1, 8, -74.21, -7.14, 1 ],
					"hull": 28,
					"edges": [ 0, 54, 0, 2, 2, 4, 4, 6, 6, 8, 8, 10, 10, 12, 12, 14, 14, 16, 16, 18, 18, 20, 20, 22, 22, 24, 24, 26, 26, 28, 28, 30, 30, 32, 32, 34, 34, 36, 36, 38, 38, 40, 40, 42, 42, 44, 44, 46, 46, 48, 48, 50, 50, 52, 52, 54 ],
					"width": 131,
					"height": 178
				}
			},
			"badan": {
				"MC-female_ORI/badan_MC_Female": {
					"type": "mesh",
					"uvs": [ 0.90119, 0.03025, 0.77247, 0.06973, 0.95, 0.30825, 0.94957, 0.44891, 0.88209, 0.54839, 0.87975, 0.75235, 0.86293, 0.83507, 0.7825, 0.90215, 0.67581, 0.94033, 0.39858, 0.95178, 0.30654, 0.92864, 0.18544, 0.87536, 0.14466, 0.83747, 0.12751, 0.67618, 0.1363, 0.55202, 0.11623, 0.5222, 0.05927, 0.4693, 0.05954, 0.31654, 0.22774, 0.08328, 0.28407, 0.0428, 0.57591, 0.05184, 0.58827, 0.04519 ],
					"triangles": [ 1, 21, 0, 20, 1, 2, 18, 19, 20, 2, 15, 17, 16, 17, 15, 3, 4, 2, 2, 14, 15, 20, 21, 1, 2, 18, 20, 17, 18, 2, 4, 14, 2, 4, 13, 14, 5, 13, 4, 13, 11, 12, 13, 5, 11, 11, 5, 10, 6, 7, 5, 10, 5, 9, 7, 8, 5, 8, 9, 5 ],
					"vertices": [ 1, 1, 98.84, -46.8, 1, 1, 1, 92.64, -31.79, 1, 1, 1, 56.08, -52.86, 1, 1, 1, 34.42, -52.99, 1, 1, 1, 19.03, -45.21, 1, 1, 1, -12.38, -45.2, 1, 1, 1, -25.13, -43.33, 1, 1, 1, -35.54, -34, 1, 1, 1, -41.52, -21.57, 1, 1, 1, -43.54, 10.85, 1, 1, 1, -40.07, 21.65, 1, 1, 1, -31.98, 35.88, 1, 1, 1, -26.18, 40.7, 1, 1, 1, -1.36, 42.91, 1, 1, 1, 17.77, 42.04, 1, 1, 1, 22.34, 44.42, 1, 1, 1, 30.43, 51.15, 1, 1, 1, 53.96, 51.31, 1, 1, 1, 90.04, 31.92, 1, 1, 1, 96.33, 25.38, 1, 1, 1, 95.21, -8.77, 1, 1, 1, 96.25, -10.21, 1 ],
					"hull": 22,
					"edges": [ 0, 42, 0, 2, 2, 4, 4, 6, 6, 8, 8, 10, 10, 12, 12, 14, 14, 16, 16, 18, 18, 20, 20, 22, 22, 24, 24, 26, 26, 28, 28, 30, 30, 32, 32, 34, 34, 36, 36, 38, 38, 40, 40, 42 ],
					"width": 117,
					"height": 154
				}
			},
			"Tangan_kanan": {
				"MC-female_ORI/Tangan_kanan_MC_Female": {
					"type": "mesh",
					"uvs": [ 0.89805, 0.00482, 0.94267, 0.01319, 0.94675, 0.02825, 0.99059, 0.07313, 0.99079, 0.1263, 0.97293, 0.16335, 0.89556, 0.25032, 0.86179, 0.28828, 0.8313, 0.32254, 0.80708, 0.34976, 0.7932, 0.36537, 0.77872, 0.38164, 0.77307, 0.39304, 0.76721, 0.40487, 0.76204, 0.41531, 0.75418, 0.43147, 0.74595, 0.44839, 0.73952, 0.46162, 0.72837, 0.48454, 0.70922, 0.52391, 0.51724, 0.71226, 0.46686, 0.75323, 0.46679, 0.86285, 0.41103, 0.98053, 0.36648, 0.98087, 0.31794, 0.98124, 0.31102, 0.9357, 0.3019, 0.87562, 0.18067, 0.96866, 0.07636, 0.99552, 0.00898, 0.99536, 0.00946, 0.96356, 0.10763, 0.8345, 0.20881, 0.74562, 0.23362, 0.70658, 0.30137, 0.52843, 0.34495, 0.45547, 0.38434, 0.4236, 0.42176, 0.39332, 0.43449, 0.38302, 0.45463, 0.36672, 0.46605, 0.35748, 0.47833, 0.34754, 0.48647, 0.33504, 0.4935, 0.32425, 0.50499, 0.3066, 0.51738, 0.28758, 0.53654, 0.25817, 0.55659, 0.22739, 0.58971, 0.17654, 0.60563, 0.14423, 0.61499, 0.10838, 0.64278, 0.06576, 0.72421, 0.02395, 0.77471, 0.00482 ],
					"triangles": [ 28, 29, 31, 29, 30, 31, 25, 26, 24, 24, 26, 23, 23, 26, 22, 27, 28, 32, 32, 28, 31, 26, 27, 22, 21, 22, 27, 27, 32, 33, 21, 27, 33, 33, 34, 21, 21, 34, 20, 34, 35, 20, 20, 35, 19, 35, 36, 19, 36, 37, 19, 19, 37, 18, 18, 37, 38, 18, 38, 17, 17, 38, 39, 17, 39, 16, 16, 39, 40, 16, 40, 15, 15, 40, 41, 14, 15, 41, 14, 41, 42, 14, 42, 13, 13, 42, 12, 12, 42, 11, 11, 42, 43, 43, 44, 11, 11, 44, 10, 44, 45, 10, 10, 45, 9, 45, 46, 9, 9, 46, 8, 46, 47, 8, 8, 47, 7, 47, 48, 7, 7, 48, 6, 48, 49, 6, 49, 50, 6, 6, 50, 5, 5, 50, 51, 5, 51, 52, 5, 52, 53, 4, 5, 54, 1, 2, 0, 0, 2, 54, 5, 53, 54, 3, 54, 2, 54, 3, 4 ],
					"vertices": [ 1, 2, -16.75, 2.7, 1, 1, 2, -16.74, 7.69, 1, 1, 2, -13.99, 9.14, 1, 1, 2, -6.91, 16.61, 1, 1, 2, 3.32, 20.36, 1, 1, 2, 11.1, 21.19, 1, 1, 2, 30.63, 19.65, 1, 1, 2, 39.16, 18.98, 1, 2, 2, 46.85, 18.37, 0.99928, 3, -22.39, 18.37, 7.2E-4, 2, 2, 52.97, 17.89, 0.98027, 3, -16.28, 17.89, 0.01973, 2, 2, 56.47, 17.61, 0.94258, 3, -12.77, 17.61, 0.05742, 2, 2, 60.13, 17.32, 0.85944, 3, -9.12, 17.32, 0.14056, 2, 2, 62.52, 17.56, 0.77454, 3, -6.72, 17.56, 0.22546, 2, 2, 65.01, 17.81, 0.66901, 3, -4.23, 17.81, 0.33099, 2, 2, 67.21, 18.03, 0.56452, 3, -2.03, 18.03, 0.43548, 2, 2, 70.61, 18.39, 0.39736, 3, 1.36, 18.39, 0.60264, 2, 2, 74.16, 18.76, 0.24598, 3, 4.92, 18.76, 0.75402, 2, 2, 76.94, 19.05, 0.15583, 3, 7.7, 19.05, 0.84417, 2, 2, 81.76, 19.56, 0.05692, 3, 12.51, 19.56, 0.94308, 2, 2, 90.03, 20.43, 0.00308, 3, 20.78, 20.43, 0.99692, 1, 3, 63.96, 14.68, 1, 1, 3, 73.66, 12.58, 1, 1, 3, 94.78, 20.25, 1, 1, 3, 119.46, 22.99, 1, 1, 3, 121.12, 18.62, 1, 1, 3, 122.93, 13.86, 1, 1, 3, 114.41, 9.98, 1, 1, 3, 103.16, 4.88, 1, 1, 3, 125.44, -0.57, 1, 1, 3, 134.35, -8.98, 1, 1, 3, 136.74, -15.64, 1, 1, 3, 130.6, -17.82, 1, 1, 3, 102.21, -17.18, 1, 1, 3, 81.45, -13.42, 1, 1, 3, 73.04, -13.71, 1, 1, 3, 36.29, -19.5, 1, 2, 2, 89.92, -20.31, 6.0E-5, 3, 20.67, -20.31, 0.99994, 2, 2, 82.36, -18.66, 0.02509, 3, 13.12, -18.66, 0.97491, 2, 2, 75.18, -17.09, 0.1602, 3, 5.94, -17.09, 0.8398, 2, 2, 72.74, -16.55, 0.25408, 3, 3.5, -16.55, 0.74592, 2, 2, 68.88, -15.71, 0.44947, 3, -0.36, -15.71, 0.55053, 2, 2, 66.69, -15.23, 0.57672, 3, -2.55, -15.23, 0.42328, 2, 2, 64.33, -14.71, 0.7164, 3, -4.91, -14.71, 0.2836, 2, 2, 61.63, -14.78, 0.84566, 3, -7.61, -14.78, 0.15434, 2, 2, 59.3, -14.85, 0.91574, 3, -9.94, -14.85, 0.08426, 2, 2, 55.49, -14.95, 0.9766, 3, -13.75, -14.95, 0.0234, 2, 2, 51.38, -15.06, 0.9973, 3, -17.86, -15.06, 0.0027, 1, 2, 45.03, -15.23, 1, 1, 2, 38.38, -15.41, 1, 1, 2, 27.39, -15.7, 1, 1, 2, 20.6, -16.39, 1, 1, 2, 13.36, -17.98, 1, 1, 2, 4.15, -18.22, 1, 1, 2, -6.83, -13.12, 1, 1, 2, -12.33, -9.48, 1 ],
					"hull": 55,
					"edges": [ 0, 108, 0, 2, 2, 4, 4, 6, 6, 8, 8, 10, 38, 40, 40, 42, 42, 44, 44, 46, 54, 56, 56, 58, 58, 60, 60, 62, 62, 64, 64, 66, 66, 68, 68, 70, 70, 72, 98, 100, 100, 102, 102, 104, 104, 106, 106, 108, 46, 48, 48, 50, 50, 52, 52, 54, 80, 82, 82, 84, 78, 80, 84, 86, 86, 88, 88, 90, 28, 30, 26, 28, 22, 24, 24, 26, 20, 22, 18, 20, 30, 32, 32, 34, 76, 78, 90, 92, 92, 94, 94, 96, 96, 98, 72, 74, 74, 76, 16, 18, 14, 16, 10, 12, 12, 14, 34, 36, 36, 38 ],
					"width": 105,
					"height": 205
				}
			},
			"kaki_kanan": {
				"MC-female_ORI/kaki_kanan_MC_female": {
					"type": "mesh",
					"uvs": [ 0.41336, 0.00296, 0.65486, 0.01263, 0.75158, 0.01968, 0.90521, 0.05698, 0.90518, 0.09076, 0.93414, 0.20386, 0.91518, 0.28942, 0.90821, 0.32088, 0.9016, 0.3507, 0.8894, 0.40577, 0.91067, 0.63233, 0.97684, 0.74476, 0.97653, 0.85286, 0.87119, 0.9277, 0.71072, 0.99448, 0.60277, 0.99609, 0.35781, 0.93817, 0.13782, 0.83282, 0.09481, 0.75472, 0.27278, 0.60084, 0.03518, 0.39295, 0.05317, 0.34914, 0.07922, 0.31196, 0.10373, 0.27698, 0.11715, 0.25286, 0.02341, 0.14349, 0.02232, 0.05126, 0.13074, 0.0253 ],
					"triangles": [ 14, 15, 13, 13, 15, 16, 13, 16, 12, 12, 16, 17, 12, 17, 11, 11, 18, 10, 10, 18, 19, 18, 11, 17, 19, 9, 10, 19, 20, 9, 20, 21, 9, 9, 21, 8, 21, 22, 8, 8, 22, 7, 22, 23, 7, 7, 23, 6, 23, 24, 6, 6, 24, 5, 4, 5, 25, 0, 4, 25, 4, 1, 2, 1, 4, 0, 0, 25, 27, 25, 5, 24, 25, 26, 27, 4, 2, 3 ],
					"vertices": [ 1, 9, 46.82, 0.55, 1, 1, 9, 49.75, 10.41, 1, 1, 9, 51.47, 14.29, 1, 1, 9, 58.78, 19.89, 1, 1, 9, 64.68, 19.17, 1, 2, 9, 84.58, 17.95, 0.8744, 10, -9.06, 17.17, 0.1256, 2, 9, 99.43, 15.32, 0.23617, 10, 5.97, 15.96, 0.76383, 2, 9, 104.89, 14.35, 0.07619, 10, 11.5, 15.51, 0.92381, 2, 9, 110.07, 13.44, 0.01558, 10, 16.73, 15.09, 0.98442, 1, 10, 26.41, 14.31, 1, 1, 10, 66.29, 14.11, 1, 1, 10, 86.15, 16.35, 1, 1, 10, 105.17, 15.82, 1, 1, 10, 118.21, 11.03, 1, 1, 10, 129.78, 3.97, 1, 1, 10, 129.94, -0.57, 1, 1, 10, 119.47, -10.57, 1, 1, 10, 100.68, -19.3, 1, 1, 10, 86.89, -20.73, 1, 1, 10, 60.02, -12.52, 1, 2, 9, 113.01, -23.59, 0.00136, 10, 23.17, -21.49, 0.99864, 2, 9, 105.45, -21.9, 0.0326, 10, 15.48, -20.52, 0.9674, 2, 9, 99.08, -20.01, 0.13873, 10, 8.97, -19.25, 0.86127, 2, 9, 93.1, -18.24, 0.37501, 10, 2.85, -18.05, 0.62499, 2, 9, 88.96, -17.16, 0.61042, 10, -1.38, -17.37, 0.38958, 2, 9, 69.37, -18.72, 0.9996, 10, -20.73, -20.78, 4.0E-4, 1, 9, 53.25, -16.79, 1, 1, 9, 49.27, -11.71, 1 ],
					"hull": 28,
					"edges": [ 0, 54, 0, 2, 2, 4, 4, 6, 6, 8, 8, 10, 18, 20, 20, 22, 22, 24, 24, 26, 26, 28, 28, 30, 30, 32, 32, 34, 34, 36, 36, 38, 38, 40, 40, 42, 46, 48, 48, 50, 50, 52, 52, 54, 42, 44, 44, 46, 14, 16, 16, 18, 10, 12, 12, 14 ],
					"width": 42,
					"height": 176
				}
			}
		}
	}
],
"animations": {
	"animation": {
		"bones": {
			"badan": {
				"translate": [
					{},
					{ "time": 0.1667, "y": 4.21 },
					{ "time": 0.5, "y": 1.48 },
					{ "time": 0.8333, "y": 4.21 },
					{ "time": 1.1667, "y": 1.48 },
					{ "time": 1.3 }
				]
			},
			"tangan_kiri_1": {
				"rotate": [
					{},
					{ "time": 0.1667, "angle": -5.07 },
					{ "time": 0.5, "angle": 1.35 },
					{ "time": 0.8333, "angle": -5.07 },
					{ "time": 1.1667, "angle": 1.35 },
					{ "time": 1.3 }
				]
			},
			"tangan_kanan_1": {
				"rotate": [
					{},
					{ "time": 0.1667, "angle": -2.02 },
					{ "time": 0.5, "angle": 4.98 },
					{ "time": 0.8333, "angle": -2.02 },
					{ "time": 1.1667, "angle": 4.98 },
					{ "time": 1.3 }
				]
			},
			"hair": {
				"translate": [
					{},
					{ "time": 0.2, "x": -5.23, "y": -0.04 },
					{ "time": 0.5333, "x": 1.05, "y": 0.01 },
					{ "time": 0.8667, "x": -5.23, "y": -0.04 },
					{ "time": 1.2, "x": 1.05, "y": 0.01 },
					{ "time": 1.3333 }
				]
			},
			"head": {
				"translate": [
					{},
					{ "time": 0.1667, "x": -6.71, "y": -0.05 },
					{ "time": 0.5, "x": 1.01, "y": 0.01 },
					{ "time": 0.8333, "x": -6.71, "y": -0.05 },
					{ "time": 1.1667, "x": 1.01, "y": 0.01 },
					{ "time": 1.3 }
				]
			},
			"kaki_kiri_2": {
				"translate": [
					{},
					{ "time": 0.1667, "x": 0.95, "y": -1.19 },
					{ "time": 0.5, "x": 4.22, "y": -0.52 },
					{ "time": 0.8333, "x": 0.95, "y": -1.19 },
					{ "time": 1.1667, "x": 4.22, "y": -0.52 },
					{ "time": 1.3333 }
				],
				"scale": [
					{},
					{ "time": 0.1667, "x": 0.8, "y": 0.8 },
					{ "time": 0.5 },
					{ "time": 0.8333, "x": 0.8, "y": 0.8 },
					{ "time": 1.1667 }
				]
			},
			"kaki_kiri_1": {
				"rotate": [
					{ "angle": 3.13 }
				],
				"translate": [
					{},
					{ "time": 0.1667, "x": -1.53 },
					{ "time": 0.5, "x": 14.57 },
					{ "time": 0.8333, "x": -1.53 },
					{ "time": 1.1667, "x": 14.57 },
					{ "time": 1.3 }
				]
			},
			"kaki_kanan_2": {
				"translate": [
					{},
					{ "time": 0.1667, "x": 4.22, "y": -0.52, "curve": "stepped" },
					{ "time": 1.1667, "x": 4.22, "y": -0.52 },
					{ "time": 1.3333 }
				],
				"scale": [
					{ "time": 0.1667 },
					{ "time": 0.5, "x": 0.8, "y": 0.8 },
					{ "time": 0.8333 },
					{ "time": 1.1667, "x": 0.8, "y": 0.8 },
					{ "time": 1.3333 }
				]
			},
			"kaki_kanan_1": {
				"rotate": [
					{ "angle": -2.01 }
				],
				"translate": [
					{},
					{ "time": 0.1667, "x": 14.57 },
					{ "time": 0.5, "x": -1.53 },
					{ "time": 0.8333, "x": 14.57 },
					{ "time": 1.1667, "x": -1.53 },
					{ "time": 1.3 }
				]
			},
			"tangan_kanan_2": {
				"scale": [
					{},
					{ "time": 0.1667, "x": 0.85, "y": 0.85 },
					{ "time": 0.5, "x": 1.08, "y": 1.08 },
					{ "time": 0.8333, "x": 0.85, "y": 0.85 },
					{ "time": 1.1667, "x": 1.08, "y": 1.08 },
					{ "time": 1.3 }
				]
			},
			"tangan_kiri_2": {
				"scale": [
					{},
					{ "time": 0.1667, "x": 1.08, "y": 1.08 },
					{ "time": 0.5, "x": 0.85, "y": 0.85 },
					{ "time": 0.8333, "x": 1.08, "y": 1.08 },
					{ "time": 1.1667, "x": 0.85, "y": 0.85 },
					{ "time": 1.3 }
				]
			}
		}
	}
}
}