%YAML 1.1
%TAG !u! tag:unity3d.com,2011:
--- !u!114 &11400000
MonoBehaviour:
  m_ObjectHideFlags: 0
  m_CorrespondingSourceObject: {fileID: 0}
  m_PrefabInstance: {fileID: 0}
  m_PrefabAsset: {fileID: 0}
  m_GameObject: {fileID: 0}
  m_Enabled: 1
  m_EditorHideFlags: 0
  m_Script: {fileID: 11500000, guid: a6b194f808b1af6499c93410e504af42, type: 3}
  m_Name: NPC_Roulette_M_Atlas
  m_EditorClassIdentifier: 
  atlasFile: {fileID: 4900000, guid: fb85dcb7343566047a792b6cad9ea055, type: 3}
  materials:
  - {fileID: 2100000, guid: bde3d02be5f5bcb44b6ebf52815e0e5d, type: 2}
